<?xml version="1.0" encoding="UTF-8" standalone="no"?>
<!-- Created with Inkscape (http://www.inkscape.org/) -->

<svg
   xmlns:dc="http://purl.org/dc/elements/1.1/"
   xmlns:cc="http://creativecommons.org/ns#"
   xmlns:rdf="http://www.w3.org/1999/02/22-rdf-syntax-ns#"
   xmlns:svg="http://www.w3.org/2000/svg"
   xmlns="http://www.w3.org/2000/svg"
   xmlns:sodipodi="http://sodipodi.sourceforge.net/DTD/sodipodi-0.dtd"
   xmlns:inkscape="http://www.inkscape.org/namespaces/inkscape"
   id="svg2"
   version="1.1"
   inkscape:version="0.91 r13725"
   xml:space="preserve"
   width="711.5625"
   height="153.4375"
   viewBox="0 0 711.5625 153.4375"
   sodipodi:docname="AC Emerson.svg"><metadata
     id="metadata8"><rdf:RDF><cc:Work
         rdf:about=""><dc:format>image/svg+xml</dc:format><dc:type
           rdf:resource="http://purl.org/dc/dcmitype/StillImage" /><dc:title></dc:title></cc:Work></rdf:RDF></metadata><defs
     id="defs6"><clipPath
       clipPathUnits="userSpaceOnUse"
       id="clipPath16"><path
         d="m 0,0 569.25,0 0,122.75 L 0,122.75 0,0 Z"
         id="path18"
         inkscape:connector-curvature="0"
         style="clip-rule:evenodd" /></clipPath></defs><sodipodi:namedview
     pagecolor="#ffffff"
     bordercolor="#666666"
     borderopacity="1"
     objecttolerance="10"
     gridtolerance="10"
     guidetolerance="10"
     inkscape:pageopacity="0"
     inkscape:pageshadow="2"
     inkscape:window-width="640"
     inkscape:window-height="480"
     id="namedview4"
     showgrid="false"
     inkscape:zoom="0.45674133"
     inkscape:cx="355.78125"
     inkscape:cy="76.71875"
     inkscape:window-x="0"
     inkscape:window-y="0"
     inkscape:window-maximized="0"
     inkscape:current-layer="g10" /><g
     id="g10"
     inkscape:groupmode="layer"
     inkscape:label="AC Emerson"
     transform="scale(1.25,1.25)"><g
       id="g12"><g
         id="g14"
         clip-path="url(#clipPath16)"><g
           id="g20"><path
             d="m 0,0 569.25,0 0,122.75 L 0,122.75 0,0 Z"
             style="fill:#ffffff;fill-opacity:1;fill-rule:evenodd;stroke:none"
             id="path22"
             inkscape:connector-curvature="0" /></g><g
           id="g24"><path
             d="m 475.515,52.773 86.794,10e-4 0,0.6 -86.794,-0.001 0,-0.6"
             style="fill:#000000;fill-opacity:1;fill-rule:nonzero;stroke:none"
             id="path26"
             inkscape:connector-curvature="0" /></g><g
           id="g28"><path
             d="m 374.258,76.804 86.793,0.001 0,0.6 -86.793,-0.001 0,-0.6"
             style="fill:#000000;fill-opacity:1;fill-rule:nonzero;stroke:none"
             id="path30"
             inkscape:connector-curvature="0" /></g><text
           transform="translate(472.433,47.667)"
           style="font-variant:normal;font-weight:normal;font-stretch:normal;font-size:9.94999981px;font-family:Euphemia;-inkscape-font-specification:EuphemiaCAS;writing-mode:lr-tb;fill:#000000;fill-opacity:1;fill-rule:nonzero;stroke:#000000;stroke-width:0.28457001;stroke-linecap:square;stroke-linejoin:bevel;stroke-miterlimit:2;stroke-dasharray:none;stroke-opacity:1"
           id="text32"><tspan
             x="0 6.3000002 13 18.1 23.549999 32.049999 37.650002 41.349998 46.25 52.349998 58.099998 63.200001 66.400002 72.300003 78.199997 84.099998 90"
             y="0"
             sodipodi:role="line"
             id="tspan34">AC Emerson (1994)</tspan></text>
<text
           transform="translate(381.567,27.381)"
           style="font-variant:normal;font-weight:normal;font-stretch:normal;font-size:9.94999981px;font-family:Euphemia;-inkscape-font-specification:EuphemiaCAS;writing-mode:lr-tb;fill:#000000;fill-opacity:1;fill-rule:nonzero;stroke:none"
           id="text36"><tspan
             x="0 6.9499998 13 16.65 22.35 24.85 28.25 33.950001 39 42.150002 48 53.849998 59.700001 65.550003"
             y="0"
             sodipodi:role="line"
             id="tspan38">Noralta (1965)</tspan></text>
<text
           transform="translate(397.857,74.444)"
           style="font-variant:normal;font-weight:normal;font-stretch:normal;font-size:9.94999981px;font-family:Euphemia;-inkscape-font-specification:EuphemiaCAS;writing-mode:lr-tb;fill:#000000;fill-opacity:1;fill-rule:nonzero;stroke:none"
           id="text40"><tspan
             x="0 6.0500002 8.4499998 16.9 21.950001 27 30.15 36 41.849998 47.700001 53.549999"
             y="0"
             sodipodi:role="line"
             id="tspan42">Vimy (1986)</tspan></text>
<text
           transform="translate(200.632,14)"
           style="font-variant:normal;font-weight:normal;font-stretch:normal;font-size:9.94999981px;font-family:Euphemia;-inkscape-font-specification:EuphemiaCAS;writing-mode:lr-tb;fill:#000000;fill-opacity:1;fill-rule:nonzero;stroke:#000000;stroke-width:0.28457001;stroke-linecap:square;stroke-linejoin:bevel;stroke-miterlimit:2;stroke-dasharray:none;stroke-opacity:1"
           id="text44"><tspan
             x="0 5.9499998 11.55 17.549999 24.299999 26.75 32.5"
             y="0"
             sodipodi:role="line"
             id="tspan46">Redwing</tspan></text>
<text
           transform="translate(282.246,38.824)"
           style="font-variant:normal;font-weight:normal;font-stretch:normal;font-size:9.94999981px;font-family:Euphemia;-inkscape-font-specification:EuphemiaCAS;writing-mode:lr-tb;fill:#000000;fill-opacity:1;fill-rule:nonzero;stroke:none"
           id="text48"><tspan
             x="0 5.9000001 11.95 17.200001 22.200001 27.75 31.15 36.200001 39.349998 45.200001 51.049999 56.900002 62.75"
             y="0"
             sodipodi:role="line"
             id="tspan50">Rocket (1947)</tspan></text>
<g
           id="g52"><path
             d="m 373.922,77.344 -14.175,-10.631 0.36,-0.48 14.175,10.631 -0.36,0.48"
             style="fill:#000000;fill-opacity:1;fill-rule:nonzero;stroke:none"
             id="path54"
             inkscape:connector-curvature="0" /></g><g
           id="g56"><path
             d="m 374.019,76.954 -14.175,11.122 0.37,0.472 14.175,-11.122 -0.37,-0.472"
             style="fill:#000000;fill-opacity:1;fill-rule:nonzero;stroke:none"
             id="path58"
             inkscape:connector-curvature="0" /></g><text
           transform="translate(295.52,63.82)"
           style="font-variant:normal;font-weight:normal;font-stretch:normal;font-size:9.94999981px;font-family:Euphemia;-inkscape-font-specification:EuphemiaCAS;writing-mode:lr-tb;fill:#000000;fill-opacity:1;fill-rule:nonzero;stroke:#000000;stroke-width:0.28457001;stroke-linecap:square;stroke-linejoin:bevel;stroke-miterlimit:2;stroke-dasharray:none;stroke-opacity:1"
           id="text60"><tspan
             x="0 6.1500001 11.9 17.65 23.4 29.15 34.049999 39.099998 41.450001"
             y="0"
             sodipodi:role="line"
             id="tspan62">Kubanskji</tspan></text>
<g
           id="g64"><path
             d="m 273.413,66.259 86.794,0.001 0,0.6 -86.794,-0.001 0,-0.6"
             style="fill:#000000;fill-opacity:1;fill-rule:nonzero;stroke:none"
             id="path66"
             inkscape:connector-curvature="0" /></g><g
           id="g68"><path
             d="m 273.524,87.912 86.403,0.1 -0.001,0.6 -86.403,-0.1 10e-4,-0.6"
             style="fill:#000000;fill-opacity:1;fill-rule:nonzero;stroke:none"
             id="path70"
             inkscape:connector-curvature="0" /></g><text
           transform="translate(291.214,87.391)"
           style="font-variant:normal;font-weight:normal;font-stretch:normal;font-size:9.94999981px;font-family:Euphemia;-inkscape-font-specification:EuphemiaCAS;writing-mode:lr-tb;fill:#000000;fill-opacity:1;fill-rule:nonzero;stroke:none"
           id="text72"><tspan
             x="0 5.1500001 7.5500002 13.25 19.299999 22.700001"
             y="0"
             sodipodi:role="line"
             id="tspan74">Linott</tspan></text>
<text
           transform="translate(322.364,87.391)"
           style="font-variant:normal;font-weight:normal;font-stretch:normal;font-size:9.94999981px;font-family:Euphemia;-inkscape-font-specification:EuphemiaCAS;writing-mode:lr-tb;fill:#000000;fill-opacity:1;fill-rule:nonzero;stroke:none"
           id="text76"><tspan
             x="0 3.1500001 9 14.85 20.700001 26.549999"
             y="0"
             sodipodi:role="line"
             id="tspan78">(1966)</tspan></text>
<g
           id="g80"><path
             d="m 175.209,69.429 -14.175,-10.631 0.36,-0.48 14.175,10.631 -0.36,0.48"
             style="fill:#000000;fill-opacity:1;fill-rule:nonzero;stroke:none"
             id="path82"
             inkscape:connector-curvature="0" /></g><g
           id="g84"><path
             d="m 175.209,68.965 -14.175,10.631 0.36,0.48 14.175,-10.631 -0.36,-0.48"
             style="fill:#000000;fill-opacity:1;fill-rule:nonzero;stroke:none"
             id="path86"
             inkscape:connector-curvature="0" /></g><text
           transform="translate(93.185,95.731)"
           style="font-variant:normal;font-weight:normal;font-stretch:normal;font-size:9.94999981px;font-family:Euphemia;-inkscape-font-specification:EuphemiaCAS;writing-mode:lr-tb;fill:#000000;fill-opacity:1;fill-rule:nonzero;stroke:none"
           id="text88"><tspan
             x="0 6.25 9.8999996 13.55 19.6"
             y="0"
             sodipodi:role="line"
             id="tspan90">Arrow</tspan></text>
<text
           transform="translate(104.159,117.389)"
           style="font-variant:normal;font-weight:normal;font-stretch:normal;font-size:9.94999981px;font-family:Euphemia;-inkscape-font-specification:EuphemiaCAS;writing-mode:lr-tb;fill:#000000;fill-opacity:1;fill-rule:nonzero;stroke:#000000;stroke-width:0.28457001;stroke-linecap:square;stroke-linejoin:bevel;stroke-miterlimit:2;stroke-dasharray:none;stroke-opacity:1"
           id="text92"><tspan
             x="0 6.6999998 8.8000002 11.15 13.25 18.35 24.25 30.15"
             y="0"
             sodipodi:role="line"
             id="tspan94">C.I. 975</tspan></text>
<g
           id="g96"><path
             d="m 175.045,68.889 86.793,0.001 0,0.6 -86.793,-10e-4 0,-0.6"
             style="fill:#000000;fill-opacity:1;fill-rule:nonzero;stroke:none"
             id="path98"
             inkscape:connector-curvature="0" /></g><g
           id="g100"><path
             d="m 175.045,107.681 86.793,0.001 0,0.6 -86.793,-10e-4 0,-0.6"
             style="fill:#000000;fill-opacity:1;fill-rule:nonzero;stroke:none"
             id="path102"
             inkscape:connector-curvature="0" /></g><g
           id="g104"><path
             d="m 74.837,118.501 86.793,10e-4 0,0.6 -86.793,-0.001 0,-0.6"
             style="fill:#000000;fill-opacity:1;fill-rule:nonzero;stroke:none"
             id="path106"
             inkscape:connector-curvature="0" /></g><g
           id="g108"><path
             d="m 74.663,97.048 86.968,0.252 -0.001,0.6 -86.969,-0.252 0.002,-0.6"
             style="fill:#000000;fill-opacity:1;fill-rule:nonzero;stroke:none"
             id="path110"
             inkscape:connector-curvature="0" /></g><g
           id="g112"><path
             d="m 175.21,108.471 -14.176,-10.631 0.36,-0.48 14.176,10.631 -0.36,0.48"
             style="fill:#000000;fill-opacity:1;fill-rule:nonzero;stroke:none"
             id="path114"
             inkscape:connector-curvature="0" /></g><g
           id="g116"><path
             d="m 175.423,107.744 -13.976,10.821 0.367,0.474 13.976,-10.821 -0.367,-0.474"
             style="fill:#000000;fill-opacity:1;fill-rule:nonzero;stroke:none"
             id="path118"
             inkscape:connector-curvature="0" /></g><g
           id="g120"><path
             d="m 74.638,58.877 186.649,-0.009 -10e-4,-0.6 -186.648,0.009 0,0.6"
             style="fill:#000000;fill-opacity:1;fill-rule:nonzero;stroke:none"
             id="path122"
             inkscape:connector-curvature="0" /></g><g
           id="g124"><path
             d="m 74.638,79.536 86.794,0.001 0,0.6 -86.794,-0.001 0,-0.6"
             style="fill:#000000;fill-opacity:1;fill-rule:nonzero;stroke:none"
             id="path126"
             inkscape:connector-curvature="0" /></g><g
           id="g128"><path
             d="m 273.268,88.468 -11.686,-19.107 0.512,-0.313 11.686,19.107 -0.512,0.313"
             style="fill:#000000;fill-opacity:1;fill-rule:nonzero;stroke:none"
             id="path130"
             inkscape:connector-curvature="0" /></g><g
           id="g132"><path
             d="m 273.243,88.059 -11.686,19.77 0.517,0.305 11.685,-19.77 -0.516,-0.305"
             style="fill:#000000;fill-opacity:1;fill-rule:nonzero;stroke:none"
             id="path134"
             inkscape:connector-curvature="0" /></g><text
           transform="translate(93.034,57.754)"
           style="font-variant:normal;font-weight:normal;font-stretch:normal;font-size:9.94999981px;font-family:Euphemia;-inkscape-font-specification:EuphemiaCAS;writing-mode:lr-tb;fill:#000000;fill-opacity:1;fill-rule:nonzero;stroke:#000000;stroke-width:0.28457001;stroke-linecap:square;stroke-linejoin:bevel;stroke-miterlimit:2;stroke-dasharray:none;stroke-opacity:1"
           id="text136"><tspan
             x="0 6.3000002 10 15.6 21.200001 26.950001 30.4 32.849998 38.599998 44.200001 49.299999 55.200001"
             y="0"
             sodipodi:role="line"
             id="tspan138">Argentine 8C</tspan></text>
<text
           transform="translate(66.751,77.175)"
           style="font-variant:normal;font-weight:normal;font-stretch:normal;font-size:9.94999981px;font-family:Euphemia;-inkscape-font-specification:EuphemiaCAS;writing-mode:lr-tb;fill:#000000;fill-opacity:1;fill-rule:nonzero;stroke:#000000;stroke-width:0.28457001;stroke-linecap:square;stroke-linejoin:bevel;stroke-miterlimit:2;stroke-dasharray:none;stroke-opacity:1"
           id="text140"><tspan
             x="0 8.1000004 11.55 15 20.75 27.5 33.25 38.349998 44.25 50.150002 56.049999 62.200001 67.300003 70.5 76.400002 82.300003 88.199997 94.099998"
             y="0"
             sodipodi:role="line"
             id="tspan142">Ottawa 770B (1910)</tspan></text>
<g
           id="g144"><path
             d="m 192.019,17.288 168.203,0 0,0.6 -168.203,0 0,-0.6 z"
             style="fill:#000000;fill-opacity:1;fill-rule:nonzero;stroke:none"
             id="path146"
             inkscape:connector-curvature="0" /></g><g
           id="g148"><path
             d="m 272.995,39.337 87.227,-0.018 0,-0.6 -87.227,0.018 0,0.6"
             style="fill:#000000;fill-opacity:1;fill-rule:nonzero;stroke:none"
             id="path150"
             inkscape:connector-curvature="0" /></g><g
           id="g152"><path
             d="m 373.917,28.627 -13.879,-10.803 0.369,-0.473 13.879,10.803 -0.369,0.473"
             style="fill:#000000;fill-opacity:1;fill-rule:nonzero;stroke:none"
             id="path154"
             inkscape:connector-curvature="0" /></g><g
           id="g156"><path
             d="m 373.918,28.169 -13.879,10.731 0.367,0.475 13.879,-10.731 -0.367,-0.475"
             style="fill:#000000;fill-opacity:1;fill-rule:nonzero;stroke:none"
             id="path158"
             inkscape:connector-curvature="0" /></g><g
           id="g160"><path
             d="m 373.64,28.706 87.411,-0.015 0,-0.6 -87.412,0.015 10e-4,0.6"
             style="fill:#000000;fill-opacity:1;fill-rule:nonzero;stroke:none"
             id="path162"
             inkscape:connector-curvature="0" /></g><g
           id="g164"><path
             d="m 272.738,39.293 -12.936,-21.378 0.513,-0.311 12.936,21.378 -0.513,0.311"
             style="fill:#000000;fill-opacity:1;fill-rule:nonzero;stroke:none"
             id="path166"
             inkscape:connector-curvature="0" /></g><g
           id="g168"><path
             d="m 272.714,38.885 -11.686,19.769 0.517,0.306 11.685,-19.77 -0.516,-0.305"
             style="fill:#000000;fill-opacity:1;fill-rule:nonzero;stroke:none"
             id="path170"
             inkscape:connector-curvature="0" /></g><g
           id="g172"><path
             d="m 475.046,53.207 -14.254,-24.666 0.519,-0.3 14.254,24.665 -0.519,0.301"
             style="fill:#000000;fill-opacity:1;fill-rule:nonzero;stroke:none"
             id="path174"
             inkscape:connector-curvature="0" /></g><g
           id="g176"><path
             d="m 475.024,52.805 -14.232,24.397 0.519,0.302 14.231,-24.397 -0.518,-0.302"
             style="fill:#000000;fill-opacity:1;fill-rule:nonzero;stroke:none"
             id="path178"
             inkscape:connector-curvature="0" /></g><text
           transform="translate(12.87,106.779)"
           style="font-variant:normal;font-weight:normal;font-stretch:normal;font-size:9.94999981px;font-family:Euphemia;-inkscape-font-specification:EuphemiaCAS;writing-mode:lr-tb;fill:#000000;fill-opacity:1;fill-rule:nonzero;stroke:#000000;stroke-width:0.28457001;stroke-linecap:square;stroke-linejoin:bevel;stroke-miterlimit:2;stroke-dasharray:none;stroke-opacity:1"
           id="text180"><tspan
             x="0 5.9499998 11.55 17.299999 22.9"
             y="0"
             sodipodi:role="line"
             id="tspan182">Renew</tspan></text>
<g
           id="g184"><path
             d="m 0.001,107.552 60.861,0.19 -0.002,0.6 -60.861,-0.19 0.002,-0.6"
             style="fill:#000000;fill-opacity:1;fill-rule:nonzero;stroke:none"
             id="path186"
             inkscape:connector-curvature="0" /></g><g
           id="g188"><path
             d="m 0,86.289 60.686,0 0,0.6 -60.686,0 0,-0.6 z"
             style="fill:#000000;fill-opacity:1;fill-rule:nonzero;stroke:none"
             id="path190"
             inkscape:connector-curvature="0" /></g><g
           id="g192"><path
             d="m 74.434,97.706 -13.759,-10.882 0.372,-0.47 13.759,10.881 -0.372,0.471"
             style="fill:#000000;fill-opacity:1;fill-rule:nonzero;stroke:none"
             id="path194"
             inkscape:connector-curvature="0" /></g><g
           id="g196"><path
             d="m 74.653,96.984 -13.976,10.821 0.367,0.474 13.977,-10.821 -0.368,-0.474"
             style="fill:#000000;fill-opacity:1;fill-rule:nonzero;stroke:none"
             id="path198"
             inkscape:connector-curvature="0" /></g><text
           transform="translate(16.583,86.149)"
           style="font-variant:normal;font-weight:normal;font-stretch:normal;font-size:9.94999981px;font-family:Euphemia;-inkscape-font-specification:EuphemiaCAS;writing-mode:lr-tb;fill:#000000;fill-opacity:1;fill-rule:nonzero;stroke:#000000;stroke-width:0.28457001;stroke-linecap:square;stroke-linejoin:bevel;stroke-miterlimit:2;stroke-dasharray:none;stroke-opacity:1"
           id="text200"><tspan
             x="0 6.1500001 8.6000004 13.5 19.6"
             y="0"
             sodipodi:role="line"
             id="tspan202">Bison</tspan></text>
</g></g></g></svg>