<?xml version="1.0" encoding="UTF-8" standalone="no"?>
<!-- Created with Inkscape (http://www.inkscape.org/) -->

<svg
   xmlns:dc="http://purl.org/dc/elements/1.1/"
   xmlns:cc="http://creativecommons.org/ns#"
   xmlns:rdf="http://www.w3.org/1999/02/22-rdf-syntax-ns#"
   xmlns:svg="http://www.w3.org/2000/svg"
   xmlns="http://www.w3.org/2000/svg"
   xmlns:sodipodi="http://sodipodi.sourceforge.net/DTD/sodipodi-0.dtd"
   xmlns:inkscape="http://www.inkscape.org/namespaces/inkscape"
   id="svg2"
   version="1.1"
   inkscape:version="0.91 r13725"
   xml:space="preserve"
   width="1865.125"
   height="425.9375"
   viewBox="0 0 1865.125 425.9375"
   sodipodi:docname="CDC Neela.svg"><metadata
     id="metadata8"><rdf:RDF><cc:Work
         rdf:about=""><dc:format>image/svg+xml</dc:format><dc:type
           rdf:resource="http://purl.org/dc/dcmitype/StillImage" /><dc:title></dc:title></cc:Work></rdf:RDF></metadata><defs
     id="defs6"><clipPath
       clipPathUnits="userSpaceOnUse"
       id="clipPath16"><path
         d="m 0,0 1492.1,0 0,340.75 L 0,340.75 0,0 Z"
         id="path18"
         inkscape:connector-curvature="0"
         style="clip-rule:evenodd" /></clipPath></defs><sodipodi:namedview
     pagecolor="#ffffff"
     bordercolor="#666666"
     borderopacity="1"
     objecttolerance="10"
     gridtolerance="10"
     guidetolerance="10"
     inkscape:pageopacity="0"
     inkscape:pageshadow="2"
     inkscape:window-width="640"
     inkscape:window-height="480"
     id="namedview4"
     showgrid="false"
     inkscape:zoom="0.17049796"
     inkscape:cx="932.5625"
     inkscape:cy="212.96875"
     inkscape:window-x="0"
     inkscape:window-y="0"
     inkscape:window-maximized="0"
     inkscape:current-layer="g10" /><g
     id="g10"
     inkscape:groupmode="layer"
     inkscape:label="CDC Neela"
     transform="scale(1.25,1.25)"><g
       id="g12"><g
         id="g14"
         clip-path="url(#clipPath16)"><g
           id="g20"><path
             d="m 0,0 1492.1,0 0,340.75 L 0,340.75 0,0 Z"
             style="fill:#ffffff;fill-opacity:1;fill-rule:evenodd;stroke:none"
             id="path22"
             inkscape:connector-curvature="0" /></g><text
           transform="translate(1081.268,160.533)"
           style="font-variant:normal;font-weight:normal;font-stretch:normal;font-size:9.94999981px;font-family:Euphemia;-inkscape-font-specification:EuphemiaCAS;writing-mode:lr-tb;fill:#000000;fill-opacity:1;fill-rule:nonzero;stroke:none"
           id="text24"><tspan
             x="0 5.1500001 10.8 16.65 22.5"
             y="0"
             sodipodi:role="line"
             id="tspan26">FP681</tspan></text>
<g
           id="g28"><path
             d="m 1199.652,116.821 46.53,0.401 -0.01,0.6 -46.529,-0.401 0.01,-0.6"
             style="fill:#000000;fill-opacity:1;fill-rule:nonzero;stroke:none"
             id="path30"
             inkscape:connector-curvature="0" /></g><text
           transform="translate(747.679,277.438)"
           style="font-variant:normal;font-weight:normal;font-stretch:normal;font-size:9.94999981px;font-family:Euphemia;-inkscape-font-specification:EuphemiaCAS;writing-mode:lr-tb;fill:#000000;fill-opacity:1;fill-rule:nonzero;stroke:none"
           id="text32"><tspan
             x="0 6.9499998 13 16.65 21.799999 24.200001"
             y="0"
             sodipodi:role="line"
             id="tspan34">NorLin</tspan></text>
<text
           transform="translate(782.629,277.438)"
           style="font-variant:normal;font-weight:normal;font-stretch:normal;font-size:9.94999981px;font-family:Euphemia;-inkscape-font-specification:EuphemiaCAS;writing-mode:lr-tb;fill:#000000;fill-opacity:1;fill-rule:nonzero;stroke:none"
           id="text36"><tspan
             x="0 3.1500001 9 14.85 20.700001 26.549999"
             y="0"
             sodipodi:role="line"
             id="tspan38">(1982)</tspan></text>
<text
           transform="translate(880.9,289.45)"
           style="font-variant:normal;font-weight:normal;font-stretch:normal;font-size:9.94999981px;font-family:Euphemia;-inkscape-font-specification:EuphemiaCAS;writing-mode:lr-tb;fill:#000000;fill-opacity:1;fill-rule:nonzero;stroke:#000000;stroke-width:0.28457001;stroke-linecap:square;stroke-linejoin:bevel;stroke-miterlimit:2;stroke-dasharray:none;stroke-opacity:1"
           id="text40"><tspan
             x="0 6.1500001 11.9 17.65 23.4 29.15 34.049999 39.099998 41.549999"
             y="0"
             sodipodi:role="line"
             id="tspan42">Kubanskij</tspan></text>
<text
           transform="translate(629.119,212.451)"
           style="font-variant:normal;font-weight:normal;font-stretch:normal;font-size:9.94999981px;font-family:Euphemia;-inkscape-font-specification:EuphemiaCAS;writing-mode:lr-tb;fill:#000000;fill-opacity:1;fill-rule:nonzero;stroke:none"
           id="text44"><tspan
             x="0 5.9000001 11.6 13.9 19.6 24.65 27.799999 33.650002 39.5 45.349998 51.200001"
             y="0"
             sodipodi:role="line"
             id="tspan46">Raja (1953)</tspan></text>
<g
           id="g48"><path
             d="m 739.751,103.578 292.925,0.012 0,0.6 -292.925,-0.012 0,-0.6"
             style="fill:#000000;fill-opacity:1;fill-rule:nonzero;stroke:none"
             id="path50"
             inkscape:connector-curvature="0" /></g><g
           id="g52"><path
             d="m 1034.843,189.988 14.777,0 0,0.6 -14.777,0 0,-0.6 z"
             style="fill:#000000;fill-opacity:1;fill-rule:nonzero;stroke:none"
             id="path54"
             inkscape:connector-curvature="0" /></g><g
           id="g56"><path
             d="m 603.167,216.754 214.85,0.133 -0.001,0.6 -214.849,-0.133 0,-0.6"
             style="fill:#000000;fill-opacity:1;fill-rule:nonzero;stroke:none"
             id="path58"
             inkscape:connector-curvature="0" /></g><g
           id="g60"><path
             d="m 511.277,206.789 77.923,-0.068 -0.001,-0.6 -77.922,0.068 0,0.6"
             style="fill:#000000;fill-opacity:1;fill-rule:nonzero;stroke:none"
             id="path62"
             inkscape:connector-curvature="0" /></g><g
           id="g64"><path
             d="m 603.194,217.36 -14.175,-10.631 0.36,-0.48 14.175,10.631 -0.36,0.48"
             style="fill:#000000;fill-opacity:1;fill-rule:nonzero;stroke:none"
             id="path66"
             inkscape:connector-curvature="0" /></g><g
           id="g68"><path
             d="m 603.194,216.711 -14.175,10.631 0.361,0.48 14.174,-10.631 -0.36,-0.48"
             style="fill:#000000;fill-opacity:1;fill-rule:nonzero;stroke:none"
             id="path70"
             inkscape:connector-curvature="0" /></g><g
           id="g72"><path
             d="m 521.759,227.282 67.366,0 0,0.6 -67.366,0 0,-0.6 z"
             style="fill:#000000;fill-opacity:1;fill-rule:nonzero;stroke:none"
             id="path74"
             inkscape:connector-curvature="0" /></g><text
           transform="translate(586.816,113.495)"
           style="font-variant:normal;font-weight:normal;font-stretch:normal;font-size:9.94999981px;font-family:Euphemia;-inkscape-font-specification:EuphemiaCAS;writing-mode:lr-tb;fill:#000000;fill-opacity:1;fill-rule:nonzero;stroke:none"
           id="text76"><tspan
             x="0 5.9000001 11.45 17.4 24.1 30.15 36.200001"
             y="0"
             sodipodi:role="line"
             id="tspan78">Redwood</tspan></text>
<g
           id="g80"><path
             d="m 648.767,93.211 77.392,-0.148 -10e-4,-0.6 -77.392,0.148 0.001,0.6"
             style="fill:#000000;fill-opacity:1;fill-rule:nonzero;stroke:none"
             id="path82"
             inkscape:connector-curvature="0" /></g><text
           transform="translate(496.749,103.437)"
           style="font-variant:normal;font-weight:normal;font-stretch:normal;font-size:9.94999981px;font-family:Euphemia;-inkscape-font-specification:EuphemiaCAS;writing-mode:lr-tb;fill:#000000;fill-opacity:1;fill-rule:nonzero;stroke:none"
           id="text84"><tspan
             x="0 5.9000001 11.45 17.4 22.25 28.299999"
             y="0"
             sodipodi:role="line"
             id="tspan86">Redson</tspan></text>
<text
           transform="translate(536.021,203.691)"
           style="font-variant:normal;font-weight:normal;font-stretch:normal;font-size:9.94999981px;font-family:Euphemia;-inkscape-font-specification:EuphemiaCAS;writing-mode:lr-tb;fill:#000000;fill-opacity:1;fill-rule:nonzero;stroke:#000000;stroke-width:0.28457001;stroke-linecap:square;stroke-linejoin:bevel;stroke-miterlimit:2;stroke-dasharray:none;stroke-opacity:1"
           id="text88"><tspan
             x="0 5.25 7.3499999 16.1 18.200001 24.15"
             y="0"
             sodipodi:role="line"
             id="tspan90">J.W.S.</tspan></text>
<text
           transform="translate(521.9,223.1)"
           style="font-variant:normal;font-weight:normal;font-stretch:normal;font-size:9.94999981px;font-family:Euphemia;-inkscape-font-specification:EuphemiaCAS;writing-mode:lr-tb;fill:#000000;fill-opacity:1;fill-rule:nonzero;stroke:#000000;stroke-width:0.28457001;stroke-linecap:square;stroke-linejoin:bevel;stroke-miterlimit:2;stroke-dasharray:none;stroke-opacity:1"
           id="text92"><tspan
             x="0 6.3000002 10 15.6 21.200001 26.950001 30.4 32.849998 38.599998 44.200001 49.299999 55.200001 61.099998 67"
             y="0"
             sodipodi:role="line"
             id="tspan94">Argentine 1025</tspan></text>
<text
           transform="translate(657.349,312.663)"
           style="font-variant:normal;font-weight:normal;font-stretch:normal;font-size:9.94999981px;font-family:Euphemia;-inkscape-font-specification:EuphemiaCAS;writing-mode:lr-tb;fill:#000000;fill-opacity:1;fill-rule:nonzero;stroke:none"
           id="text96"><tspan
             x="0 5.1500001 7.5500002 13.25 19.299999 22.700001 26.1"
             y="0"
             sodipodi:role="line"
             id="tspan98">Linott </tspan></text>
<text
           transform="translate(657.349,324.663)"
           style="font-variant:normal;font-weight:normal;font-stretch:normal;font-size:9.94999981px;font-family:Euphemia;-inkscape-font-specification:EuphemiaCAS;writing-mode:lr-tb;fill:#000000;fill-opacity:1;fill-rule:nonzero;stroke:none"
           id="text100"><tspan
             x="0 3.1500001 9 14.85 20.700001 26.549999"
             y="0"
             sodipodi:role="line"
             id="tspan102">(1966)</tspan></text>
<g
           id="g104"><path
             d="m 653.349,313.469 277.63,0 0,0.6 -277.63,0 0,-0.6 z"
             style="fill:#000000;fill-opacity:1;fill-rule:nonzero;stroke:none"
             id="path106"
             inkscape:connector-curvature="0" /></g><g
           id="g108"><path
             d="m 440.918,299.926 195.676,0 0,0.6 -195.676,0 0,-0.6 z"
             style="fill:#000000;fill-opacity:1;fill-rule:nonzero;stroke:none"
             id="path110"
             inkscape:connector-curvature="0" /></g><g
           id="g112"><path
             d="m 350.738,325.628 285.856,0 0,0.6 -285.856,0 0,-0.6 z"
             style="fill:#000000;fill-opacity:1;fill-rule:nonzero;stroke:none"
             id="path114"
             inkscape:connector-curvature="0" /></g><g
           id="g116"><path
             d="m 653.011,313.905 -16.606,-13.446 0.377,-0.466 16.606,13.446 -0.377,0.466"
             style="fill:#000000;fill-opacity:1;fill-rule:nonzero;stroke:none"
             id="path118"
             inkscape:connector-curvature="0" /></g><g
           id="g120"><path
             d="m 652.947,313.431 -16.532,12.256 0.357,0.482 16.532,-12.256 -0.357,-0.482"
             style="fill:#000000;fill-opacity:1;fill-rule:nonzero;stroke:none"
             id="path122"
             inkscape:connector-curvature="0" /></g><g
           id="g124"><path
             d="m 656.755,245.402 163.891,0.547 -0.002,0.6 -163.891,-0.547 0.002,-0.6"
             style="fill:#000000;fill-opacity:1;fill-rule:nonzero;stroke:none"
             id="path126"
             inkscape:connector-curvature="0" /></g><g
           id="g128"><path
             d="m 1280.093,253.719 34.153,0.233 0,0.6 -34.153,-0.233 0,-0.6"
             style="fill:#000000;fill-opacity:1;fill-rule:nonzero;stroke:none"
             id="path130"
             inkscape:connector-curvature="0" /></g><g
           id="g132"><path
             d="m 739.405,278.501 527.205,0 0,0.6 -527.205,0 0,-0.6 z"
             style="fill:#000000;fill-opacity:1;fill-rule:nonzero;stroke:none"
             id="path134"
             inkscape:connector-curvature="0" /></g><g
           id="g136"><path
             d="m 739.482,279.324 -16.603,-33.359 0.537,-0.268 16.603,33.36 -0.537,0.267"
             style="fill:#000000;fill-opacity:1;fill-rule:nonzero;stroke:none"
             id="path138"
             inkscape:connector-curvature="0" /></g><g
           id="g140"><path
             d="m 739.26,278.389 -17.597,35.149 0.536,0.269 17.597,-35.15 -0.536,-0.268"
             style="fill:#000000;fill-opacity:1;fill-rule:nonzero;stroke:none"
             id="path142"
             inkscape:connector-curvature="0" /></g><g
           id="g144"><path
             d="m 930.98,160.364 86.348,0.153 -10e-4,0.6 -86.349,-0.153 0.002,-0.6"
             style="fill:#000000;fill-opacity:1;fill-rule:nonzero;stroke:none"
             id="path146"
             inkscape:connector-curvature="0" /></g><text
           transform="translate(948.729,158.178)"
           style="font-variant:normal;font-weight:normal;font-stretch:normal;font-size:9.94999981px;font-family:Euphemia;-inkscape-font-specification:EuphemiaCAS;writing-mode:lr-tb;fill:#000000;fill-opacity:1;fill-rule:nonzero;stroke:none"
           id="text148"><tspan
             x="0 6.0500002 11.75 14.25 19.950001 23.35"
             y="0"
             sodipodi:role="line"
             id="tspan150">Valuta</tspan></text>
<text
           transform="translate(982.829,158.178)"
           style="font-variant:normal;font-weight:normal;font-stretch:normal;font-size:9.94999981px;font-family:Euphemia;-inkscape-font-specification:EuphemiaCAS;writing-mode:lr-tb;fill:#000000;fill-opacity:1;fill-rule:nonzero;stroke:none"
           id="text152"><tspan
             x="0 3.1500001 9 14.85 20.700001 26.549999"
             y="0"
             sodipodi:role="line"
             id="tspan154">(1949)</tspan></text>
<g
           id="g156"><path
             d="M 740.295,104.115 725.975,93 l 0.368,-0.474 14.32,11.115 -0.368,0.474"
             style="fill:#000000;fill-opacity:1;fill-rule:nonzero;stroke:none"
             id="path158"
             inkscape:connector-curvature="0" /></g><g
           id="g160"><path
             d="m 740.229,103.635 -14.641,10.623 0.352,0.485 14.641,-10.622 -0.352,-0.486"
             style="fill:#000000;fill-opacity:1;fill-rule:nonzero;stroke:none"
             id="path162"
             inkscape:connector-curvature="0" /></g><text
           transform="translate(654.068,91.39)"
           style="font-variant:normal;font-weight:normal;font-stretch:normal;font-size:9.94999981px;font-family:Euphemia;-inkscape-font-specification:EuphemiaCAS;writing-mode:lr-tb;fill:#000000;fill-opacity:1;fill-rule:nonzero;stroke:#000000;stroke-width:0.28457001;stroke-linecap:square;stroke-linejoin:bevel;stroke-miterlimit:2;stroke-dasharray:none;stroke-opacity:1"
           id="text164"><tspan
             x="0 7.8000002 13.55 17.25 19.700001 25.450001 31.049999 36.150002 39.349998 45.25 51.150002 57.049999 62.950001"
             y="0"
             sodipodi:role="line"
             id="tspan166">Marine (1951)</tspan></text>
<text
           transform="translate(1207.1,116.354)"
           style="font-variant:normal;font-weight:normal;font-stretch:normal;font-size:9.94999981px;font-family:Euphemia;-inkscape-font-specification:EuphemiaCAS;writing-mode:lr-tb;fill:#000000;fill-opacity:1;fill-rule:nonzero;stroke:none"
           id="text168"><tspan
             x="0 5.1500001 13.2 19.049999 24.9"
             y="0"
             sodipodi:role="line"
             id="tspan170">FO826</tspan></text>
<g
           id="g172"><path
             d="m 944.432,303.166 379.138,0 0,-0.6 -379.138,0 0,0.6"
             style="fill:#000000;fill-opacity:1;fill-rule:nonzero;stroke:none"
             id="path174"
             inkscape:connector-curvature="0" /></g><g
           id="g176"><path
             d="m 869.416,292.123 61.564,0 0,0.6 -61.564,0 0,-0.6 z"
             style="fill:#000000;fill-opacity:1;fill-rule:nonzero;stroke:none"
             id="path178"
             inkscape:connector-curvature="0" /></g><g
           id="g180"><path
             d="m 944.732,303.106 -14.175,-10.631 0.36,-0.48 14.175,10.631 -0.36,0.48"
             style="fill:#000000;fill-opacity:1;fill-rule:nonzero;stroke:none"
             id="path182"
             inkscape:connector-curvature="0" /></g><g
           id="g184"><path
             d="m 944.888,302.443 -14.094,11.09 0.371,0.472 14.094,-11.091 -0.371,-0.471"
             style="fill:#000000;fill-opacity:1;fill-rule:nonzero;stroke:none"
             id="path186"
             inkscape:connector-curvature="0" /></g><g
           id="g188"><path
             d="m 1333.589,285.026 53.763,0 0,0.6 -53.763,0 0,-0.6 z"
             style="fill:#000000;fill-opacity:1;fill-rule:nonzero;stroke:none"
             id="path190"
             inkscape:connector-curvature="0" /></g><text
           transform="translate(959.448,299.007)"
           style="font-variant:normal;font-weight:normal;font-stretch:normal;font-size:9.94999981px;font-family:Euphemia;-inkscape-font-specification:EuphemiaCAS;writing-mode:lr-tb;fill:#000000;fill-opacity:1;fill-rule:nonzero;stroke:none"
           id="text192"><tspan
             x="0 6.0500002 8.4499998 16.9"
             y="0"
             sodipodi:role="line"
             id="tspan194">Vimy</tspan></text>
<text
           transform="translate(986.448,299.007)"
           style="font-variant:normal;font-weight:normal;font-stretch:normal;font-size:9.94999981px;font-family:Euphemia;-inkscape-font-specification:EuphemiaCAS;writing-mode:lr-tb;fill:#000000;fill-opacity:1;fill-rule:nonzero;stroke:none"
           id="text196"><tspan
             x="0 3.1500001 9 14.85 20.700001 26.549999"
             y="0"
             sodipodi:role="line"
             id="tspan198">(1986)</tspan></text>
<text
           transform="translate(1335.413,283.6)"
           style="font-variant:normal;font-weight:normal;font-stretch:normal;font-size:9.94999981px;font-family:Euphemia;-inkscape-font-specification:EuphemiaCAS;writing-mode:lr-tb;fill:#000000;fill-opacity:1;fill-rule:nonzero;stroke:none"
           id="text200"><tspan
             x="0 6.6500001 13.3 19.950001 25 30.9 36.950001 40.599998 44.25 49.799999"
             y="0"
             sodipodi:role="line"
             id="tspan202">CDC Sorrel</tspan></text>
<text
           transform="translate(1345.513,295.6)"
           style="font-variant:normal;font-weight:normal;font-stretch:normal;font-size:9.94999981px;font-family:Euphemia;-inkscape-font-specification:EuphemiaCAS;writing-mode:lr-tb;fill:#000000;fill-opacity:1;fill-rule:nonzero;stroke:none"
           id="text204"><tspan
             x="0 3.1500001 9 14.85 20.700001 26.549999"
             y="0"
             sodipodi:role="line"
             id="tspan206">(2008)</tspan></text>
<g
           id="g208"><path
             d="m 656.481,245.579 -15.086,33.311 0.546,0.247 15.086,-33.311 -0.546,-0.247"
             style="fill:#000000;fill-opacity:1;fill-rule:nonzero;stroke:none"
             id="path210"
             inkscape:connector-curvature="0" /></g><text
           transform="translate(1284.6,252.25)"
           style="font-variant:normal;font-weight:normal;font-stretch:normal;font-size:9.94999981px;font-family:Euphemia;-inkscape-font-specification:EuphemiaCAS;writing-mode:lr-tb;fill:#000000;fill-opacity:1;fill-rule:nonzero;stroke:none"
           id="text212"><tspan
             x="0 5.1500001 10.8 16.65 22.5"
             y="0"
             sodipodi:role="line"
             id="tspan214">FP956</tspan></text>
<g
           id="g216"><path
             d="m 1076.327,161.41 101.392,0 0,-0.6 -101.392,0 0,0.6"
             style="fill:#000000;fill-opacity:1;fill-rule:nonzero;stroke:none"
             id="path218"
             inkscape:connector-curvature="0" /></g><text
           transform="translate(693.05,183.1)"
           style="font-variant:normal;font-weight:normal;font-stretch:normal;font-size:9.94999981px;font-family:Euphemia;-inkscape-font-specification:EuphemiaCAS;writing-mode:lr-tb;fill:#000000;fill-opacity:1;fill-rule:nonzero;stroke:none"
           id="text220"><tspan
             x="0 5.8499999 11.7 17.549999"
             y="0"
             sodipodi:role="line"
             id="tspan222">4013</tspan></text>
<text
           transform="translate(589.75,169.55)"
           style="font-variant:normal;font-weight:normal;font-stretch:normal;font-size:9.94999981px;font-family:Euphemia;-inkscape-font-specification:EuphemiaCAS;writing-mode:lr-tb;fill:#000000;fill-opacity:1;fill-rule:nonzero;stroke:none"
           id="text224"><tspan
             x="0 8.0500002 13.95 19.85 24.9 30.75 36.599998 42.450001 48.299999 51.950001 57.799999 63.650002"
             y="0"
             sodipodi:role="line"
             id="tspan226">OTT 2557-21A</tspan></text>
<g
           id="g228"><path
             d="m 736.83,198.964 52.534,0.199 -0.002,0.6 -52.535,-0.199 0.003,-0.6"
             style="fill:#000000;fill-opacity:1;fill-rule:nonzero;stroke:none"
             id="path230"
             inkscape:connector-curvature="0" /></g><g
           id="g232"><path
             d="m 683.689,184.115 45.25,0.229 -0.003,0.6 -45.25,-0.229 0.003,-0.6"
             style="fill:#000000;fill-opacity:1;fill-rule:nonzero;stroke:none"
             id="path234"
             inkscape:connector-curvature="0" /></g><text
           transform="translate(748.093,198.866)"
           style="font-variant:normal;font-weight:normal;font-stretch:normal;font-size:9.94999981px;font-family:Euphemia;-inkscape-font-specification:EuphemiaCAS;writing-mode:lr-tb;fill:#000000;fill-opacity:1;fill-rule:nonzero;stroke:none"
           id="text236"><tspan
             x="0 5.1500001 10.8 16.65 22.5"
             y="0"
             sodipodi:role="line"
             id="tspan238">FP441</tspan></text>
<g
           id="g240"><path
             d="m 660.231,131.817 -11.299,-15.658 0.811,-0.585 11.299,15.658 -0.811,0.585 z m 1.622,-1.171 -11.299,-15.657 0.811,-0.585 11.299,15.657 -0.811,0.585 z m 0.811,-0.585 -2.433,1.756 2.433,-1.756 z m -13.732,-13.902 2.433,-1.755 -2.433,1.755"
             style="fill:#000000;fill-opacity:1;fill-rule:nonzero;stroke:none"
             id="path242"
             inkscape:connector-curvature="0" /></g><g
           id="g244"><path
             d="m 579.617,115.342 146.148,-0.541 -0.002,-0.6 -146.149,0.541 0.003,0.6"
             style="fill:#000000;fill-opacity:1;fill-rule:nonzero;stroke:none"
             id="path246"
             inkscape:connector-curvature="0" /></g><g
           id="g248"><path
             d="m 683.507,184.654 -13.636,-10.306 0.361,-0.479 13.636,10.306 -0.361,0.479"
             style="fill:#000000;fill-opacity:1;fill-rule:nonzero;stroke:none"
             id="path250"
             inkscape:connector-curvature="0" /></g><g
           id="g252"><path
             d="m 683.624,184.172 -13.758,9.958 0.352,0.486 13.758,-9.958 -0.352,-0.486"
             style="fill:#000000;fill-opacity:1;fill-rule:nonzero;stroke:none"
             id="path254"
             inkscape:connector-curvature="0" /></g><g
           id="g256"><path
             d="m 556.997,175.031 113.047,-0.621 -0.004,-0.6 -113.046,0.621 0.003,0.6"
             style="fill:#000000;fill-opacity:1;fill-rule:nonzero;stroke:none"
             id="path258"
             inkscape:connector-curvature="0" /></g><g
           id="g260"><path
             d="m 736.565,199.508 -7.88,-14.519 0.528,-0.286 7.879,14.519 -0.527,0.286"
             style="fill:#000000;fill-opacity:1;fill-rule:nonzero;stroke:none"
             id="path262"
             inkscape:connector-curvature="0" /></g><g
           id="g264"><path
             d="m 736.539,199.128 -9,17.686 0.535,0.273 8.999,-17.687 -0.534,-0.272"
             style="fill:#000000;fill-opacity:1;fill-rule:nonzero;stroke:none"
             id="path266"
             inkscape:connector-curvature="0" /></g><g
           id="g268"><path
             d="m 299.72,195.047 83.523,-0.374 -0.003,-0.6 -83.522,0.374 0.002,0.6"
             style="fill:#000000;fill-opacity:1;fill-rule:nonzero;stroke:none"
             id="path270"
             inkscape:connector-curvature="0" /></g><g
           id="g272"><path
             d="m 803.358,188.246 -14.175,10.631 0.36,0.48 14.175,-10.631 -0.36,-0.48"
             style="fill:#000000;fill-opacity:1;fill-rule:nonzero;stroke:none"
             id="path274"
             inkscape:connector-curvature="0" /></g><g
           id="g276"><path
             d="m 522.077,125.44 44,-0.151 -0.003,-0.6 -44,0.151 0.003,0.6"
             style="fill:#000000;fill-opacity:1;fill-rule:nonzero;stroke:none"
             id="path278"
             inkscape:connector-curvature="0" /></g><g
           id="g280"><path
             d="m 579.439,115.039 -13.54,9.858 0.353,0.485 13.54,-9.858 -0.353,-0.485"
             style="fill:#000000;fill-opacity:1;fill-rule:nonzero;stroke:none"
             id="path282"
             inkscape:connector-curvature="0" /></g><text
           transform="translate(532.997,123.806)"
           style="font-variant:normal;font-weight:normal;font-stretch:normal;font-size:9.94999981px;font-family:Euphemia;-inkscape-font-specification:EuphemiaCAS;writing-mode:lr-tb;fill:#000000;fill-opacity:1;fill-rule:nonzero;stroke:none"
           id="text284"><tspan
             x="0 6.0999999 9.75 15.6 21.450001 27.299999"
             y="0"
             sodipodi:role="line"
             id="tspan286">B-5128</tspan></text>
<g
           id="g288"><path
             d="m 525.901,153.656 -14.175,-10.631 0.36,-0.48 14.175,10.631 -0.36,0.48"
             style="fill:#000000;fill-opacity:1;fill-rule:nonzero;stroke:none"
             id="path290"
             inkscape:connector-curvature="0" /></g><g
           id="g292"><path
             d="m 525.827,153.176 -14.175,10.631 0.36,0.48 14.175,-10.631 -0.36,-0.48"
             style="fill:#000000;fill-opacity:1;fill-rule:nonzero;stroke:none"
             id="path294"
             inkscape:connector-curvature="0" /></g><g
           id="g296"><path
             d="m 478.101,143.085 33.805,-0.066 -0.001,-0.6 -33.805,0.066 10e-4,0.6"
             style="fill:#000000;fill-opacity:1;fill-rule:nonzero;stroke:none"
             id="path298"
             inkscape:connector-curvature="0" /></g><g
           id="g300"><path
             d="m 473.085,163.578 38.821,0 0,0.6 -38.821,0 0,-0.6 z"
             style="fill:#000000;fill-opacity:1;fill-rule:nonzero;stroke:none"
             id="path302"
             inkscape:connector-curvature="0" /></g><text
           transform="translate(477.304,162.98)"
           style="font-variant:normal;font-weight:normal;font-stretch:normal;font-size:9.94999981px;font-family:Euphemia;-inkscape-font-specification:EuphemiaCAS;writing-mode:lr-tb;fill:#000000;fill-opacity:1;fill-rule:nonzero;stroke:#000000;stroke-width:0.28457001;stroke-linecap:square;stroke-linejoin:bevel;stroke-miterlimit:2;stroke-dasharray:none;stroke-opacity:1"
           id="text304"><tspan
             x="0 6.6999998 12.8 15.35 21.35 26.950001"
             y="0"
             sodipodi:role="line"
             id="tspan306">Golden</tspan></text>
<text
           transform="translate(490.86,141.145)"
           style="font-variant:normal;font-weight:normal;font-stretch:normal;font-size:9.94999981px;font-family:Euphemia;-inkscape-font-specification:EuphemiaCAS;writing-mode:lr-tb;fill:#000000;fill-opacity:1;fill-rule:nonzero;stroke:#000000;stroke-width:0.28457001;stroke-linecap:square;stroke-linejoin:bevel;stroke-miterlimit:2;stroke-dasharray:none;stroke-opacity:1"
           id="text308"><tspan
             x="0 5.9499998 8.3999996"
             y="0"
             sodipodi:role="line"
             id="tspan310">Rio</tspan></text>
<g
           id="g312"><path
             d="m 556.751,174.594 -34.92,-49.281 0.489,-0.347 34.921,49.281 -0.49,0.347"
             style="fill:#000000;fill-opacity:1;fill-rule:nonzero;stroke:none"
             id="path314"
             inkscape:connector-curvature="0" /></g><g
           id="g316"><path
             d="m 526.081,153.116 15.14,0 0,0.6 -15.14,0 0,-0.6 z"
             style="fill:#000000;fill-opacity:1;fill-rule:nonzero;stroke:none"
             id="path318"
             inkscape:connector-curvature="0" /></g><g
           id="g320"><path
             d="m 476.451,105.128 89.333,-0.481 -0.004,-0.6 -89.333,0.481 0.004,0.6"
             style="fill:#000000;fill-opacity:1;fill-rule:nonzero;stroke:none"
             id="path322"
             inkscape:connector-curvature="0" /></g><g
           id="g324"><path
             d="m 579.436,115.522 -14.359,-10.694 0.358,-0.481 14.36,10.694 -0.359,0.481"
             style="fill:#000000;fill-opacity:1;fill-rule:nonzero;stroke:none"
             id="path326"
             inkscape:connector-curvature="0" /></g><g
           id="g328"><path
             d="m 661.448,130.426 104.212,0.213 -10e-4,0.6 -104.212,-0.213 10e-4,-0.6"
             style="fill:#000000;fill-opacity:1;fill-rule:nonzero;stroke:none"
             id="path330"
             inkscape:connector-curvature="0" /></g><text
           transform="translate(671.75,129.2)"
           style="font-variant:normal;font-weight:normal;font-stretch:normal;font-size:9.94999981px;font-family:Euphemia;-inkscape-font-specification:EuphemiaCAS;writing-mode:lr-tb;fill:#000000;fill-opacity:1;fill-rule:nonzero;stroke:none"
           id="text332"><tspan
             x="0 5.9000001 11.45 17.4 24.1 30.15 36.200001 42.150002 47.200001 53.049999 58.900002 63.950001 67.099998 72.949997 78.800003 84.650002 90.5"
             y="0"
             sodipodi:role="line"
             id="tspan334">Redwood 65 (1965)</tspan></text>
<g
           id="g336"><path
             d="m 834.64,235.378 -14.175,10.631 0.36,0.48 14.175,-10.631 -0.36,-0.48"
             style="fill:#000000;fill-opacity:1;fill-rule:nonzero;stroke:none"
             id="path338"
             inkscape:connector-curvature="0" /></g><g
           id="g340"><path
             d="m 834.57,236.228 -69.161,-105.231 0.501,-0.329 69.161,105.23 -0.501,0.33"
             style="fill:#000000;fill-opacity:1;fill-rule:nonzero;stroke:none"
             id="path342"
             inkscape:connector-curvature="0" /></g><g
           id="g344"><path
             d="m 834.454,235.763 299.687,0.635 -10e-4,0.6 -299.687,-0.635 10e-4,-0.6"
             style="fill:#000000;fill-opacity:1;fill-rule:nonzero;stroke:none"
             id="path346"
             inkscape:connector-curvature="0" /></g><text
           transform="translate(842.083,234.681)"
           style="font-variant:normal;font-weight:normal;font-stretch:normal;font-size:9.94999981px;font-family:Euphemia;-inkscape-font-specification:EuphemiaCAS;writing-mode:lr-tb;fill:#000000;fill-opacity:1;fill-rule:nonzero;stroke:none"
           id="text348"><tspan
             x="0 7.75 13 19.65 23.299999 28.85 34.400002 40.450001 44.099998"
             y="0"
             sodipodi:role="line"
             id="tspan350">McGregor </tspan></text>
<text
           transform="translate(842.083,246.681)"
           style="font-variant:normal;font-weight:normal;font-stretch:normal;font-size:9.94999981px;font-family:Euphemia;-inkscape-font-specification:EuphemiaCAS;writing-mode:lr-tb;fill:#000000;fill-opacity:1;fill-rule:nonzero;stroke:none"
           id="text352"><tspan
             x="0 3.1500001 9 14.85 20.700001 26.549999"
             y="0"
             sodipodi:role="line"
             id="tspan354">(1981)</tspan></text>
<text
           transform="translate(810.7,184.65)"
           style="font-variant:normal;font-weight:normal;font-stretch:normal;font-size:9.94999981px;font-family:Euphemia;-inkscape-font-specification:EuphemiaCAS;writing-mode:lr-tb;fill:#000000;fill-opacity:1;fill-rule:nonzero;stroke:none"
           id="text356"><tspan
             x="0 6.6500001 12.35 15.45 18.549999 24.1 27.75 30.15 35.849998 40.900002 44.049999 49.900002 55.75 61.599998 67.449997"
             y="0"
             sodipodi:role="line"
             id="tspan358">Dufferin (1975)</tspan></text>
<g
           id="g360"><path
             d="m 803.539,188.186 117.233,0.37 -0.002,0.6 -117.233,-0.37 0.002,-0.6"
             style="fill:#000000;fill-opacity:1;fill-rule:nonzero;stroke:none"
             id="path362"
             inkscape:connector-curvature="0" /></g><g
           id="g364"><path
             d="m 818.121,216.951 -0.075,-0.344 -0.005,-0.03 -0.048,-0.356 -0.003,-0.031 -0.019,-0.386 0,-0.034 0.016,-0.377 0.003,-0.034 0.048,-0.367 0.005,-0.033 0.079,-0.356 0.009,-0.032 0.109,-0.341 0.011,-0.032 0.137,-0.325 0.015,-0.031 0.163,-0.307 0.018,-0.029 0.188,-0.287 0.021,-0.029 0.212,-0.264 0.024,-0.027 0.234,-0.24 0.027,-0.026 0.255,-0.213 0.031,-0.023 0.274,-0.185 0.034,-0.021 0.292,-0.154 0.037,-0.018 0.308,-0.122 0.04,-0.013 0.323,-0.087 0.042,-0.009 0.335,-0.051 0.043,-0.004 0.339,-0.011 0.043,0.001 0.333,0.026 0.042,0.006 0.325,0.063 0.04,0.01 0.315,0.099 0.038,0.014 0.303,0.131 0.034,0.017 0.29,0.163 0.032,0.02 0.274,0.193 0.029,0.023 0.256,0.22 0.026,0.025 0.238,0.247 0.023,0.026 0.217,0.272 0.02,0.027 0.194,0.295 0.017,0.029 0.169,0.315 0.015,0.031 0.143,0.335 0.011,0.031 0.115,0.352 0.009,0.032 0.085,0.369 0.005,0.033 0.053,0.382 0.003,0.029 0.017,0.288 10e-4,0.025 -0.002,0.283 -10e-4,0.025 -0.021,0.278 -0.002,0.025 -0.038,0.272 -0.743,-0.104 0.038,-0.272 -0.003,0.024 0.021,-0.278 -10e-4,0.025 0.002,-0.283 0,0.024 -0.017,-0.287 0.003,0.029 -0.052,-0.383 0.005,0.033 -0.084,-0.369 0.009,0.032 -0.115,-0.352 0.012,0.031 -0.143,-0.335 0.014,0.03 -0.169,-0.315 0.017,0.028 -0.194,-0.294 0.02,0.028 -0.216,-0.272 0.022,0.026 -0.237,-0.247 0.025,0.024 -0.256,-0.221 0.028,0.023 -0.274,-0.193 0.032,0.02 -0.29,-0.163 0.035,0.017 -0.303,-0.131 0.038,0.014 -0.315,-0.099 0.04,0.01 -0.325,-0.063 0.042,0.006 -0.333,-0.027 0.043,0.001 -0.34,0.012 0.043,-0.004 -0.336,0.051 0.043,-0.009 -0.323,0.087 0.04,-0.013 -0.308,0.122 0.038,-0.018 -0.292,0.155 0.035,-0.021 -0.274,0.185 0.031,-0.023 -0.255,0.213 0.028,-0.025 -0.234,0.24 0.024,-0.028 -0.212,0.265 0.021,-0.029 -0.189,0.286 0.018,-0.029 -0.163,0.306 0.014,-0.03 -0.136,0.325 0.011,-0.032 -0.108,0.341 0.009,-0.032 -0.079,0.356 0.005,-0.033 -0.048,0.368 0.003,-0.034 -0.015,0.378 0,-0.033 0.018,0.386 -0.003,-0.032 0.048,0.355 -0.005,-0.03 0.075,0.344 -0.733,0.16"
             style="fill:#000000;fill-opacity:1;fill-rule:nonzero;stroke:none"
             id="path366"
             inkscape:connector-curvature="0" /></g><g
           id="g368"><path
             d="m 928.646,200.953 95.592,0 0,0.6 -95.592,0 0,-0.6 z"
             style="fill:#000000;fill-opacity:1;fill-rule:nonzero;stroke:none"
             id="path370"
             inkscape:connector-curvature="0" /></g><g
           id="g372"><path
             d="m 928.391,201.094 -21.686,34.728 0.509,0.318 21.686,-34.729 -0.509,-0.317"
             style="fill:#000000;fill-opacity:1;fill-rule:nonzero;stroke:none"
             id="path374"
             inkscape:connector-curvature="0" /></g><g
           id="g376"><path
             d="m 928.29,201.607 -7.775,-12.786 0.513,-0.312 7.775,12.787 -0.513,0.311"
             style="fill:#000000;fill-opacity:1;fill-rule:nonzero;stroke:none"
             id="path378"
             inkscape:connector-curvature="0" /></g><text
           transform="translate(937.469,199.775)"
           style="font-variant:normal;font-weight:normal;font-stretch:normal;font-size:9.94999981px;font-family:Euphemia;-inkscape-font-specification:EuphemiaCAS;writing-mode:lr-tb;fill:#000000;fill-opacity:1;fill-rule:nonzero;stroke:none"
           id="text380"><tspan
             x="0 5.1500001 7.6500001 13.35 19.049999 25 30.549999 34.200001 39.049999 44.099998 47.25 53.099998 58.950001 64.800003 70.650002"
             y="0"
             sodipodi:role="line"
             id="tspan382">Flanders (1989)</tspan></text>
<g
           id="g384"><path
             d="m 915.864,217.401 -0.075,-0.344 -0.006,-0.03 -0.048,-0.356 -0.002,-0.032 -0.019,-0.385 0,-0.034 0.015,-0.377 0.003,-0.034 0.048,-0.367 0.006,-0.033 0.079,-0.356 0.009,-0.032 0.108,-0.341 0.012,-0.032 0.137,-0.325 0.014,-0.031 0.163,-0.307 0.018,-0.03 0.188,-0.286 0.021,-0.029 0.212,-0.264 0.024,-0.027 0.234,-0.24 0.028,-0.026 0.255,-0.213 0.031,-0.023 0.274,-0.185 0.034,-0.021 0.291,-0.154 0.038,-0.018 0.308,-0.122 0.04,-0.013 0.322,-0.087 0.042,-0.009 0.336,-0.051 0.043,-0.004 0.339,-0.011 0.043,0 0.333,0.027 0.042,0.006 0.325,0.063 0.04,0.01 0.315,0.099 0.037,0.013 0.303,0.132 0.035,0.017 0.289,0.163 0.032,0.02 0.274,0.193 0.029,0.023 0.257,0.22 0.026,0.025 0.237,0.247 0.023,0.026 0.217,0.272 0.02,0.027 0.194,0.295 0.017,0.029 0.17,0.315 0.014,0.031 0.143,0.335 0.012,0.031 0.115,0.352 0.009,0.032 0.084,0.369 0.006,0.033 0.053,0.382 0.003,0.029 0.017,0.288 0,0.025 -0.002,0.283 -10e-4,0.025 -0.02,0.278 -0.003,0.025 -0.038,0.272 -0.742,-0.104 0.038,-0.272 -0.003,0.024 0.02,-0.278 -0.001,0.025 0.002,-0.283 10e-4,0.024 -0.017,-0.287 0.003,0.028 -0.053,-0.382 0.006,0.033 -0.084,-0.369 0.008,0.032 -0.114,-0.352 0.011,0.031 -0.143,-0.335 0.015,0.03 -0.169,-0.316 0.017,0.029 -0.194,-0.294 0.02,0.027 -0.217,-0.271 0.023,0.026 -0.238,-0.247 0.026,0.024 -0.257,-0.221 0.029,0.023 -0.274,-0.193 0.032,0.02 -0.29,-0.163 0.035,0.017 -0.303,-0.131 0.037,0.013 -0.315,-0.098 0.04,0.01 -0.325,-0.063 0.042,0.006 -0.333,-0.027 0.043,0.001 -0.339,0.012 0.043,-0.004 -0.336,0.051 0.042,-0.009 -0.322,0.087 0.04,-0.013 -0.308,0.122 0.037,-0.018 -0.291,0.155 0.034,-0.021 -0.274,0.185 0.031,-0.023 -0.254,0.213 0.027,-0.025 -0.234,0.239 0.024,-0.027 -0.212,0.264 0.021,-0.028 -0.188,0.286 0.018,-0.03 -0.164,0.307 0.015,-0.03 -0.137,0.325 0.012,-0.032 -0.109,0.341 0.009,-0.032 -0.079,0.356 0.006,-0.033 -0.048,0.367 0.003,-0.033 -0.016,0.378 0,-0.033 0.019,0.385 -0.003,-0.031 0.047,0.355 -0.005,-0.031 0.076,0.345 -0.733,0.16"
             style="fill:#000000;fill-opacity:1;fill-rule:nonzero;stroke:none"
             id="path386"
             inkscape:connector-curvature="0" /></g><g
           id="g388"><path
             d="m 1034.587,189.827 -17.515,-28.56 0.511,-0.314 17.516,28.56 -0.512,0.314"
             style="fill:#000000;fill-opacity:1;fill-rule:nonzero;stroke:none"
             id="path390"
             inkscape:connector-curvature="0" /></g><g
           id="g392"><path
             d="m 1034.568,189.408 -17.778,27.751 0.505,0.324 17.778,-27.751 -0.505,-0.324"
             style="fill:#000000;fill-opacity:1;fill-rule:nonzero;stroke:none"
             id="path394"
             inkscape:connector-curvature="0" /></g><g
           id="g396"><path
             d="m 1023.834,201.431 -0.076,-0.344 0,-0.03 -0.048,-0.355 0,-0.032 -0.018,-0.386 -10e-4,-0.033 0.016,-0.378 0,-0.033 0.048,-0.368 0,-0.033 0.08,-0.355 0.01,-0.033 0.109,-0.341 0.011,-0.032 0.137,-0.325 0.015,-0.031 0.163,-0.306 0.018,-0.03 0.188,-0.287 0.021,-0.029 0.212,-0.264 0.024,-0.027 0.234,-0.24 0.028,-0.025 0.254,-0.214 0.031,-0.023 0.274,-0.185 0.034,-0.021 0.292,-0.154 0.037,-0.017 0.308,-0.122 0.04,-0.014 0.323,-0.087 0.042,-0.009 0.335,-0.05 0.043,-0.004 0.339,-0.012 0.043,0.001 0.333,0.026 0.042,0.006 0.325,0.063 0.04,0.01 0.315,0.099 0.038,0.014 0.303,0.131 0.034,0.018 0.29,0.163 0.032,0.02 0.274,0.192 0.029,0.023 0.256,0.221 0.026,0.024 0.238,0.247 0.023,0.026 0.217,0.272 0.02,0.028 0.194,0.294 0.017,0.029 0.169,0.316 0.015,0.03 0.143,0.335 0.011,0.031 0.115,0.353 0.01,0.032 0.085,0.368 0.01,0.033 0.052,0.383 0,0.028 0.017,0.288 10e-4,0.025 0,0.283 -10e-4,0.025 -0.02,0.278 0,0.025 -0.038,0.272 -0.743,-0.104 0.038,-0.272 0,0.025 0.02,-0.279 -10e-4,0.025 0,-0.283 0,0.025 -0.017,-0.288 0,0.029 -0.052,-0.383 0.01,0.033 -0.085,-0.369 0.01,0.033 -0.115,-0.353 0.012,0.031 -0.143,-0.335 0.015,0.03 -0.17,-0.315 0.017,0.029 -0.194,-0.295 0.02,0.028 -0.216,-0.272 0.022,0.026 -0.237,-0.247 0.026,0.024 -0.257,-0.221 0.028,0.023 -0.274,-0.193 0.032,0.02 -0.289,-0.163 0.034,0.017 -0.303,-0.131 0.038,0.014 -0.315,-0.099 0.04,0.011 -0.325,-0.064 0.042,0.006 -0.333,-0.027 0.043,0.001 -0.34,0.012 0.043,-0.004 -0.335,0.051 0.042,-0.009 -0.323,0.087 0.04,-0.013 -0.307,0.122 0.037,-0.017 -0.291,0.154 0.034,-0.021 -0.274,0.185 0.031,-0.023 -0.255,0.213 0.028,-0.025 -0.234,0.24 0.024,-0.028 -0.212,0.265 0.021,-0.029 -0.189,0.287 0.018,-0.03 -0.163,0.307 0.015,-0.031 -0.137,0.325 0.012,-0.032 -0.109,0.342 0.01,-0.033 -0.079,0.356 0,-0.033 -0.048,0.368 0,-0.033 -0.015,0.377 0,-0.033 0.018,0.386 0,-0.032 0.048,0.355 -0.01,-0.03 0.075,0.344 -0.732,0.16"
             style="fill:#000000;fill-opacity:1;fill-rule:nonzero;stroke:none"
             id="path398"
             inkscape:connector-curvature="0" /></g><g
           id="g400"><path
             d="m 1076.104,160.617 -26.707,29.622 0.446,0.402 26.707,-29.623 -0.446,-0.401"
             style="fill:#000000;fill-opacity:1;fill-rule:nonzero;stroke:none"
             id="path402"
             inkscape:connector-curvature="0" /></g><g
           id="g404"><path
             d="m 1076.089,161.292 -43.755,-57.232 0.477,-0.365 43.754,57.233 -0.476,0.364"
             style="fill:#000000;fill-opacity:1;fill-rule:nonzero;stroke:none"
             id="path406"
             inkscape:connector-curvature="0" /></g><g
           id="g408"><path
             d="m 1144.662,221.55 49.133,0 0,0.6 -49.133,0 0,-0.6 z"
             style="fill:#000000;fill-opacity:1;fill-rule:nonzero;stroke:none"
             id="path410"
             inkscape:connector-curvature="0" /></g><text
           transform="translate(1156.044,221.257)"
           style="font-variant:normal;font-weight:normal;font-stretch:normal;font-size:9.94999981px;font-family:Euphemia;-inkscape-font-specification:EuphemiaCAS;writing-mode:lr-tb;fill:#000000;fill-opacity:1;fill-rule:nonzero;stroke:none"
           id="text412"><tspan
             x="0 5.1500001 10.8 16.65 22.5"
             y="0"
             sodipodi:role="line"
             id="tspan414">FP926</tspan></text>
<g
           id="g416"><path
             d="m 1201.468,213.773 -7.884,7.865 0.424,0.424 7.884,-7.865 -0.424,-0.424"
             style="fill:#000000;fill-opacity:1;fill-rule:nonzero;stroke:none"
             id="path418"
             inkscape:connector-curvature="0" /></g><g
           id="g420"><path
             d="m 1273.673,213.685 112.734,1.132 -0.01,0.6 -112.734,-1.132 0.01,-0.6"
             style="fill:#000000;fill-opacity:1;fill-rule:nonzero;stroke:none"
             id="path422"
             inkscape:connector-curvature="0" /></g><text
           transform="translate(1213.073,213.463)"
           style="font-variant:normal;font-weight:normal;font-stretch:normal;font-size:9.94999981px;font-family:Euphemia;-inkscape-font-specification:EuphemiaCAS;writing-mode:lr-tb;fill:#000000;fill-opacity:1;fill-rule:nonzero;stroke:none"
           id="text424"><tspan
             x="0 6.6500001 13.3 19.950001 25 32.75 38.799999 44.5"
             y="0"
             sodipodi:role="line"
             id="tspan426">CDC Mons</tspan></text>
<text
           transform="translate(1218.123,225.463)"
           style="font-variant:normal;font-weight:normal;font-stretch:normal;font-size:9.94999981px;font-family:Euphemia;-inkscape-font-specification:EuphemiaCAS;writing-mode:lr-tb;fill:#000000;fill-opacity:1;fill-rule:nonzero;stroke:none"
           id="text428"><tspan
             x="0 3.1500001 9 14.85 20.700001 26.549999"
             y="0"
             sodipodi:role="line"
             id="tspan430">(2002)</tspan></text>
<g
           id="g432"><path
             d="m 1199.551,117.365 -24.844,-45.504 0.527,-0.288 24.844,45.505 -0.527,0.287"
             style="fill:#000000;fill-opacity:1;fill-rule:nonzero;stroke:none"
             id="path434"
             inkscape:connector-curvature="0" /></g><g
           id="g436"><path
             d="m 1199.524,116.986 -22.074,43.989 0.536,0.269 22.074,-43.989 -0.536,-0.269"
             style="fill:#000000;fill-opacity:1;fill-rule:nonzero;stroke:none"
             id="path438"
             inkscape:connector-curvature="0" /></g><g
           id="g440"><path
             d="m 1266.87,214.253 -0.076,-0.344 -0.01,-0.03 -0.048,-0.356 0,-0.031 -0.018,-0.386 0,-0.034 0.015,-0.377 0,-0.034 0.048,-0.367 0.01,-0.033 0.079,-0.356 0.01,-0.032 0.108,-0.341 0.012,-0.032 0.136,-0.325 0.015,-0.031 0.163,-0.307 0.018,-0.03 0.188,-0.286 0.021,-0.029 0.212,-0.264 0.024,-0.027 0.234,-0.24 0.028,-0.026 0.255,-0.213 0.031,-0.023 0.273,-0.185 0.035,-0.021 0.291,-0.154 0.038,-0.018 0.308,-0.122 0.04,-0.013 0.322,-0.087 0.042,-0.009 0.336,-0.051 0.043,-0.004 0.339,-0.011 0.043,0.001 0.333,0.026 0.042,0.006 0.325,0.063 0.04,0.01 0.315,0.099 0.037,0.014 0.303,0.131 0.035,0.017 0.289,0.163 0.032,0.02 0.274,0.193 0.029,0.023 0.257,0.22 0.026,0.025 0.237,0.247 0.023,0.026 0.217,0.272 0.02,0.027 0.194,0.295 0.017,0.029 0.17,0.315 0.014,0.031 0.143,0.335 0.012,0.031 0.115,0.352 0.01,0.032 0.085,0.369 0.01,0.033 0.053,0.382 0,0.029 0.017,0.288 10e-4,0.025 0,0.283 -10e-4,0.025 -0.02,0.278 0,0.025 -0.038,0.272 -0.743,-0.104 0.039,-0.272 0,0.024 0.02,-0.278 -10e-4,0.025 0,-0.283 10e-4,0.024 -0.017,-0.287 0,0.029 -0.053,-0.383 0.01,0.033 -0.085,-0.369 0.01,0.032 -0.114,-0.352 0.011,0.031 -0.143,-0.335 0.015,0.03 -0.17,-0.316 0.018,0.029 -0.194,-0.294 0.02,0.027 -0.217,-0.271 0.023,0.026 -0.238,-0.247 0.026,0.024 -0.257,-0.221 0.029,0.023 -0.274,-0.193 0.031,0.02 -0.289,-0.163 0.035,0.017 -0.303,-0.131 0.037,0.014 -0.315,-0.099 0.04,0.01 -0.325,-0.063 0.042,0.006 -0.333,-0.027 0.043,0.001 -0.339,0.012 0.043,-0.004 -0.336,0.051 0.042,-0.009 -0.322,0.087 0.04,-0.013 -0.308,0.122 0.037,-0.018 -0.291,0.155 0.034,-0.021 -0.274,0.185 0.031,-0.023 -0.254,0.213 0.027,-0.025 -0.234,0.24 0.024,-0.028 -0.212,0.264 0.021,-0.028 -0.188,0.286 0.017,-0.029 -0.163,0.306 0.015,-0.03 -0.137,0.325 0.012,-0.032 -0.109,0.341 0.01,-0.032 -0.079,0.356 0.01,-0.033 -0.048,0.368 0,-0.034 -0.016,0.378 0,-0.033 0.019,0.386 0,-0.032 0.047,0.355 0,-0.031 0.076,0.345 -0.733,0.16"
             style="fill:#000000;fill-opacity:1;fill-rule:nonzero;stroke:none"
             id="path442"
             inkscape:connector-curvature="0" /></g><g
           id="g444"><path
             d="m 1279.8,254.092 -33.912,-136.209 0.582,-0.145 33.912,136.209 -0.582,0.145"
             style="fill:#000000;fill-opacity:1;fill-rule:nonzero;stroke:none"
             id="path446"
             inkscape:connector-curvature="0" /></g><g
           id="g448"><path
             d="m 1279.828,254.108 -13.481,24.549 0.526,0.289 13.481,-24.549 -0.526,-0.289"
             style="fill:#000000;fill-opacity:1;fill-rule:nonzero;stroke:none"
             id="path450"
             inkscape:connector-curvature="0" /></g><g
           id="g452"><path
             d="m 1404.706,250.369 -18.567,-35.013 0.53,-0.281 18.567,35.013 -0.53,0.281"
             style="fill:#000000;fill-opacity:1;fill-rule:nonzero;stroke:none"
             id="path454"
             inkscape:connector-curvature="0" /></g><g
           id="g456"><path
             d="m 1404.68,249.993 -17.597,35.15 0.537,0.268 17.596,-35.149 -0.536,-0.269"
             style="fill:#000000;fill-opacity:1;fill-rule:nonzero;stroke:none"
             id="path458"
             inkscape:connector-curvature="0" /></g><g
           id="g460"><path
             d="m 1405.139,250.052 86.794,0.001 0,0.6 -86.794,-0.001 0,-0.6"
             style="fill:#000000;fill-opacity:1;fill-rule:nonzero;stroke:none"
             id="path462"
             inkscape:connector-curvature="0" /></g><text
           transform="translate(1403.284,248.064)"
           style="font-variant:normal;font-weight:normal;font-stretch:normal;font-size:9.94999981px;font-family:Euphemia;-inkscape-font-specification:EuphemiaCAS;writing-mode:lr-tb;fill:#000000;fill-opacity:1;fill-rule:nonzero;stroke:#000000;stroke-width:0.28457001;stroke-linecap:square;stroke-linejoin:bevel;stroke-miterlimit:2;stroke-dasharray:none;stroke-opacity:1"
           id="text464"><tspan
             x="0 6.6999998 13.4 20.1"
             y="0"
             sodipodi:role="line"
             id="tspan466">CDC </tspan></text>
<text
           transform="translate(1428.484,248.064)"
           style="font-variant:normal;font-weight:normal;font-stretch:normal;font-size:9.94999981px;font-family:Euphemia;-inkscape-font-specification:EuphemiaCAS;writing-mode:lr-tb;fill:#000000;fill-opacity:1;fill-rule:nonzero;stroke:#000000;stroke-width:0.28457001;stroke-linecap:square;stroke-linejoin:bevel;stroke-miterlimit:2;stroke-dasharray:none;stroke-opacity:1"
           id="text468"><tspan
             x="0 7 12.6 18.200001 20.75"
             y="0"
             sodipodi:role="line"
             id="tspan470">Neela</tspan></text>
<text
           transform="translate(1460.084,248.064)"
           style="font-variant:normal;font-weight:normal;font-stretch:normal;font-size:9.94999981px;font-family:Euphemia;-inkscape-font-specification:EuphemiaCAS;writing-mode:lr-tb;fill:#000000;fill-opacity:1;fill-rule:nonzero;stroke:#000000;stroke-width:0.28457001;stroke-linecap:square;stroke-linejoin:bevel;stroke-miterlimit:2;stroke-dasharray:none;stroke-opacity:1"
           id="text472"><tspan
             x="0 3.2 9.1000004 15 20.9 26.799999"
             y="0"
             sodipodi:role="line"
             id="tspan474">(2013)</tspan></text>
<g
           id="g476"><path
             d="m 1333.289,285.187 -19.299,-31.009 0.509,-0.317 19.299,31.009 -0.509,0.317"
             style="fill:#000000;fill-opacity:1;fill-rule:nonzero;stroke:none"
             id="path478"
             inkscape:connector-curvature="0" /></g><g
           id="g480"><path
             d="m 1333.484,285.076 -10.174,17.64 0.52,0.3 10.174,-17.64 -0.52,-0.3"
             style="fill:#000000;fill-opacity:1;fill-rule:nonzero;stroke:none"
             id="path482"
             inkscape:connector-curvature="0" /></g><g
           id="g484"><path
             d="m 656.5,246.409 -18.343,-29.018 0.507,-0.321 18.344,29.018 -0.508,0.321"
             style="fill:#000000;fill-opacity:1;fill-rule:nonzero;stroke:none"
             id="path486"
             inkscape:connector-curvature="0" /></g><g
           id="g488"><path
             d="m 1201.148,214.146 -7.367,-11.63 0.506,-0.321 7.368,11.629 -0.507,0.322"
             style="fill:#000000;fill-opacity:1;fill-rule:nonzero;stroke:none"
             id="path490"
             inkscape:connector-curvature="0" /></g><g
           id="g492"><path
             d="m 1030.524,201.152 99.569,0.356 0,0.6 -99.569,-0.356 0,-0.6"
             style="fill:#000000;fill-opacity:1;fill-rule:nonzero;stroke:none"
             id="path494"
             inkscape:connector-curvature="0" /></g><g
           id="g496"><path
             d="m 825.314,216.754 90.917,0.267 -0.002,0.6 -90.916,-0.267 10e-4,-0.6"
             style="fill:#000000;fill-opacity:1;fill-rule:nonzero;stroke:none"
             id="path498"
             inkscape:connector-curvature="0" /></g><g
           id="g500"><path
             d="m 923.302,216.754 93.742,0.406 0,0.6 -93.742,-0.406 0.003,-0.6"
             style="fill:#000000;fill-opacity:1;fill-rule:nonzero;stroke:none"
             id="path502"
             inkscape:connector-curvature="0" /></g><g
           id="g504"><path
             d="m 1201.681,213.685 65.556,0.188 0,0.6 -65.556,-0.188 0,-0.6"
             style="fill:#000000;fill-opacity:1;fill-rule:nonzero;stroke:none"
             id="path506"
             inkscape:connector-curvature="0" /></g><text
           transform="translate(7.2,27)"
           style="font-variant:normal;font-weight:normal;font-stretch:normal;font-size:9.94999981px;font-family:Euphemia;-inkscape-font-specification:EuphemiaCAS;writing-mode:lr-tb;fill:#000000;fill-opacity:1;fill-rule:nonzero;stroke:#000000;stroke-width:0.28457001;stroke-linecap:square;stroke-linejoin:bevel;stroke-miterlimit:2;stroke-dasharray:none;stroke-opacity:1"
           id="text508"><tspan
             x="0 6.1500001 8.6000004 13.5 19.6 25.35 30.450001 33.650002 39.549999 45.450001 51.349998 57.25"
             y="0"
             sodipodi:role="line"
             id="tspan510">Bison (1930)</tspan></text>
<text
           transform="translate(301,248.75)"
           style="font-variant:normal;font-weight:normal;font-stretch:normal;font-size:9.94999981px;font-family:Euphemia;-inkscape-font-specification:EuphemiaCAS;writing-mode:lr-tb;fill:#000000;fill-opacity:1;fill-rule:nonzero;stroke:#000000;stroke-width:0.28457001;stroke-linecap:square;stroke-linejoin:bevel;stroke-miterlimit:2;stroke-dasharray:none;stroke-opacity:1"
           id="text512"><tspan
             x="0 5.9499998 11.55 17.549999 24.299999 26.75 32.5"
             y="0"
             sodipodi:role="line"
             id="tspan514">Redwing</tspan></text>
<g
           id="g516"><path
             d="m 476.165,104.731 -50.916,148.625 0.568,0.195 50.916,-148.626 -0.568,-0.194"
             style="fill:#000000;fill-opacity:1;fill-rule:nonzero;stroke:none"
             id="path518"
             inkscape:connector-curvature="0" /></g><text
           transform="translate(316.886,192.34)"
           style="font-variant:normal;font-weight:normal;font-stretch:normal;font-size:9.94999981px;font-family:Euphemia;-inkscape-font-specification:EuphemiaCAS;writing-mode:lr-tb;fill:#000000;fill-opacity:1;fill-rule:nonzero;stroke:none"
           id="text520"><tspan
             x="0 6.0999999 12.15 15.55 21.6 26.65 29.799999 35.650002 41.5 47.349998 53.200001"
             y="0"
             sodipodi:role="line"
             id="tspan522">Koto (1942)</tspan></text>
<g
           id="g524"><path
             d="m 443.654,193.934 -0.075,-0.344 -0.005,-0.03 -0.048,-0.356 -0.003,-0.032 -0.019,-0.385 0,-0.034 0.016,-0.377 0.003,-0.034 0.048,-0.367 0.005,-0.033 0.079,-0.356 0.009,-0.032 0.109,-0.341 0.011,-0.032 0.137,-0.325 0.015,-0.031 0.163,-0.307 0.018,-0.03 0.188,-0.286 0.021,-0.029 0.212,-0.264 0.024,-0.027 0.234,-0.24 0.027,-0.026 0.255,-0.213 0.031,-0.023 0.274,-0.185 0.034,-0.021 0.292,-0.154 0.037,-0.018 0.308,-0.122 0.04,-0.013 0.323,-0.087 0.042,-0.009 0.335,-0.051 0.043,-0.004 0.339,-0.012 0.043,0.001 0.333,0.027 0.042,0.006 0.325,0.063 0.04,0.01 0.315,0.099 0.038,0.013 0.303,0.132 0.034,0.017 0.29,0.163 0.032,0.02 0.274,0.193 0.029,0.023 0.256,0.22 0.026,0.025 0.238,0.247 0.023,0.026 0.217,0.272 0.02,0.027 0.194,0.295 0.017,0.029 0.169,0.315 0.015,0.031 0.143,0.334 0.011,0.032 0.115,0.352 0.009,0.032 0.085,0.369 0.006,0.033 0.052,0.382 0.003,0.029 0.017,0.288 0.001,0.025 -0.002,0.283 -0.001,0.025 -0.021,0.278 -0.002,0.025 -0.038,0.272 -0.743,-0.104 0.038,-0.272 -0.003,0.024 0.021,-0.278 -10e-4,0.025 0.002,-0.283 0,0.024 -0.017,-0.287 0.003,0.028 -0.052,-0.382 0.006,0.033 -0.085,-0.369 0.009,0.032 -0.115,-0.352 0.012,0.031 -0.143,-0.335 0.014,0.03 -0.169,-0.316 0.017,0.029 -0.194,-0.294 0.02,0.027 -0.216,-0.271 0.022,0.026 -0.237,-0.247 0.025,0.024 -0.256,-0.221 0.028,0.023 -0.274,-0.193 0.032,0.02 -0.29,-0.163 0.035,0.017 -0.303,-0.131 0.038,0.013 -0.315,-0.098 0.04,0.01 -0.325,-0.063 0.042,0.006 -0.333,-0.027 0.043,0.001 -0.34,0.012 0.043,-0.004 -0.336,0.051 0.043,-0.009 -0.323,0.087 0.04,-0.013 -0.308,0.122 0.038,-0.018 -0.292,0.155 0.035,-0.021 -0.274,0.185 0.031,-0.023 -0.255,0.213 0.028,-0.025 -0.234,0.239 0.024,-0.027 -0.212,0.264 0.021,-0.028 -0.189,0.286 0.018,-0.03 -0.163,0.307 0.014,-0.03 -0.136,0.325 0.011,-0.032 -0.108,0.341 0.009,-0.032 -0.079,0.356 0.005,-0.033 -0.048,0.367 0.003,-0.033 -0.015,0.378 0,-0.033 0.018,0.385 -0.003,-0.031 0.048,0.355 -0.005,-0.031 0.075,0.345 -0.733,0.16"
             style="fill:#000000;fill-opacity:1;fill-rule:nonzero;stroke:none"
             id="path526"
             inkscape:connector-curvature="0" /></g><g
           id="g528"><path
             d="m 269.536,205.235 22.745,0 0,0.6 -22.745,0 0,-0.6 z"
             style="fill:#000000;fill-opacity:1;fill-rule:nonzero;stroke:none"
             id="path530"
             inkscape:connector-curvature="0" /></g><text
           transform="translate(219.235,215.158)"
           style="font-variant:normal;font-weight:normal;font-stretch:normal;font-size:9.94999981px;font-family:Euphemia;-inkscape-font-specification:EuphemiaCAS;writing-mode:lr-tb;fill:#000000;fill-opacity:1;fill-rule:nonzero;stroke:#000000;stroke-width:0.28457001;stroke-linecap:square;stroke-linejoin:bevel;stroke-miterlimit:2;stroke-dasharray:none;stroke-opacity:1"
           id="text532"><tspan
             x="0 5.9499998 11.55 16.450001 22.049999 25.75 30.450001"
             y="0"
             sodipodi:role="line"
             id="tspan534">Reserve</tspan></text>
<g
           id="g536"><path
             d="m 269.337,205.776 -14.176,-10.631 0.36,-0.48 14.176,10.631 -0.36,0.48"
             style="fill:#000000;fill-opacity:1;fill-rule:nonzero;stroke:none"
             id="path538"
             inkscape:connector-curvature="0" /></g><g
           id="g540"><path
             d="m 269.346,205.296 -14.175,10.631 0.36,0.48 14.175,-10.631 -0.36,-0.48"
             style="fill:#000000;fill-opacity:1;fill-rule:nonzero;stroke:none"
             id="path542"
             inkscape:connector-curvature="0" /></g><g
           id="g544"><path
             d="m 200.807,194.567 54.722,0.039 0,0.6 -54.723,-0.039 10e-4,-0.6"
             style="fill:#000000;fill-opacity:1;fill-rule:nonzero;stroke:none"
             id="path546"
             inkscape:connector-curvature="0" /></g><g
           id="g548"><path
             d="m 213.834,215.867 41.58,0 0,0.6 -41.58,0 0,-0.6 z"
             style="fill:#000000;fill-opacity:1;fill-rule:nonzero;stroke:none"
             id="path550"
             inkscape:connector-curvature="0" /></g><text
           transform="translate(217.189,193.19)"
           style="font-variant:normal;font-weight:normal;font-stretch:normal;font-size:9.94999981px;font-family:Euphemia;-inkscape-font-specification:EuphemiaCAS;writing-mode:lr-tb;fill:#000000;fill-opacity:1;fill-rule:nonzero;stroke:#000000;stroke-width:0.28457001;stroke-linecap:square;stroke-linejoin:bevel;stroke-miterlimit:2;stroke-dasharray:none;stroke-opacity:1"
           id="text552"><tspan
             x="0 7.8000002 13.9 19 22.700001"
             y="0"
             sodipodi:role="line"
             id="tspan554">Moyre</tspan></text>
<text
           transform="translate(262.614,272.008)"
           style="font-variant:normal;font-weight:normal;font-stretch:normal;font-size:9.94999981px;font-family:Euphemia;-inkscape-font-specification:EuphemiaCAS;writing-mode:lr-tb;fill:#000000;fill-opacity:1;fill-rule:nonzero;stroke:none"
           id="text556"><tspan
             x="0 6.25 9.8999996 13.55 19.6"
             y="0"
             sodipodi:role="line"
             id="tspan558">Arrow</tspan></text>
<g
           id="g560"><path
             d="m 350.558,325.688 -14.175,10.631 0.36,0.48 14.175,-10.631 -0.36,-0.48"
             style="fill:#000000;fill-opacity:1;fill-rule:nonzero;stroke:none"
             id="path562"
             inkscape:connector-curvature="0" /></g><g
           id="g564"><path
             d="m 155.398,175.199 23.62,-0.177 -0.005,-0.6 -23.619,0.177 0.004,0.6"
             style="fill:#000000;fill-opacity:1;fill-rule:nonzero;stroke:none"
             id="path566"
             inkscape:connector-curvature="0" /></g><g
           id="g568"><path
             d="m 282.018,336.255 54.607,0.004 0,0.6 -54.607,-0.004 0,-0.6"
             style="fill:#000000;fill-opacity:1;fill-rule:nonzero;stroke:none"
             id="path570"
             inkscape:connector-curvature="0" /></g><text
           transform="translate(289.218,335.244)"
           style="font-variant:normal;font-weight:normal;font-stretch:normal;font-size:9.94999981px;font-family:Euphemia;-inkscape-font-specification:EuphemiaCAS;writing-mode:lr-tb;fill:#000000;fill-opacity:1;fill-rule:nonzero;stroke:#000000;stroke-width:0.28457001;stroke-linecap:square;stroke-linejoin:bevel;stroke-miterlimit:2;stroke-dasharray:none;stroke-opacity:1"
           id="text572"><tspan
             x="0 6.6999998 8.8000002 11.15 13.25 18.35 24.25 30.15"
             y="0"
             sodipodi:role="line"
             id="tspan574">C.I. 975</tspan></text>
<g
           id="g576"><path
             d="m 299.121,195.109 -7.087,10.32 0.495,0.339 7.087,-10.319 -0.495,-0.34"
             style="fill:#000000;fill-opacity:1;fill-rule:nonzero;stroke:none"
             id="path578"
             inkscape:connector-curvature="0" /></g><g
           id="g580"><path
             d="m 91.586,184.742 56.557,0.001 0,0.6 -56.557,-10e-4 0,-0.6"
             style="fill:#000000;fill-opacity:1;fill-rule:nonzero;stroke:none"
             id="path582"
             inkscape:connector-curvature="0" /></g><g
           id="g584"><path
             d="m 154.983,174.552 -7.087,10.32 0.494,0.339 7.088,-10.319 -0.495,-0.34"
             style="fill:#000000;fill-opacity:1;fill-rule:nonzero;stroke:none"
             id="path586"
             inkscape:connector-curvature="0" /></g><text
           transform="translate(99.907,183.4)"
           style="font-variant:normal;font-weight:normal;font-stretch:normal;font-size:9.94999981px;font-family:Euphemia;-inkscape-font-specification:EuphemiaCAS;writing-mode:lr-tb;fill:#000000;fill-opacity:1;fill-rule:nonzero;stroke:#000000;stroke-width:0.28457001;stroke-linecap:square;stroke-linejoin:bevel;stroke-miterlimit:2;stroke-dasharray:none;stroke-opacity:1"
           id="text588"><tspan
             x="0 5.9499998 11.55 17.299999 22.9"
             y="0"
             sodipodi:role="line"
             id="tspan590">Renew</tspan></text>
<g
           id="g592"><path
             d="M 299.465,195.629 194.101,28.895 l 0.507,-0.32 105.365,166.733 -0.508,0.321"
             style="fill:#000000;fill-opacity:1;fill-rule:nonzero;stroke:none"
             id="path594"
             inkscape:connector-curvature="0" /></g><g
           id="g596"><path
             d="m 350.489,326.096 -35.856,-53.11 0.498,-0.336 35.855,53.11 -0.497,0.336"
             style="fill:#000000;fill-opacity:1;fill-rule:nonzero;stroke:none"
             id="path598"
             inkscape:connector-curvature="0" /></g><g
           id="g600"><path
             d="m 240.048,273.33 74.67,-0.165 -0.001,-0.6 -74.671,0.165 0.002,0.6"
             style="fill:#000000;fill-opacity:1;fill-rule:nonzero;stroke:none"
             id="path602"
             inkscape:connector-curvature="0" /></g><g
           id="g604"><path
             d="m 105.215,53.802 101.496,0.061 0,0.6 -101.496,-0.061 0,-0.6"
             style="fill:#000000;fill-opacity:1;fill-rule:nonzero;stroke:none"
             id="path606"
             inkscape:connector-curvature="0" /></g><g
           id="g608"><path
             d="M 240.245,273.187 104.96,54.26 l 0.51,-0.316 135.286,218.928 -0.511,0.315"
             style="fill:#000000;fill-opacity:1;fill-rule:nonzero;stroke:none"
             id="path610"
             inkscape:connector-curvature="0" /></g><g
           id="g612"><path
             d="m 356.723,230.24 -13.354,-35.762 0.562,-0.21 13.354,35.763 -0.562,0.209"
             style="fill:#000000;fill-opacity:1;fill-rule:nonzero;stroke:none"
             id="path614"
             inkscape:connector-curvature="0" /></g><g
           id="g616"><path
             d="m 356.702,229.925 -8.999,22.917 0.558,0.22 9,-22.917 -0.559,-0.22"
             style="fill:#000000;fill-opacity:1;fill-rule:nonzero;stroke:none"
             id="path618"
             inkscape:connector-curvature="0" /></g><g
           id="g620"><path
             d="m 356.346,229.728 16.631,0 0,0.6 -16.631,0 0,-0.6 z"
             style="fill:#000000;fill-opacity:1;fill-rule:nonzero;stroke:none"
             id="path622"
             inkscape:connector-curvature="0" /></g><g
           id="g624"><path
             d="m 435.642,68.726 -10.716,-14.445 0.482,-0.358 10.716,14.446 -0.482,0.357"
             style="fill:#000000;fill-opacity:1;fill-rule:nonzero;stroke:none"
             id="path626"
             inkscape:connector-curvature="0" /></g><g
           id="g628"><path
             d="M 154.975,175.461 65.226,28.924 l 0.511,-0.314 89.749,146.538 -0.511,0.313"
             style="fill:#000000;fill-opacity:1;fill-rule:nonzero;stroke:none"
             id="path630"
             inkscape:connector-curvature="0" /></g><g
           id="g632"><path
             d="m 435.598,68.166 12.084,0 0,-0.6 -12.084,0 0,0.6"
             style="fill:#000000;fill-opacity:1;fill-rule:nonzero;stroke:none"
             id="path634"
             inkscape:connector-curvature="0" /></g><g
           id="g636"><path
             d="m 383.347,194.697 -0.076,-0.344 -0.005,-0.031 -0.048,-0.355 -0.003,-0.032 -0.018,-0.386 -10e-4,-0.033 0.016,-0.378 0.003,-0.033 0.048,-0.368 0.006,-0.033 0.079,-0.355 0.008,-0.033 0.109,-0.341 0.012,-0.032 0.136,-0.325 0.015,-0.03 0.163,-0.307 0.018,-0.03 0.188,-0.287 0.021,-0.028 0.212,-0.265 0.024,-0.027 0.234,-0.24 0.028,-0.025 0.254,-0.214 0.031,-0.023 0.274,-0.185 0.034,-0.021 0.292,-0.154 0.037,-0.017 0.308,-0.122 0.04,-0.014 0.323,-0.087 0.042,-0.009 0.335,-0.05 0.043,-0.004 0.34,-0.012 0.042,10e-4 0.333,0.026 0.042,0.006 0.325,0.063 0.04,0.011 0.315,0.098 0.038,0.014 0.303,0.131 0.035,0.018 0.289,0.163 0.032,0.02 0.274,0.193 0.029,0.022 0.257,0.221 0.025,0.024 0.238,0.247 0.023,0.026 0.217,0.272 0.02,0.028 0.194,0.294 0.017,0.029 0.169,0.316 0.015,0.03 0.143,0.335 0.012,0.031 0.114,0.353 0.009,0.032 0.085,0.368 0.006,0.033 0.052,0.383 0.003,0.029 0.017,0.287 0.001,0.025 -0.002,0.283 -0.001,0.025 -0.02,0.278 -0.003,0.025 -0.038,0.272 -0.743,-0.104 0.038,-0.272 -0.002,0.025 0.02,-0.278 -10e-4,0.024 0.002,-0.283 0,0.025 -0.017,-0.288 0.003,0.029 -0.052,-0.383 0.006,0.033 -0.085,-0.368 0.009,0.032 -0.115,-0.353 0.012,0.031 -0.143,-0.335 0.015,0.03 -0.17,-0.315 0.017,0.029 -0.194,-0.295 0.02,0.028 -0.216,-0.272 0.023,0.026 -0.238,-0.247 0.026,0.024 -0.257,-0.22 0.028,0.022 -0.274,-0.193 0.032,0.02 -0.289,-0.163 0.034,0.017 -0.303,-0.131 0.038,0.014 -0.315,-0.098 0.04,0.01 -0.325,-0.064 0.042,0.006 -0.333,-0.027 0.043,0.001 -0.34,0.012 0.043,-0.004 -0.335,0.051 0.042,-0.009 -0.323,0.087 0.04,-0.013 -0.307,0.122 0.037,-0.017 -0.292,0.154 0.035,-0.021 -0.274,0.185 0.031,-0.023 -0.255,0.214 0.028,-0.026 -0.234,0.24 0.024,-0.027 -0.212,0.264 0.021,-0.029 -0.189,0.287 0.018,-0.03 -0.163,0.307 0.015,-0.031 -0.137,0.325 0.012,-0.032 -0.109,0.342 0.009,-0.033 -0.079,0.356 0.005,-0.033 -0.048,0.368 0.003,-0.033 -0.015,0.377 0,-0.033 0.018,0.386 -0.003,-0.032 0.048,0.355 -0.005,-0.03 0.075,0.344 -0.732,0.161"
             style="fill:#000000;fill-opacity:1;fill-rule:nonzero;stroke:none"
             id="path638"
             inkscape:connector-curvature="0" /></g><g
           id="g640"><path
             d="m 206.345,54.243 -0.076,-0.344 -0.005,-0.031 -0.048,-0.355 -0.003,-0.032 -0.018,-0.386 0,-0.033 0.015,-0.378 0.003,-0.033 0.048,-0.367 0.006,-0.033 0.079,-0.356 0.008,-0.032 0.109,-0.341 0.012,-0.032 0.136,-0.325 0.015,-0.031 0.163,-0.307 0.018,-0.03 0.188,-0.286 0.021,-0.029 0.212,-0.264 0.024,-0.028 0.234,-0.239 0.028,-0.026 0.254,-0.213 0.031,-0.024 0.274,-0.185 0.035,-0.02 0.291,-0.155 0.038,-0.017 0.307,-0.122 0.04,-0.013 0.323,-0.087 0.042,-0.009 0.336,-0.051 0.042,-0.004 0.34,-0.012 0.043,0.001 0.333,0.027 0.042,0.006 0.324,0.063 0.04,0.01 0.315,0.098 0.038,0.014 0.303,0.132 0.035,0.017 0.289,0.163 0.032,0.02 0.274,0.193 0.029,0.022 0.257,0.221 0.026,0.025 0.237,0.247 0.023,0.026 0.217,0.271 0.02,0.028 0.194,0.295 0.017,0.029 0.17,0.315 0.014,0.03 0.143,0.335 0.012,0.032 0.114,0.352 0.009,0.032 0.085,0.369 0.006,0.033 0.052,0.382 0.003,0.029 0.017,0.288 10e-4,0.024 -0.002,0.284 -0.001,0.025 -0.02,0.278 -0.003,0.024 -0.038,0.273 -0.743,-0.104 0.038,-0.272 -0.002,0.024 0.02,-0.278 -0.001,0.025 0.002,-0.284 0.001,0.025 -0.017,-0.288 0.002,0.029 -0.052,-0.382 0.006,0.032 -0.085,-0.368 0.009,0.032 -0.115,-0.353 0.012,0.032 -0.143,-0.335 0.015,0.03 -0.17,-0.316 0.018,0.029 -0.194,-0.294 0.02,0.027 -0.217,-0.271 0.023,0.026 -0.238,-0.247 0.026,0.024 -0.257,-0.221 0.029,0.022 -0.274,-0.192 0.031,0.02 -0.289,-0.163 0.035,0.017 -0.304,-0.132 0.038,0.014 -0.315,-0.098 0.04,0.01 -0.325,-0.063 0.042,0.006 -0.333,-0.027 0.043,10e-4 -0.339,0.012 0.042,-0.004 -0.335,0.05 0.042,-0.008 -0.323,0.087 0.041,-0.013 -0.308,0.121 0.037,-0.017 -0.291,0.155 0.034,-0.021 -0.274,0.185 0.031,-0.023 -0.255,0.213 0.028,-0.026 -0.234,0.24 0.024,-0.027 -0.212,0.264 0.021,-0.028 -0.188,0.286 0.017,-0.03 -0.163,0.307 0.015,-0.031 -0.137,0.326 0.012,-0.032 -0.109,0.341 0.009,-0.032 -0.079,0.355 0.006,-0.032 -0.048,0.367 0.003,-0.033 -0.016,0.378 0,-0.033 0.018,0.385 -0.002,-0.032 0.047,0.356 -0.005,-0.031 0.075,0.344 -0.732,0.161"
             style="fill:#000000;fill-opacity:1;fill-rule:nonzero;stroke:none"
             id="path642"
             inkscape:connector-curvature="0" /></g><g
           id="g644"><path
             d="m 575.084,81.527 -8.355,-13.924 0.514,-0.309 8.355,13.924 -0.514,0.309"
             style="fill:#000000;fill-opacity:1;fill-rule:nonzero;stroke:none"
             id="path646"
             inkscape:connector-curvature="0" /></g><g
           id="g648"><path
             d="m 575.043,81.153 -10.063,23.315 0.551,0.238 10.063,-23.315 -0.551,-0.238"
             style="fill:#000000;fill-opacity:1;fill-rule:nonzero;stroke:none"
             id="path650"
             inkscape:connector-curvature="0" /></g><text
           transform="translate(584.428,79.643)"
           style="font-variant:normal;font-weight:normal;font-stretch:normal;font-size:9.94999981px;font-family:Euphemia;-inkscape-font-specification:EuphemiaCAS;writing-mode:lr-tb;fill:#000000;fill-opacity:1;fill-rule:nonzero;stroke:none"
           id="text652"><tspan
             x="0 8.6999998 11.1 16.799999 22.75 28.799999"
             y="0"
             sodipodi:role="line"
             id="tspan654">Windom</tspan></text>
<g
           id="g656"><path
             d="m 287.851,252.15 137.886,1.004 -0.004,0.6 -137.886,-1.004 0.004,-0.6"
             style="fill:#000000;fill-opacity:1;fill-rule:nonzero;stroke:none"
             id="path658"
             inkscape:connector-curvature="0" /></g><g
           id="g660"><path
             d="m 435.318,67.758 -62.621,162.269 0.56,0.216 62.621,-162.269 -0.56,-0.216"
             style="fill:#000000;fill-opacity:1;fill-rule:nonzero;stroke:none"
             id="path662"
             inkscape:connector-curvature="0" /></g><g
           id="g664"><path
             d="m 8.017,28.435 418.726,0.032 0,0.6 -418.726,-0.032 0,-0.6"
             style="fill:#000000;fill-opacity:1;fill-rule:nonzero;stroke:none"
             id="path666"
             inkscape:connector-curvature="0" /></g><g
           id="g668"><path
             d="m 476.845,104.995 -50.956,-76.061 0.498,-0.334 50.956,76.061 -0.498,0.334"
             style="fill:#000000;fill-opacity:1;fill-rule:nonzero;stroke:none"
             id="path670"
             inkscape:connector-curvature="0" /></g><g
           id="g672"><path
             d="m 448.072,67.906 -0.075,-0.344 -0.005,-0.031 -0.048,-0.355 -0.003,-0.032 -0.019,-0.386 0,-0.033 0.016,-0.378 0.003,-0.033 0.048,-0.368 0.005,-0.033 0.079,-0.355 0.009,-0.032 0.109,-0.342 0.011,-0.031 0.137,-0.326 0.015,-0.03 0.163,-0.307 0.018,-0.03 0.188,-0.287 0.021,-0.028 0.212,-0.265 0.024,-0.027 0.234,-0.24 0.027,-0.025 0.255,-0.214 0.031,-0.023 0.274,-0.185 0.034,-0.021 0.292,-0.154 0.037,-0.017 0.308,-0.122 0.04,-0.014 0.323,-0.087 0.042,-0.009 0.335,-0.05 0.043,-0.004 0.339,-0.012 0.043,10e-4 0.333,0.026 0.042,0.006 0.325,0.064 0.04,0.01 0.315,0.098 0.037,0.014 0.304,0.131 0.034,0.018 0.29,0.163 0.032,0.02 0.274,0.193 0.029,0.022 0.256,0.221 0.026,0.024 0.238,0.247 0.023,0.026 0.217,0.272 0.02,0.028 0.194,0.294 0.017,0.029 0.169,0.316 0.015,0.03 0.143,0.335 0.011,0.031 0.115,0.353 0.009,0.032 0.084,0.368 0.006,0.033 0.053,0.383 0.003,0.029 0.017,0.287 0.001,0.025 -0.002,0.283 -0.001,0.025 -0.021,0.278 -0.002,0.025 -0.038,0.272 -0.743,-0.104 0.038,-0.272 -0.003,0.025 0.021,-0.278 -10e-4,0.024 0.002,-0.283 0,0.025 -0.017,-0.288 0.003,0.029 -0.053,-0.383 0.006,0.033 -0.084,-0.368 0.009,0.032 -0.115,-0.353 0.012,0.031 -0.143,-0.335 0.014,0.03 -0.169,-0.315 0.017,0.029 -0.194,-0.295 0.02,0.028 -0.217,-0.272 0.023,0.026 -0.237,-0.247 0.025,0.024 -0.256,-0.22 0.028,0.022 -0.274,-0.193 0.032,0.02 -0.29,-0.163 0.035,0.017 -0.303,-0.131 0.038,0.014 -0.315,-0.098 0.04,0.01 -0.325,-0.064 0.042,0.006 -0.333,-0.026 0.043,0 -0.34,0.012 0.043,-0.004 -0.336,0.051 0.042,-0.009 -0.322,0.087 0.04,-0.013 -0.308,0.122 0.038,-0.017 -0.292,0.154 0.035,-0.02 -0.274,0.184 0.031,-0.023 -0.255,0.214 0.028,-0.026 -0.234,0.24 0.024,-0.027 -0.212,0.264 0.021,-0.029 -0.189,0.287 0.018,-0.03 -0.163,0.307 0.014,-0.031 -0.136,0.325 0.011,-0.032 -0.108,0.342 0.009,-0.032 -0.079,0.355 0.005,-0.033 -0.048,0.368 0.003,-0.033 -0.015,0.377 0,-0.033 0.018,0.386 -0.003,-0.032 0.048,0.355 -0.006,-0.03 0.076,0.344 -0.733,0.161"
             style="fill:#000000;fill-opacity:1;fill-rule:nonzero;stroke:none"
             id="path674"
             inkscape:connector-curvature="0" /></g><g
           id="g676"><path
             d="m 575.342,80.965 61.365,0.107 -10e-4,0.6 -61.365,-0.107 10e-4,-0.6"
             style="fill:#000000;fill-opacity:1;fill-rule:nonzero;stroke:none"
             id="path678"
             inkscape:connector-curvature="0" /></g><g
           id="g680"><path
             d="m 438.997,15.189 172.623,0 0,0.6 -172.623,0 0,-0.6 z"
             style="fill:#000000;fill-opacity:1;fill-rule:nonzero;stroke:none"
             id="path682"
             inkscape:connector-curvature="0" /></g><g
           id="g684"><path
             d="m 438.75,14.714 -12.605,13.246 0.543,0.517 12.606,-13.246 -0.544,-0.517 z m 1.087,1.034 -12.606,13.246 0.544,0.517 12.605,-13.246 -0.543,-0.517 z m 0.543,0.517 -1.63,-1.551 1.63,1.551 z m -14.235,11.695 1.63,1.551 -1.63,-1.551"
             style="fill:#000000;fill-opacity:1;fill-rule:nonzero;stroke:none"
             id="path686"
             inkscape:connector-curvature="0" /></g><text
           transform="translate(458.046,14)"
           style="font-variant:normal;font-weight:normal;font-stretch:normal;font-size:9.94999981px;font-family:Euphemia;-inkscape-font-specification:EuphemiaCAS;writing-mode:lr-tb;fill:#000000;fill-opacity:1;fill-rule:nonzero;stroke:none"
           id="text688"><tspan
             x="0 6.0999999 8.5 13.35 19.4 25.1 30.15 36"
             y="0"
             sodipodi:role="line"
             id="tspan690">Bison 70</tspan></text>
<g
           id="g692"><path
             d="m 643.7,71.742 -32.34,-56.103 0.52,-0.3 32.34,56.104 -0.52,0.299"
             style="fill:#000000;fill-opacity:1;fill-rule:nonzero;stroke:none"
             id="path694"
             inkscape:connector-curvature="0" /></g><g
           id="g696"><path
             d="m 643.552,71.539 -7.087,9.656 0.484,0.355 7.087,-9.655 -0.484,-0.356"
             style="fill:#000000;fill-opacity:1;fill-rule:nonzero;stroke:none"
             id="path698"
             inkscape:connector-curvature="0" /></g><g
           id="g700"><path
             d="m 643.794,70.934 531.177,0.483 -10e-4,0.6 -531.176,-0.483 0,-0.6"
             style="fill:#000000;fill-opacity:1;fill-rule:nonzero;stroke:none"
             id="path702"
             inkscape:connector-curvature="0" /></g><text
           transform="translate(663.15,69.95)"
           style="font-variant:normal;font-weight:normal;font-stretch:normal;font-size:9.94999981px;font-family:Euphemia;-inkscape-font-specification:EuphemiaCAS;writing-mode:lr-tb;fill:#000000;fill-opacity:1;fill-rule:nonzero;stroke:none"
           id="text704"><tspan
             x="0 6.6500001 12.35 14.85 20.549999 26.1 29.75 33.150002 38.200001 41.349998 47.200001 53.049999 58.900002 64.75"
             y="0"
             sodipodi:role="line"
             id="tspan706">Culbert (1978)</tspan></text>
<g
           id="g708"><path
             d="m 925.732,93.238 72.189,0.001 0,0.6 -72.189,-0.001 0,-0.6"
             style="fill:#000000;fill-opacity:1;fill-rule:nonzero;stroke:none"
             id="path710"
             inkscape:connector-curvature="0" /></g><text
           transform="translate(954.991,91.835)"
           style="font-variant:normal;font-weight:normal;font-stretch:normal;font-size:9.94999981px;font-family:Euphemia;-inkscape-font-specification:EuphemiaCAS;writing-mode:lr-tb;fill:#000000;fill-opacity:1;fill-rule:nonzero;stroke:none"
           id="text712"><tspan
             x="0 5.8499999 11.7 17.549999"
             y="0"
             sodipodi:role="line"
             id="tspan714">5088</tspan></text>
<g
           id="g716"><path
             d="m 925.385,93.737 -1.196,-1.345 0.448,-0.399 1.196,1.346 -0.448,0.398 z m -1.595,-1.793 -1.196,-1.346 0.449,-0.398 1.196,1.345 -0.449,0.399 z M 922.196,90.15 921,88.805 l 0.448,-0.399 1.196,1.345 -0.448,0.399 z m -1.595,-1.794 -1.196,-1.345 0.449,-0.399 1.196,1.346 -0.449,0.398 z m -1.594,-1.793 -1.196,-1.346 0.448,-0.398 1.196,1.345 -0.448,0.399 z m -1.595,-1.794 -1.196,-1.345 0.448,-0.399 1.196,1.345 -0.448,0.399 z m -1.595,-1.794 -0.282,-0.317 0.448,-0.399 0.283,0.318 -0.449,0.398"
             style="fill:#000000;fill-opacity:1;fill-rule:nonzero;stroke:none"
             id="path718"
             inkscape:connector-curvature="0" /></g><g
           id="g720"><path
             d="m 854.404,82.158 61.142,0 0,0.6 -61.142,0 0,-0.6 z"
             style="fill:#000000;fill-opacity:1;fill-rule:nonzero;stroke:none"
             id="path722"
             inkscape:connector-curvature="0" /></g><text
           transform="translate(865.094,80.339)"
           style="font-variant:normal;font-weight:normal;font-stretch:normal;font-size:9.94999981px;font-family:Euphemia;-inkscape-font-specification:EuphemiaCAS;writing-mode:lr-tb;fill:#000000;fill-opacity:1;fill-rule:nonzero;stroke:#000000;stroke-width:0.28457001;stroke-linecap:square;stroke-linejoin:bevel;stroke-miterlimit:2;stroke-dasharray:none;stroke-opacity:1"
           id="text724"><tspan
             x="0 6.6999998 9.0500002 14.95 20.85 26.75"
             y="0"
             sodipodi:role="line"
             id="tspan726">CI2928</tspan></text>
<g
           id="g728"><path
             d="m 1011.74,81.825 63.947,0.333 0,0.6 -63.947,-0.333 0,-0.6"
             style="fill:#000000;fill-opacity:1;fill-rule:nonzero;stroke:none"
             id="path730"
             inkscape:connector-curvature="0" /></g><text
           transform="translate(1022.334,81.12)"
           style="font-variant:normal;font-weight:normal;font-stretch:normal;font-size:9.94999981px;font-family:Euphemia;-inkscape-font-specification:EuphemiaCAS;writing-mode:lr-tb;fill:#000000;fill-opacity:1;fill-rule:nonzero;stroke:none"
           id="text732"><tspan
             x="0 7.75 13.6 19.450001"
             y="0"
             sodipodi:role="line"
             id="tspan734">M022</tspan></text>
<g
           id="g736"><path
             d="m 1012.187,82.454 -14.175,-10.631 0.36,-0.48 14.175,10.631 -0.36,0.48"
             style="fill:#000000;fill-opacity:1;fill-rule:nonzero;stroke:none"
             id="path738"
             inkscape:connector-curvature="0" /></g><g
           id="g740"><path
             d="m 1012.196,81.974 -14.175,10.631 0.36,0.48 14.175,-10.631 -0.36,-0.48"
             style="fill:#000000;fill-opacity:1;fill-rule:nonzero;stroke:none"
             id="path742"
             inkscape:connector-curvature="0" /></g><g
           id="g744"><path
             d="M 1144.394,221.985 1073.8,81.403 l 0.536,-0.269 70.595,140.581 -0.537,0.27"
             style="fill:#000000;fill-opacity:1;fill-rule:nonzero;stroke:none"
             id="path746"
             inkscape:connector-curvature="0" /></g><g
           id="g748"><path
             d="m 1130.272,202.535 -0.075,-0.344 -0.01,-0.031 -0.048,-0.355 0,-0.032 -0.019,-0.386 0,-0.033 0.015,-0.378 0,-0.033 0.048,-0.367 0.01,-0.033 0.079,-0.356 0.01,-0.032 0.108,-0.341 0.012,-0.032 0.137,-0.325 0.014,-0.031 0.163,-0.307 0.018,-0.03 0.188,-0.286 0.021,-0.029 0.212,-0.264 0.024,-0.028 0.234,-0.239 0.028,-0.026 0.255,-0.213 0.031,-0.024 0.273,-0.185 0.035,-0.02 0.291,-0.155 0.038,-0.017 0.308,-0.122 0.04,-0.013 0.322,-0.087 0.042,-0.009 0.336,-0.051 0.043,-0.004 0.339,-0.012 0.043,0.001 0.333,0.027 0.042,0.006 0.325,0.063 0.04,0.01 0.315,0.098 0.037,0.014 0.303,0.132 0.035,0.017 0.29,0.163 0.031,0.02 0.274,0.193 0.029,0.022 0.257,0.221 0.026,0.025 0.237,0.247 0.023,0.026 0.217,0.271 0.02,0.028 0.194,0.295 0.017,0.029 0.17,0.315 0.014,0.03 0.143,0.335 0.012,0.031 0.115,0.353 0.01,0.032 0.085,0.369 0.01,0.032 0.053,0.383 0,0.029 0.018,0.288 0,0.024 0,0.284 -10e-4,0.025 -0.02,0.278 0,0.024 -0.038,0.273 -0.742,-0.104 0.038,-0.272 0,0.024 0.02,-0.278 -10e-4,0.025 0,-0.284 10e-4,0.025 -0.017,-0.288 0,0.029 -0.053,-0.382 0.01,0.032 -0.084,-0.368 0.01,0.032 -0.114,-0.353 0.011,0.032 -0.143,-0.335 0.015,0.03 -0.169,-0.316 0.017,0.029 -0.194,-0.294 0.02,0.027 -0.217,-0.271 0.023,0.026 -0.238,-0.248 0.026,0.025 -0.257,-0.221 0.029,0.022 -0.274,-0.192 0.032,0.02 -0.29,-0.163 0.035,0.017 -0.303,-0.132 0.037,0.014 -0.315,-0.098 0.04,0.01 -0.325,-0.063 0.042,0.005 -0.333,-0.026 0.043,0.001 -0.339,0.012 0.043,-0.004 -0.336,0.05 0.042,-0.008 -0.322,0.087 0.04,-0.014 -0.308,0.122 0.037,-0.017 -0.291,0.155 0.034,-0.021 -0.274,0.185 0.031,-0.023 -0.254,0.213 0.027,-0.026 -0.234,0.24 0.024,-0.027 -0.212,0.264 0.021,-0.028 -0.188,0.286 0.018,-0.03 -0.164,0.307 0.015,-0.031 -0.137,0.325 0.012,-0.031 -0.109,0.341 0.01,-0.032 -0.079,0.355 0.01,-0.032 -0.048,0.367 0,-0.033 -0.016,0.378 0,-0.034 0.019,0.386 0,-0.032 0.047,0.356 0,-0.031 0.076,0.344 -0.733,0.161"
             style="fill:#000000;fill-opacity:1;fill-rule:nonzero;stroke:none"
             id="path750"
             inkscape:connector-curvature="0" /></g><g
           id="g752"><path
             d="m 1137.464,202.056 56.57,0 0,0.6 -56.57,0 0,-0.6 z"
             style="fill:#000000;fill-opacity:1;fill-rule:nonzero;stroke:none"
             id="path754"
             inkscape:connector-curvature="0" /></g><g
           id="g756"><path
             d="m 1144.418,221.677 -10.522,14.848 0.489,0.347 10.522,-14.849 -0.489,-0.346"
             style="fill:#000000;fill-opacity:1;fill-rule:nonzero;stroke:none"
             id="path758"
             inkscape:connector-curvature="0" /></g><text
           transform="translate(485,277.05)"
           style="font-variant:normal;font-weight:normal;font-stretch:normal;font-size:9.94999981px;font-family:Euphemia;-inkscape-font-specification:EuphemiaCAS;writing-mode:lr-tb;fill:#000000;fill-opacity:1;fill-rule:nonzero;stroke:none"
           id="text760"><tspan
             x="0 5.9000001 11.95 17.200001 22.200001 27.75 31.15 36.200001 39.349998 45.200001 51.049999 56.900002 62.75"
             y="0"
             sodipodi:role="line"
             id="tspan762">Rocket (1947)</tspan></text>
<g
           id="g764"><path
             d="m 435.088,278.207 206.581,0.506 -0.002,0.6 -206.581,-0.506 0.002,-0.6"
             style="fill:#000000;fill-opacity:1;fill-rule:nonzero;stroke:none"
             id="path766"
             inkscape:connector-curvature="0" /></g><g
           id="g768"><path
             d="m 350.738,289.728 76.005,0 0,0.6 -76.005,0 0,-0.6 z"
             style="fill:#000000;fill-opacity:1;fill-rule:nonzero;stroke:none"
             id="path770"
             inkscape:connector-curvature="0" /></g><text
           transform="translate(363.554,287.032)"
           style="font-variant:normal;font-weight:normal;font-stretch:normal;font-size:9.94999981px;font-family:Euphemia;-inkscape-font-specification:EuphemiaCAS;writing-mode:lr-tb;fill:#000000;fill-opacity:1;fill-rule:nonzero;stroke:#000000;stroke-width:0.28457001;stroke-linecap:square;stroke-linejoin:bevel;stroke-miterlimit:2;stroke-dasharray:none;stroke-opacity:1"
           id="text772"><tspan
             x="0 6.3000002 10 15.6 21.200001 26.950001 30.4 32.849998 38.599998 44.200001 49.299999 55.200001"
             y="0"
             sodipodi:role="line"
             id="tspan774">Argentine 8C</tspan></text>
<g
           id="g776"><path
             d="m 440.738,299.947 -14.175,10.631 0.36,0.48 14.175,-10.631 -0.36,-0.48"
             style="fill:#000000;fill-opacity:1;fill-rule:nonzero;stroke:none"
             id="path778"
             inkscape:connector-curvature="0" /></g><g
           id="g780"><path
             d="m 360.317,310.518 66.425,0 0,0.6 -66.425,0 0,-0.6 z"
             style="fill:#000000;fill-opacity:1;fill-rule:nonzero;stroke:none"
             id="path782"
             inkscape:connector-curvature="0" /></g><text
           transform="translate(357.96,308.257)"
           style="font-variant:normal;font-weight:normal;font-stretch:normal;font-size:9.94999981px;font-family:Euphemia;-inkscape-font-specification:EuphemiaCAS;writing-mode:lr-tb;fill:#000000;fill-opacity:1;fill-rule:nonzero;stroke:#000000;stroke-width:0.28457001;stroke-linecap:square;stroke-linejoin:bevel;stroke-miterlimit:2;stroke-dasharray:none;stroke-opacity:1"
           id="text784"><tspan
             x="0 8.1000004 11.55 15 20.75 27.5 33.25 38.349998 44.25 50.150002 56.049999 62.200001"
             y="0"
             sodipodi:role="line"
             id="tspan786">Ottawa 770B </tspan></text>
<text
           transform="translate(357.96,320.257)"
           style="font-variant:normal;font-weight:normal;font-stretch:normal;font-size:9.94999981px;font-family:Euphemia;-inkscape-font-specification:EuphemiaCAS;writing-mode:lr-tb;fill:#000000;fill-opacity:1;fill-rule:nonzero;stroke:#000000;stroke-width:0.28457001;stroke-linecap:square;stroke-linejoin:bevel;stroke-miterlimit:2;stroke-dasharray:none;stroke-opacity:1"
           id="text788"><tspan
             x="0 3.2 9.1000004 15 20.9 26.799999"
             y="0"
             sodipodi:role="line"
             id="tspan790">(1910)</tspan></text>
<g
           id="g792"><path
             d="m 440.395,300.428 -13.83,-10.158 0.355,-0.484 13.83,10.159 -0.355,0.483"
             style="fill:#000000;fill-opacity:1;fill-rule:nonzero;stroke:none"
             id="path794"
             inkscape:connector-curvature="0" /></g><g
           id="g796"><path
             d="m 434.839,277.939 -8.127,11.92 0.496,0.338 8.127,-11.92 -0.496,-0.338"
             style="fill:#000000;fill-opacity:1;fill-rule:nonzero;stroke:none"
             id="path798"
             inkscape:connector-curvature="0" /></g><g
           id="g800"><path
             d="m 434.807,278.63 -9.352,-24.47 0.56,-0.214 9.352,24.47 -0.56,0.214"
             style="fill:#000000;fill-opacity:1;fill-rule:nonzero;stroke:none"
             id="path802"
             inkscape:connector-curvature="0" /></g><g
           id="g804"><path
             d="m 213.026,54.624 212.141,-0.222 0,-0.6 -212.142,0.222 0.001,0.6"
             style="fill:#000000;fill-opacity:1;fill-rule:nonzero;stroke:none"
             id="path806"
             inkscape:connector-curvature="0" /></g><g
           id="g808"><path
             d="m 454.654,68.166 112.334,-0.55 -0.003,-0.6 -112.333,0.55 0.002,0.6"
             style="fill:#000000;fill-opacity:1;fill-rule:nonzero;stroke:none"
             id="path810"
             inkscape:connector-curvature="0" /></g><g
           id="g812"><path
             d="m 390.2,194.434 53.822,-0.28 -0.003,-0.6 -53.822,0.28 0.003,0.6"
             style="fill:#000000;fill-opacity:1;fill-rule:nonzero;stroke:none"
             id="path814"
             inkscape:connector-curvature="0" /></g><g
           id="g816"><path
             d="m 449.994,193.313 220.059,0.76 -0.002,0.6 -220.059,-0.76 0.002,-0.6"
             style="fill:#000000;fill-opacity:1;fill-rule:nonzero;stroke:none"
             id="path818"
             inkscape:connector-curvature="0" /></g></g></g></g></svg>