<?xml version="1.0" encoding="UTF-8" standalone="no"?>
<!-- Created with Inkscape (http://www.inkscape.org/) -->

<svg
   xmlns:dc="http://purl.org/dc/elements/1.1/"
   xmlns:cc="http://creativecommons.org/ns#"
   xmlns:rdf="http://www.w3.org/1999/02/22-rdf-syntax-ns#"
   xmlns:svg="http://www.w3.org/2000/svg"
   xmlns="http://www.w3.org/2000/svg"
   xmlns:sodipodi="http://sodipodi.sourceforge.net/DTD/sodipodi-0.dtd"
   xmlns:inkscape="http://www.inkscape.org/namespaces/inkscape"
   id="svg2"
   version="1.1"
   inkscape:version="0.91 r13725"
   xml:space="preserve"
   width="943.75"
   height="164.6875"
   viewBox="0 0 943.75 164.6875"
   sodipodi:docname="LinolaTM 989.svg"><metadata
     id="metadata8"><rdf:RDF><cc:Work
         rdf:about=""><dc:format>image/svg+xml</dc:format><dc:type
           rdf:resource="http://purl.org/dc/dcmitype/StillImage" /><dc:title></dc:title></cc:Work></rdf:RDF></metadata><defs
     id="defs6"><clipPath
       clipPathUnits="userSpaceOnUse"
       id="clipPath16"><path
         d="m 0,0 755,0 0,131.75 -755,0 L 0,0 Z"
         id="path18"
         inkscape:connector-curvature="0"
         style="clip-rule:evenodd" /></clipPath></defs><sodipodi:namedview
     pagecolor="#ffffff"
     bordercolor="#666666"
     borderopacity="1"
     objecttolerance="10"
     gridtolerance="10"
     guidetolerance="10"
     inkscape:pageopacity="0"
     inkscape:pageshadow="2"
     inkscape:window-width="640"
     inkscape:window-height="480"
     id="namedview4"
     showgrid="false"
     inkscape:zoom="0.34860927"
     inkscape:cx="471.875"
     inkscape:cy="82.34375"
     inkscape:window-x="0"
     inkscape:window-y="0"
     inkscape:window-maximized="0"
     inkscape:current-layer="g10" /><g
     id="g10"
     inkscape:groupmode="layer"
     inkscape:label="LinolaTM 989"
     transform="scale(1.25,1.25)"><g
       id="g12"><g
         id="g14"
         clip-path="url(#clipPath16)"><g
           id="g20"><path
             d="m 0,0 755,0 0,131.75 -755,0 L 0,0 Z"
             style="fill:#ffffff;fill-opacity:1;fill-rule:evenodd;stroke:none"
             id="path22"
             inkscape:connector-curvature="0" /></g><text
           transform="translate(631.561,59.023)"
           style="font-variant:normal;font-weight:normal;font-stretch:normal;font-size:9.94999981px;font-family:Euphemia;-inkscape-font-specification:EuphemiaCAS;writing-mode:lr-tb;fill:#000000;fill-opacity:1;fill-rule:nonzero;stroke:#000000;stroke-width:0.28457001;stroke-linecap:square;stroke-linejoin:bevel;stroke-miterlimit:2;stroke-dasharray:none;stroke-opacity:1"
           id="text24"><tspan
             x="0 5.1999998 7.6500001 13.4 19.5 22.049999"
             y="0"
             sodipodi:role="line"
             id="tspan26">Linola</tspan></text>
<text
           transform="translate(659.361,56.523)"
           style="font-variant:normal;font-weight:normal;font-stretch:normal;font-size:6.5px;font-family:Euphemia;-inkscape-font-specification:EuphemiaCAS;writing-mode:lr-tb;fill:#000000;fill-opacity:1;fill-rule:nonzero;stroke:#000000;stroke-width:0.1859;stroke-linecap:square;stroke-linejoin:bevel;stroke-miterlimit:2;stroke-dasharray:none;stroke-opacity:1"
           id="text28"><tspan
             x="0 3.9000001"
             y="0"
             sodipodi:role="line"
             id="tspan30">TM</tspan></text>
<text
           transform="translate(673.461,59.023)"
           style="font-variant:normal;font-weight:normal;font-stretch:normal;font-size:9.94999981px;font-family:Euphemia;-inkscape-font-specification:EuphemiaCAS;writing-mode:lr-tb;fill:#000000;fill-opacity:1;fill-rule:nonzero;stroke:#000000;stroke-width:0.28457001;stroke-linecap:square;stroke-linejoin:bevel;stroke-miterlimit:2;stroke-dasharray:none;stroke-opacity:1"
           id="text32"><tspan
             x="0 5.9000001 11.8 17.700001 22.799999 26 31.9 37.799999 43.700001 49.599998"
             y="0"
             sodipodi:role="line"
             id="tspan34">989 (1995)</tspan></text>
<g
           id="g36"><path
             d="m 574.24,50.1 36.012,10e-4 0,0.6 -36.012,-10e-4 0,-0.6"
             style="fill:#000000;fill-opacity:1;fill-rule:nonzero;stroke:none"
             id="path38"
             inkscape:connector-curvature="0" /></g><g
           id="g40"><path
             d="m 574.06,50.72 -14.175,-10.632 0.36,-0.48 14.175,10.632 -0.36,0.48"
             style="fill:#000000;fill-opacity:1;fill-rule:nonzero;stroke:none"
             id="path42"
             inkscape:connector-curvature="0" /></g><g
           id="g44"><path
             d="m 574.059,50.239 -14.175,10.632 0.361,0.48 14.174,-10.632 -0.36,-0.48"
             style="fill:#000000;fill-opacity:1;fill-rule:nonzero;stroke:none"
             id="path46"
             inkscape:connector-curvature="0" /></g><text
           transform="translate(415.95,69.4)"
           style="font-variant:normal;font-weight:normal;font-stretch:normal;font-size:9.94999981px;font-family:Euphemia;-inkscape-font-specification:EuphemiaCAS;writing-mode:lr-tb;fill:#000000;fill-opacity:1;fill-rule:nonzero;stroke:none"
           id="text48"><tspan
             x="0 7.75 13 19.65 23.299999 28.85 34.400002 40.450001 44.099998 49.150002 52.299999 58.150002 64 69.849998 75.699997"
             y="0"
             sodipodi:role="line"
             id="tspan50">McGregor (1981)</tspan></text>
<text
           transform="translate(516.2,36.75)"
           style="font-variant:normal;font-weight:normal;font-stretch:normal;font-size:9.94999981px;font-family:Euphemia;-inkscape-font-specification:EuphemiaCAS;writing-mode:lr-tb;fill:#000000;fill-opacity:1;fill-rule:nonzero;stroke:#000000;stroke-width:0.28457001;stroke-linecap:square;stroke-linejoin:bevel;stroke-miterlimit:2;stroke-dasharray:none;stroke-opacity:1"
           id="text52"><tspan
             x="0 6.6999998 12.4 14.75 20.65 26.549999 32.450001 38.349998"
             y="0"
             sodipodi:role="line"
             id="tspan54">CPI84495</tspan></text>
<text
           transform="translate(445.558,49.47)"
           style="font-variant:normal;font-weight:normal;font-stretch:normal;font-size:9.94999981px;font-family:Euphemia;-inkscape-font-specification:EuphemiaCAS;writing-mode:lr-tb;fill:#000000;fill-opacity:1;fill-rule:nonzero;stroke:none"
           id="text56"><tspan
             x="0 5.4000001 10.95 14.6"
             y="0"
             sodipodi:role="line"
             id="tspan58">Zero</tspan></text>
<g
           id="g60"><path
             d="m 509.006,60.603 51.06,0.209 -0.003,0.6 -51.059,-0.209 0.002,-0.6"
             style="fill:#000000;fill-opacity:1;fill-rule:nonzero;stroke:none"
             id="path62"
             inkscape:connector-curvature="0" /></g><g
           id="g64"><path
             d="m 511.089,39.377 48.975,0 0,0.6 -48.975,0 0,-0.6 z"
             style="fill:#000000;fill-opacity:1;fill-rule:nonzero;stroke:none"
             id="path66"
             inkscape:connector-curvature="0" /></g><g
           id="g68"><path
             d="m 431.471,49.972 64.231,10e-4 0,0.6 -64.231,-10e-4 0,-0.6"
             style="fill:#000000;fill-opacity:1;fill-rule:nonzero;stroke:none"
             id="path70"
             inkscape:connector-curvature="0" /></g><g
           id="g72"><path
             d="m 408.037,71.232 202.215,0.529 -10e-4,0.6 -202.215,-0.529 10e-4,-0.6"
             style="fill:#000000;fill-opacity:1;fill-rule:nonzero;stroke:none"
             id="path74"
             inkscape:connector-curvature="0" /></g><g
           id="g76"><path
             d="m 509.085,61.143 -14.175,-10.631 0.36,-0.48 14.175,10.631 -0.36,0.48"
             style="fill:#000000;fill-opacity:1;fill-rule:nonzero;stroke:none"
             id="path78"
             inkscape:connector-curvature="0" /></g><g
           id="g80"><path
             d="m 509.01,60.559 -14.174,10.631 0.359,0.48 14.175,-10.631 -0.36,-0.48"
             style="fill:#000000;fill-opacity:1;fill-rule:nonzero;stroke:none"
             id="path82"
             inkscape:connector-curvature="0" /></g><text
           transform="translate(279.9,49.3)"
           style="font-variant:normal;font-weight:normal;font-stretch:normal;font-size:9.94999981px;font-family:Euphemia;-inkscape-font-specification:EuphemiaCAS;writing-mode:lr-tb;fill:#000000;fill-opacity:1;fill-rule:nonzero;stroke:none"
           id="text84"><tspan
             x="0 5.9000001 11.45 17.4 24.1 30.15 36.200001 42.150002 47.200001 53.049999 58.900002 63.950001 67.099998 72.949997 78.800003 84.650002 90.5"
             y="0"
             sodipodi:role="line"
             id="tspan86">Redwood 65 (1965)</tspan></text>
<text
           transform="translate(119.1,80.25)"
           style="font-variant:normal;font-weight:normal;font-stretch:normal;font-size:9.94999981px;font-family:Euphemia;-inkscape-font-specification:EuphemiaCAS;writing-mode:lr-tb;fill:#000000;fill-opacity:1;fill-rule:nonzero;stroke:none"
           id="text88"><tspan
             x="0 5.9000001 11.95 17.200001 22.200001 27.75 31.15 36.200001 39.349998 45.200001 51.049999 56.900002 62.75"
             y="0"
             sodipodi:role="line"
             id="tspan90">Rocket (1947)</tspan></text>
<text
           transform="translate(124.861,111.822)"
           style="font-variant:normal;font-weight:normal;font-stretch:normal;font-size:9.94999981px;font-family:Euphemia;-inkscape-font-specification:EuphemiaCAS;writing-mode:lr-tb;fill:#000000;fill-opacity:1;fill-rule:nonzero;stroke:none"
           id="text92"><tspan
             x="0 5.9000001 11.6 13.9 19.6 24.65 27.799999 33.650002 39.5 45.349998 51.200001"
             y="0"
             sodipodi:role="line"
             id="tspan94">Raja (1953)</tspan></text>
<g
           id="g96"><path
             d="m 270.869,50.572 120.234,-0.075 0,-0.6 -120.235,0.075 0.001,0.6"
             style="fill:#000000;fill-opacity:1;fill-rule:nonzero;stroke:none"
             id="path98"
             inkscape:connector-curvature="0" /></g><g
           id="g100"><path
             d="m 204.638,98.106 186.465,-0.166 0,-0.6 -186.465,0.166 0,0.6"
             style="fill:#000000;fill-opacity:1;fill-rule:nonzero;stroke:none"
             id="path102"
             inkscape:connector-curvature="0" /></g><g
           id="g104"><path
             d="m 103.312,116.747 86.794,0.001 0,0.6 -86.794,-0.001 0,-0.6"
             style="fill:#000000;fill-opacity:1;fill-rule:nonzero;stroke:none"
             id="path106"
             inkscape:connector-curvature="0" /></g><g
           id="g108"><path
             d="m 102.384,81.156 86.794,10e-4 0,0.6 -86.794,-0.001 0,-0.6"
             style="fill:#000000;fill-opacity:1;fill-rule:nonzero;stroke:none"
             id="path110"
             inkscape:connector-curvature="0" /></g><g
           id="g112"><path
             d="m 204.068,97.021 -15.311,-15.351 0.425,-0.423 15.311,15.35 -0.425,0.424"
             style="fill:#000000;fill-opacity:1;fill-rule:nonzero;stroke:none"
             id="path114"
             inkscape:connector-curvature="0" /></g><g
           id="g116"><path
             d="m 204.401,97.622 -14.993,19.241 0.474,0.369 14.993,-19.241 -0.474,-0.369"
             style="fill:#000000;fill-opacity:1;fill-rule:nonzero;stroke:none"
             id="path118"
             inkscape:connector-curvature="0" /></g><g
           id="g120"><path
             d="m 1.416,70.423 86.793,0.002 0,0.6 -86.793,-0.002 0,-0.6"
             style="fill:#000000;fill-opacity:1;fill-rule:nonzero;stroke:none"
             id="path122"
             inkscape:connector-curvature="0" /></g><text
           transform="translate(34.429,48.084)"
           style="font-variant:normal;font-weight:normal;font-stretch:normal;font-size:9.94999981px;font-family:Euphemia;-inkscape-font-specification:EuphemiaCAS;writing-mode:lr-tb;fill:#000000;fill-opacity:1;fill-rule:nonzero;stroke:#000000;stroke-width:0.28457001;stroke-linecap:square;stroke-linejoin:bevel;stroke-miterlimit:2;stroke-dasharray:none;stroke-opacity:1"
           id="text124"><tspan
             x="0 6.1500001 8.6000004 13.5 19.6"
             y="0"
             sodipodi:role="line"
             id="tspan126">Bison</tspan></text>
<text
           transform="translate(207.186,39.823)"
           style="font-variant:normal;font-weight:normal;font-stretch:normal;font-size:9.94999981px;font-family:Euphemia;-inkscape-font-specification:EuphemiaCAS;writing-mode:lr-tb;fill:#000000;fill-opacity:1;fill-rule:nonzero;stroke:none"
           id="text128"><tspan
             x="0 5.9000001 11.45 17.4 24.1 30.15 36.200001"
             y="0"
             sodipodi:role="line"
             id="tspan130">Redwood</tspan></text>
<g
           id="g132"><path
             d="m 204.638,40.833 53.881,0.075 -0.001,0.6 -53.88,-0.075 0,-0.6"
             style="fill:#000000;fill-opacity:1;fill-rule:nonzero;stroke:none"
             id="path134"
             inkscape:connector-curvature="0" /></g><g
           id="g136"><path
             d="m 102.885,59.827 86.794,0.001 0,0.6 -86.794,-10e-4 0,-0.6"
             style="fill:#000000;fill-opacity:1;fill-rule:nonzero;stroke:none"
             id="path138"
             inkscape:connector-curvature="0" /></g><g
           id="g140"><path
             d="m 101.226,25.081 86.794,0.001 0,0.6 -86.794,-10e-4 0,-0.6"
             style="fill:#000000;fill-opacity:1;fill-rule:nonzero;stroke:none"
             id="path142"
             inkscape:connector-curvature="0" /></g><text
           transform="translate(132.621,59.015)"
           style="font-variant:normal;font-weight:normal;font-stretch:normal;font-size:9.94999981px;font-family:Euphemia;-inkscape-font-specification:EuphemiaCAS;writing-mode:lr-tb;fill:#000000;fill-opacity:1;fill-rule:nonzero;stroke:none"
           id="text144"><tspan
             x="0 5.9000001 11.45 17.4 22.25 28.299999"
             y="0"
             sodipodi:role="line"
             id="tspan146">Redson</tspan></text>
<text
           transform="translate(131.972,23.604)"
           style="font-variant:normal;font-weight:normal;font-stretch:normal;font-size:9.94999981px;font-family:Euphemia;-inkscape-font-specification:EuphemiaCAS;writing-mode:lr-tb;fill:#000000;fill-opacity:1;fill-rule:nonzero;stroke:none"
           id="text148"><tspan
             x="0 6.0999999 9.75 15.6 21.450001 27.299999"
             y="0"
             sodipodi:role="line"
             id="tspan150">B-5128</tspan></text>
<g
           id="g152"><path
             d="m 1.72,49.185 86.793,10e-4 0,0.6 -86.793,-0.001 0,-0.6"
             style="fill:#000000;fill-opacity:1;fill-rule:nonzero;stroke:none"
             id="path154"
             inkscape:connector-curvature="0" /></g><text
           transform="translate(29.32,69.607)"
           style="font-variant:normal;font-weight:normal;font-stretch:normal;font-size:9.94999981px;font-family:Euphemia;-inkscape-font-specification:EuphemiaCAS;writing-mode:lr-tb;fill:#000000;fill-opacity:1;fill-rule:nonzero;stroke:#000000;stroke-width:0.28457001;stroke-linecap:square;stroke-linejoin:bevel;stroke-miterlimit:2;stroke-dasharray:none;stroke-opacity:1"
           id="text156"><tspan
             x="0 5.9499998 11.55 17.549999 24.299999 26.75 32.5"
             y="0"
             sodipodi:role="line"
             id="tspan158">Redwing</tspan></text>
<g
           id="g160"><path
             d="m 271.794,53.039 -14.175,-10.631 0.6,-0.8 14.175,10.631 -0.6,0.8 z m 1.2,-1.6 -14.175,-10.631 0.6,-0.8 14.175,10.631 -0.6,0.8 z m 0.6,-0.8 -1.8,2.4 1.8,-2.4 z m -15.975,-8.231 1.8,-2.4 -1.8,2.4"
             style="fill:#000000;fill-opacity:1;fill-rule:nonzero;stroke:none"
             id="path162"
             inkscape:connector-curvature="0" /></g><g
           id="g164"><path
             d="m 102.518,60.42 -14.175,-10.631 0.36,-0.48 14.175,10.631 -0.36,0.48"
             style="fill:#000000;fill-opacity:1;fill-rule:nonzero;stroke:none"
             id="path166"
             inkscape:connector-curvature="0" /></g><g
           id="g168"><path
             d="m 102.444,59.94 -14.175,10.631 0.36,0.48 14.175,-10.631 -0.36,-0.48"
             style="fill:#000000;fill-opacity:1;fill-rule:nonzero;stroke:none"
             id="path170"
             inkscape:connector-curvature="0" /></g><text
           transform="translate(387.183,36.767)"
           style="font-variant:normal;font-weight:normal;font-stretch:normal;font-size:9.94999981px;font-family:Euphemia;-inkscape-font-specification:EuphemiaCAS;writing-mode:lr-tb;fill:#000000;fill-opacity:1;fill-rule:nonzero;stroke:#000000;stroke-width:0.28457001;stroke-linecap:square;stroke-linejoin:bevel;stroke-miterlimit:2;stroke-dasharray:none;stroke-opacity:1"
           id="text172"><tspan
             x="0 6.6999998 9.25 14.85 20.6 26.200001 28.75"
             y="0"
             sodipodi:role="line"
             id="tspan174">Glenelg</tspan></text>
<g
           id="g176"><path
             d="m 433.663,51.679 -14.175,-10.631 0.6,-0.8 14.175,10.631 -0.6,0.8 z m 1.2,-1.6 -14.175,-10.631 0.6,-0.8 14.175,10.631 -0.6,0.8 z m 0.6,-0.8 -1.8,2.4 1.8,-2.4 z m -15.975,-8.231 1.8,-2.4 -1.8,2.4"
             style="fill:#000000;fill-opacity:1;fill-rule:nonzero;stroke:none"
             id="path178"
             inkscape:connector-curvature="0" /></g><g
           id="g180"><path
             d="m 1.177,91.699 86.793,0.001 0,0.6 -86.793,-10e-4 0,-0.6"
             style="fill:#000000;fill-opacity:1;fill-rule:nonzero;stroke:none"
             id="path182"
             inkscape:connector-curvature="0" /></g><text
           transform="translate(25.188,89.002)"
           style="font-variant:normal;font-weight:normal;font-stretch:normal;font-size:9.94999981px;font-family:Euphemia;-inkscape-font-specification:EuphemiaCAS;writing-mode:lr-tb;fill:#000000;fill-opacity:1;fill-rule:nonzero;stroke:#000000;stroke-width:0.28457001;stroke-linecap:square;stroke-linejoin:bevel;stroke-miterlimit:2;stroke-dasharray:none;stroke-opacity:1"
           id="text184"><tspan
             x="0 6.3000002 10 15.6 21.200001 26.950001 30.4 32.849998 38.599998 44.200001 49.299999 55.200001"
             y="0"
             sodipodi:role="line"
             id="tspan186">Argentine 8C</tspan></text>
<g
           id="g188"><path
             d="m 102.278,81.696 -14.175,-10.631 0.36,-0.48 14.175,10.631 -0.36,0.48"
             style="fill:#000000;fill-opacity:1;fill-rule:nonzero;stroke:none"
             id="path190"
             inkscape:connector-curvature="0" /></g><g
           id="g192"><path
             d="m 102.204,81.216 -14.175,10.631 0.36,0.48 14.175,-10.631 -0.36,-0.48"
             style="fill:#000000;fill-opacity:1;fill-rule:nonzero;stroke:none"
             id="path194"
             inkscape:connector-curvature="0" /></g><g
           id="g196"><path
             d="m 2.03,127.121 86.794,0.001 0,0.6 -86.794,-10e-4 0,-0.6"
             style="fill:#000000;fill-opacity:1;fill-rule:nonzero;stroke:none"
             id="path198"
             inkscape:connector-curvature="0" /></g><text
           transform="translate(35.043,104.781)"
           style="font-variant:normal;font-weight:normal;font-stretch:normal;font-size:9.94999981px;font-family:Euphemia;-inkscape-font-specification:EuphemiaCAS;writing-mode:lr-tb;fill:#000000;fill-opacity:1;fill-rule:nonzero;stroke:#000000;stroke-width:0.28457001;stroke-linecap:square;stroke-linejoin:bevel;stroke-miterlimit:2;stroke-dasharray:none;stroke-opacity:1"
           id="text200"><tspan
             x="0 5.25 7.3499999 16.1 18.200001"
             y="0"
             sodipodi:role="line"
             id="tspan202">J.W.S</tspan></text>
<text
           transform="translate(59.193,104.781)"
           style="font-variant:normal;font-weight:normal;font-stretch:normal;font-size:9.94999981px;font-family:Euphemia;-inkscape-font-specification:EuphemiaCAS;writing-mode:lr-tb;fill:#000000;fill-opacity:1;fill-rule:nonzero;stroke:none"
           id="text204"><tspan
             x="0"
             y="0"
             id="tspan206">.</tspan></text>
<g
           id="g208"><path
             d="m 2.334,105.882 86.794,10e-4 0,0.6 -86.794,-0.001 0,-0.6"
             style="fill:#000000;fill-opacity:1;fill-rule:nonzero;stroke:none"
             id="path210"
             inkscape:connector-curvature="0" /></g><text
           transform="translate(12.829,122.154)"
           style="font-variant:normal;font-weight:normal;font-stretch:normal;font-size:9.94999981px;font-family:Euphemia;-inkscape-font-specification:EuphemiaCAS;writing-mode:lr-tb;fill:#000000;fill-opacity:1;fill-rule:nonzero;stroke:#000000;stroke-width:0.28457001;stroke-linecap:square;stroke-linejoin:bevel;stroke-miterlimit:2;stroke-dasharray:none;stroke-opacity:1"
           id="text212"><tspan
             x="0 6.3000002 10 15.6 21.200001 26.950001 30.4 32.849998 38.599998 44.200001 49.299999 55.200001 61.099998 67"
             y="0"
             sodipodi:role="line"
             id="tspan214">Argentine 1025</tspan></text>
<g
           id="g216"><path
             d="m 103.132,117.117 -14.175,-10.631 0.36,-0.48 14.175,10.631 -0.36,0.48"
             style="fill:#000000;fill-opacity:1;fill-rule:nonzero;stroke:none"
             id="path218"
             inkscape:connector-curvature="0" /></g><g
           id="g220"><path
             d="m 103.058,116.638 -14.175,10.631 0.36,0.48 14.175,-10.631 -0.36,-0.48"
             style="fill:#000000;fill-opacity:1;fill-rule:nonzero;stroke:none"
             id="path222"
             inkscape:connector-curvature="0" /></g><g
           id="g224"><path
             d="m 100.716,25.62 -14.175,-10.631 0.36,-0.48 14.175,10.631 -0.36,0.48"
             style="fill:#000000;fill-opacity:1;fill-rule:nonzero;stroke:none"
             id="path226"
             inkscape:connector-curvature="0" /></g><g
           id="g228"><path
             d="m 100.726,25.14 -14.175,10.631 0.36,0.48 14.175,-10.631 -0.36,-0.48"
             style="fill:#000000;fill-opacity:1;fill-rule:nonzero;stroke:none"
             id="path230"
             inkscape:connector-curvature="0" /></g><g
           id="g232"><path
             d="m 0.115,14.449 86.794,10e-4 0,0.6 -86.794,-0.001 0,-0.6"
             style="fill:#000000;fill-opacity:1;fill-rule:nonzero;stroke:none"
             id="path234"
             inkscape:connector-curvature="0" /></g><g
           id="g236"><path
             d="m 0,35.71 86.794,10e-4 0,0.6 L 0,36.31 0,35.71"
             style="fill:#000000;fill-opacity:1;fill-rule:nonzero;stroke:none"
             id="path238"
             inkscape:connector-curvature="0" /></g><text
           transform="translate(37.531,14)"
           style="font-variant:normal;font-weight:normal;font-stretch:normal;font-size:9.94999981px;font-family:Euphemia;-inkscape-font-specification:EuphemiaCAS;writing-mode:lr-tb;fill:#000000;fill-opacity:1;fill-rule:nonzero;stroke:#000000;stroke-width:0.28457001;stroke-linecap:square;stroke-linejoin:bevel;stroke-miterlimit:2;stroke-dasharray:none;stroke-opacity:1"
           id="text240"><tspan
             x="0 5.9499998 8.3999996"
             y="0"
             sodipodi:role="line"
             id="tspan242">Rio</tspan></text>
<text
           transform="translate(28.087,29.687)"
           style="font-variant:normal;font-weight:normal;font-stretch:normal;font-size:9.94999981px;font-family:Euphemia;-inkscape-font-specification:EuphemiaCAS;writing-mode:lr-tb;fill:#000000;fill-opacity:1;fill-rule:nonzero;stroke:#000000;stroke-width:0.28457001;stroke-linecap:square;stroke-linejoin:bevel;stroke-miterlimit:2;stroke-dasharray:none;stroke-opacity:1"
           id="text244"><tspan
             x="0 6.6999998 12.8 15.35 21.35 26.950001"
             y="0"
             sodipodi:role="line"
             id="tspan246">Golden</tspan></text>
<g
           id="g248"><path
             d="m 203.265,40.348 -15.311,-15.351 0.425,-0.424 15.311,15.351 -0.425,0.424"
             style="fill:#000000;fill-opacity:1;fill-rule:nonzero;stroke:none"
             id="path250"
             inkscape:connector-curvature="0" /></g><g
           id="g252"><path
             d="m 203.598,40.949 -14.993,19.241 0.473,0.369 14.993,-19.242 -0.473,-0.368"
             style="fill:#000000;fill-opacity:1;fill-rule:nonzero;stroke:none"
             id="path254"
             inkscape:connector-curvature="0" /></g><g
           id="g256"><path
             d="m 408.51,71.942 -17.636,-20.833 0.458,-0.388 17.636,20.834 -0.458,0.387"
             style="fill:#000000;fill-opacity:1;fill-rule:nonzero;stroke:none"
             id="path258"
             inkscape:connector-curvature="0" /></g><g
           id="g260"><path
             d="m 408.332,71.746 -17.477,25.726 0.496,0.337 17.477,-25.726 -0.496,-0.337"
             style="fill:#000000;fill-opacity:1;fill-rule:nonzero;stroke:none"
             id="path262"
             inkscape:connector-curvature="0" /></g><g
           id="g264"><path
             d="m 378.598,40.148 44.029,-0.17 -0.002,-0.6 -44.029,0.17 0.002,0.6"
             style="fill:#000000;fill-opacity:1;fill-rule:nonzero;stroke:none"
             id="path266"
             inkscape:connector-curvature="0" /></g><g
           id="g268"><path
             d="m 624.247,61.24 -14.175,-10.631 0.36,-0.48 14.175,10.631 -0.36,0.48"
             style="fill:#000000;fill-opacity:1;fill-rule:nonzero;stroke:none"
             id="path270"
             inkscape:connector-curvature="0" /></g><g
           id="g272"><path
             d="m 624.172,60.656 -14.175,10.631 0.36,0.48 14.175,-10.631 -0.36,-0.48"
             style="fill:#000000;fill-opacity:1;fill-rule:nonzero;stroke:none"
             id="path274"
             inkscape:connector-curvature="0" /></g><g
           id="g276"><path
             d="m 624.352,61.077 99.755,0.002 0,0.6 -99.755,-0.002 0,-0.6"
             style="fill:#000000;fill-opacity:1;fill-rule:nonzero;stroke:none"
             id="path278"
             inkscape:connector-curvature="0" /></g><text
           transform="translate(612.972,64.468)"
           style="font-variant:normal;font-weight:normal;font-stretch:normal;font-size:8.05000019px;font-family:Euphemia;-inkscape-font-specification:EuphemiaCAS;writing-mode:lr-tb;fill:#000000;fill-opacity:1;fill-rule:nonzero;stroke:none"
           id="text280"><tspan
             x="0"
             y="0"
             id="tspan282">3</tspan></text>
</g></g></g></svg>