<?xml version="1.0" encoding="UTF-8" standalone="no"?>
<!-- Created with Inkscape (http://www.inkscape.org/) -->

<svg
   xmlns:dc="http://purl.org/dc/elements/1.1/"
   xmlns:cc="http://creativecommons.org/ns#"
   xmlns:rdf="http://www.w3.org/1999/02/22-rdf-syntax-ns#"
   xmlns:svg="http://www.w3.org/2000/svg"
   xmlns="http://www.w3.org/2000/svg"
   xmlns:sodipodi="http://sodipodi.sourceforge.net/DTD/sodipodi-0.dtd"
   xmlns:inkscape="http://www.inkscape.org/namespaces/inkscape"
   id="svg2"
   version="1.1"
   inkscape:version="0.91 r13725"
   xml:space="preserve"
   width="1539.6875"
   height="452.5"
   viewBox="0 0 1539.6875 452.5"
   sodipodi:docname="LinolaTM 2126.svg"><metadata
     id="metadata8"><rdf:RDF><cc:Work
         rdf:about=""><dc:format>image/svg+xml</dc:format><dc:type
           rdf:resource="http://purl.org/dc/dcmitype/StillImage" /><dc:title></dc:title></cc:Work></rdf:RDF></metadata><defs
     id="defs6"><clipPath
       clipPathUnits="userSpaceOnUse"
       id="clipPath16"><path
         d="m 0,0 1231.75,0 0,362 L 0,362 0,0 Z"
         id="path18"
         inkscape:connector-curvature="0"
         style="clip-rule:evenodd" /></clipPath></defs><sodipodi:namedview
     pagecolor="#ffffff"
     bordercolor="#666666"
     borderopacity="1"
     objecttolerance="10"
     gridtolerance="10"
     guidetolerance="10"
     inkscape:pageopacity="0"
     inkscape:pageshadow="2"
     inkscape:window-width="640"
     inkscape:window-height="480"
     id="namedview4"
     showgrid="false"
     inkscape:zoom="0.21757662"
     inkscape:cx="769.84375"
     inkscape:cy="226.25"
     inkscape:window-x="0"
     inkscape:window-y="0"
     inkscape:window-maximized="0"
     inkscape:current-layer="g10" /><g
     id="g10"
     inkscape:groupmode="layer"
     inkscape:label="LinolaTM 2126"
     transform="scale(1.25,1.25)"><g
       id="g12"><g
         id="g14"
         clip-path="url(#clipPath16)"><g
           id="g20"><path
             d="m 0,0 1231.75,0 0,362 L 0,362 0,0 Z"
             style="fill:#ffffff;fill-opacity:1;fill-rule:evenodd;stroke:none"
             id="path22"
             inkscape:connector-curvature="0" /></g><text
           transform="translate(354.15,44)"
           style="font-variant:normal;font-weight:normal;font-stretch:normal;font-size:9.94999981px;font-family:Euphemia;-inkscape-font-specification:EuphemiaCAS;writing-mode:lr-tb;fill:#000000;fill-opacity:1;fill-rule:nonzero;stroke:none"
           id="text24"><tspan
             x="0 5.9000001 11.45 17.4 24.1 30.15 36.200001 42.150002 47.200001 53.049999 58.900002 63.950001 67.099998 72.949997 78.800003 84.650002 90.5"
             y="0"
             sodipodi:role="line"
             id="tspan26">Redwood 65 (1965)</tspan></text>
<g
           id="g28"><path
             d="m 351.023,45.9 135.032,-0.17 -0.001,-0.6 -135.031,0.17 0,0.6"
             style="fill:#000000;fill-opacity:1;fill-rule:nonzero;stroke:none"
             id="path30"
             inkscape:connector-curvature="0" /></g><text
           transform="translate(286.75,34.5)"
           style="font-variant:normal;font-weight:normal;font-stretch:normal;font-size:9.94999981px;font-family:Euphemia;-inkscape-font-specification:EuphemiaCAS;writing-mode:lr-tb;fill:#000000;fill-opacity:1;fill-rule:nonzero;stroke:none"
           id="text32"><tspan
             x="0 5.9000001 11.45 17.4 24.1 30.15 36.200001"
             y="0"
             sodipodi:role="line"
             id="tspan34">Redwood</tspan></text>
<g
           id="g36"><path
             d="m 280.114,36.063 57.147,-0.281 -0.003,-0.6 -57.147,0.281 0.003,0.6"
             style="fill:#000000;fill-opacity:1;fill-rule:nonzero;stroke:none"
             id="path38"
             inkscape:connector-curvature="0" /></g><text
           transform="translate(331.55,243.8)"
           style="font-variant:normal;font-weight:normal;font-stretch:normal;font-size:9.94999981px;font-family:Euphemia;-inkscape-font-specification:EuphemiaCAS;writing-mode:lr-tb;fill:#000000;fill-opacity:1;fill-rule:nonzero;stroke:none"
           id="text40"><tspan
             x="0 5.9000001 11.95 17.200001 22.200001 27.75 31.15 36.200001 39.349998 45.200001 51.049999 56.900002 62.75"
             y="0"
             sodipodi:role="line"
             id="tspan42">Rocket (1947)</tspan></text>
<g
           id="g44"><path
             d="m 320.361,244.753 213.711,0 0,0.6 -213.711,0 0,-0.6 z"
             style="fill:#000000;fill-opacity:1;fill-rule:nonzero;stroke:none"
             id="path46"
             inkscape:connector-curvature="0" /></g><text
           transform="translate(14.4,9.6)"
           style="font-variant:normal;font-weight:normal;font-stretch:normal;font-size:9.94999981px;font-family:Euphemia;-inkscape-font-specification:EuphemiaCAS;writing-mode:lr-tb;fill:#000000;fill-opacity:1;fill-rule:nonzero;stroke:#000000;stroke-width:0.28457001;stroke-linecap:square;stroke-linejoin:bevel;stroke-miterlimit:2;stroke-dasharray:none;stroke-opacity:1"
           id="text48"><tspan
             x="0 6.1500001 8.6000004 13.5 19.6 25.35 30.450001 33.650002 39.549999 45.450001 51.349998 57.25"
             y="0"
             sodipodi:role="line"
             id="tspan50">Bison (1926)</tspan></text>
<g
           id="g52"><path
             d="m 0,15.044 143.972,0 0,0.6 -143.972,0 0,-0.6 z"
             style="fill:#000000;fill-opacity:1;fill-rule:nonzero;stroke:none"
             id="path54"
             inkscape:connector-curvature="0" /></g><g
           id="g56"><path
             d="m 185.159,311.472 104.29,0 0,0.6 -104.29,0 0,-0.6 z"
             style="fill:#000000;fill-opacity:1;fill-rule:nonzero;stroke:none"
             id="path58"
             inkscape:connector-curvature="0" /></g><text
           transform="translate(188.525,311.463)"
           style="font-variant:normal;font-weight:normal;font-stretch:normal;font-size:9.94999981px;font-family:Euphemia;-inkscape-font-specification:EuphemiaCAS;writing-mode:lr-tb;fill:#000000;fill-opacity:1;fill-rule:nonzero;stroke:#000000;stroke-width:0.28457001;stroke-linecap:square;stroke-linejoin:bevel;stroke-miterlimit:2;stroke-dasharray:none;stroke-opacity:1"
           id="text60"><tspan
             x="0 6.3000002 10 15.6 21.200001 26.950001 30.4 32.849998 38.599998 44.200001 49.299999 55.200001"
             y="0"
             sodipodi:role="line"
             id="tspan62">Argentine 8C</tspan></text>
<g
           id="g64"><path
             d="m 56.699,185.84 364.968,-0.174 0,-0.6 -364.968,0.174 0,0.6"
             style="fill:#000000;fill-opacity:1;fill-rule:nonzero;stroke:none"
             id="path66"
             inkscape:connector-curvature="0" /></g><text
           transform="translate(74.5,182.05)"
           style="font-variant:normal;font-weight:normal;font-stretch:normal;font-size:9.94999981px;font-family:Euphemia;-inkscape-font-specification:EuphemiaCAS;writing-mode:lr-tb;fill:#000000;fill-opacity:1;fill-rule:nonzero;stroke:#000000;stroke-width:0.28457001;stroke-linecap:square;stroke-linejoin:bevel;stroke-miterlimit:2;stroke-dasharray:none;stroke-opacity:1"
           id="text68"><tspan
             x="0 5.9499998 11.55 17.549999 24.299999 26.75 32.5"
             y="0"
             sodipodi:role="line"
             id="tspan70">Redwing</tspan></text>
<g
           id="g72"><path
             d="m 157.402,25.232 -27.631,160.083 0.591,0.102 27.631,-160.083 -0.591,-0.102"
             style="fill:#000000;fill-opacity:1;fill-rule:nonzero;stroke:none"
             id="path74"
             inkscape:connector-curvature="0" /></g><g
           id="g76"><path
             d="M 123.77,136.873 79.097,15.448 l 0.563,-0.207 44.673,121.425 -0.563,0.207"
             style="fill:#000000;fill-opacity:1;fill-rule:nonzero;stroke:none"
             id="path78"
             inkscape:connector-curvature="0" /></g><g
           id="g80"><path
             d="m 157.858,25.988 108.048,-0.607 -0.004,-0.6 -108.047,0.607 0.003,0.6"
             style="fill:#000000;fill-opacity:1;fill-rule:nonzero;stroke:none"
             id="path82"
             inkscape:connector-curvature="0" /></g><text
           transform="translate(183.757,24.306)"
           style="font-variant:normal;font-weight:normal;font-stretch:normal;font-size:9.94999981px;font-family:Euphemia;-inkscape-font-specification:EuphemiaCAS;writing-mode:lr-tb;fill:#000000;fill-opacity:1;fill-rule:nonzero;stroke:none"
           id="text84"><tspan
             x="0 5.9000001 11.45 17.4 22.25 28.299999"
             y="0"
             sodipodi:role="line"
             id="tspan86">Redson</tspan></text>
<text
           transform="translate(393.6,334.25)"
           style="font-variant:normal;font-weight:normal;font-stretch:normal;font-size:9.94999981px;font-family:Euphemia;-inkscape-font-specification:EuphemiaCAS;writing-mode:lr-tb;fill:#000000;fill-opacity:1;fill-rule:nonzero;stroke:none"
           id="text88"><tspan
             x="0 5.1500001 7.5500002 13.25 19.299999 22.700001 26.1 31.15 34.299999 40.150002 46 51.849998 57.700001"
             y="0"
             sodipodi:role="line"
             id="tspan90">Linott (1966)</tspan></text>
<g
           id="g92"><path
             d="m 378.087,335.68 347.135,-0.293 -10e-4,-0.6 -347.134,0.293 0,0.6"
             style="fill:#000000;fill-opacity:1;fill-rule:nonzero;stroke:none"
             id="path94"
             inkscape:connector-curvature="0" /></g><g
           id="g96"><path
             d="m 303.444,321.69 -14.175,10.631 0.36,0.48 14.175,-10.631 -0.36,-0.48"
             style="fill:#000000;fill-opacity:1;fill-rule:nonzero;stroke:none"
             id="path98"
             inkscape:connector-curvature="0" /></g><g
           id="g100"><path
             d="m 303.28,321.615 57.933,0.18 -0.002,0.6 -57.933,-0.18 0.002,-0.6"
             style="fill:#000000;fill-opacity:1;fill-rule:nonzero;stroke:none"
             id="path102"
             inkscape:connector-curvature="0" /></g><g
           id="g104"><path
             d="m 197.292,348.097 164.722,-0.162 -0.001,-0.6 -164.721,0.162 0,0.6"
             style="fill:#000000;fill-opacity:1;fill-rule:nonzero;stroke:none"
             id="path106"
             inkscape:connector-curvature="0" /></g><g
           id="g108"><path
             d="m 202.873,332.261 86.793,0.002 0,0.6 -86.793,-0.002 0,-0.6"
             style="fill:#000000;fill-opacity:1;fill-rule:nonzero;stroke:none"
             id="path110"
             inkscape:connector-curvature="0" /></g><text
           transform="translate(205.112,331.799)"
           style="font-variant:normal;font-weight:normal;font-stretch:normal;font-size:9.94999981px;font-family:Euphemia;-inkscape-font-specification:EuphemiaCAS;writing-mode:lr-tb;fill:#000000;fill-opacity:1;fill-rule:nonzero;stroke:#000000;stroke-width:0.28457001;stroke-linecap:square;stroke-linejoin:bevel;stroke-miterlimit:2;stroke-dasharray:none;stroke-opacity:1"
           id="text112"><tspan
             x="0 8.1000004 11.55 15 20.75 27.5 33.25 38.349998 44.25 50.150002 56.049999 62.200001"
             y="0"
             sodipodi:role="line"
             id="tspan114">Ottawa 770B </tspan></text>
<text
           transform="translate(205.112,343.799)"
           style="font-variant:normal;font-weight:normal;font-stretch:normal;font-size:9.94999981px;font-family:Euphemia;-inkscape-font-specification:EuphemiaCAS;writing-mode:lr-tb;fill:#000000;fill-opacity:1;fill-rule:nonzero;stroke:#000000;stroke-width:0.28457001;stroke-linecap:square;stroke-linejoin:bevel;stroke-miterlimit:2;stroke-dasharray:none;stroke-opacity:1"
           id="text116"><tspan
             x="0 3.2 9.1000004 15 20.9 26.799999"
             y="0"
             sodipodi:role="line"
             id="tspan118">(1910)</tspan></text>
<g
           id="g120"><path
             d="m 377.629,335.613 -16.606,-13.446 0.378,-0.467 16.606,13.447 -0.378,0.466"
             style="fill:#000000;fill-opacity:1;fill-rule:nonzero;stroke:none"
             id="path122"
             inkscape:connector-curvature="0" /></g><g
           id="g124"><path
             d="m 377.565,335.139 -16.532,12.255 0.357,0.482 16.533,-12.255 -0.358,-0.482"
             style="fill:#000000;fill-opacity:1;fill-rule:nonzero;stroke:none"
             id="path126"
             inkscape:connector-curvature="0" /></g><g
           id="g128"><path
             d="m 303.102,322.172 -13.83,-10.159 0.355,-0.483 13.83,10.158 -0.355,0.484"
             style="fill:#000000;fill-opacity:1;fill-rule:nonzero;stroke:none"
             id="path130"
             inkscape:connector-curvature="0" /></g><g
           id="g132"><path
             d="m 157.677,26.216 -14.175,-10.632 0.36,-0.48 14.175,10.632 -0.36,0.48"
             style="fill:#000000;fill-opacity:1;fill-rule:nonzero;stroke:none"
             id="path134"
             inkscape:connector-curvature="0" /></g><g
           id="g136"><path
             d="m 320.089,245.101 -30.695,66.609 0.545,0.251 30.694,-66.609 -0.544,-0.251"
             style="fill:#000000;fill-opacity:1;fill-rule:nonzero;stroke:none"
             id="path138"
             inkscape:connector-curvature="0" /></g><g
           id="g140"><path
             d="m 440.203,198.304 -25.497,46.655 0.527,0.288 25.496,-46.655 -0.526,-0.288"
             style="fill:#000000;fill-opacity:1;fill-rule:nonzero;stroke:none"
             id="path142"
             inkscape:connector-curvature="0" /></g><text
           transform="translate(446.861,196.953)"
           style="font-variant:normal;font-weight:normal;font-stretch:normal;font-size:9.94999981px;font-family:Euphemia;-inkscape-font-specification:EuphemiaCAS;writing-mode:lr-tb;fill:#000000;fill-opacity:1;fill-rule:nonzero;stroke:none"
           id="text144"><tspan
             x="0 6.9499998 13 16.65 22.35 24.85 28.25 33.950001 39 42.150002 48 53.849998 59.700001 65.550003"
             y="0"
             sodipodi:role="line"
             id="tspan146">Noralta (1965)</tspan></text>
<g
           id="g148"><path
             d="m 320.105,245.384 -36.682,-59.687 0.512,-0.314 36.682,59.686 -0.512,0.315"
             style="fill:#000000;fill-opacity:1;fill-rule:nonzero;stroke:none"
             id="path150"
             inkscape:connector-curvature="0" /></g><g
           id="g152"><path
             d="m 440.113,198.867 82.308,-0.18 -0.002,-0.6 -82.308,0.18 0.002,0.6"
             style="fill:#000000;fill-opacity:1;fill-rule:nonzero;stroke:none"
             id="path154"
             inkscape:connector-curvature="0" /></g><text
           transform="translate(368.68,75.407)"
           style="font-variant:normal;font-weight:normal;font-stretch:normal;font-size:9.94999981px;font-family:Euphemia;-inkscape-font-specification:EuphemiaCAS;writing-mode:lr-tb;fill:#000000;fill-opacity:1;fill-rule:nonzero;stroke:none"
           id="text156"><tspan
             x="0 5.9000001 11.6 13.9 19.6 24.65 27.799999 33.650002 39.5 45.349998 51.200001"
             y="0"
             sodipodi:role="line"
             id="tspan158">Raja (1953)</tspan></text>
<g
           id="g160"><path
             d="m 416.774,164.348 66.338,0.069 -0.001,0.6 -66.337,-0.069 0,-0.6"
             style="fill:#000000;fill-opacity:1;fill-rule:nonzero;stroke:none"
             id="path162"
             inkscape:connector-curvature="0" /></g><g
           id="g164"><path
             d="m 362.742,77.761 85.572,-0.029 0,-0.6 -85.572,0.029 0,0.6"
             style="fill:#000000;fill-opacity:1;fill-rule:nonzero;stroke:none"
             id="path166"
             inkscape:connector-curvature="0" /></g><text
           transform="translate(418.55,162.05)"
           style="font-variant:normal;font-weight:normal;font-stretch:normal;font-size:9.94999981px;font-family:Euphemia;-inkscape-font-specification:EuphemiaCAS;writing-mode:lr-tb;fill:#000000;fill-opacity:1;fill-rule:nonzero;stroke:none"
           id="text168"><tspan
             x="0 6.0500002 11.75 14.25 19.950001 23.35 29.049999 34.099998 37.25 43.099998 48.950001 54.799999 60.650002"
             y="0"
             sodipodi:role="line"
             id="tspan170">Valuta (1949)</tspan></text>
<g
           id="g172"><path
             d="m 417.176,164.84 -14.175,-10.631 0.36,-0.48 14.175,10.631 -0.36,0.48"
             style="fill:#000000;fill-opacity:1;fill-rule:nonzero;stroke:none"
             id="path174"
             inkscape:connector-curvature="0" /></g><g
           id="g176"><path
             d="m 417.176,164.36 -14.175,10.631 0.36,0.48 14.175,-10.631 -0.36,-0.48"
             style="fill:#000000;fill-opacity:1;fill-rule:nonzero;stroke:none"
             id="path178"
             inkscape:connector-curvature="0" /></g><g
           id="g180"><path
             d="m 304.436,153.669 98.923,10e-4 0,0.6 -98.923,-0.001 0,-0.6"
             style="fill:#000000;fill-opacity:1;fill-rule:nonzero;stroke:none"
             id="path182"
             inkscape:connector-curvature="0" /></g><g
           id="g184"><path
             d="m 316.565,174.93 86.794,0.001 0,0.6 -86.794,-0.001 0,-0.6"
             style="fill:#000000;fill-opacity:1;fill-rule:nonzero;stroke:none"
             id="path186"
             inkscape:connector-curvature="0" /></g><g
           id="g188"><path
             d="m 362.563,77.701 -14.176,-10.632 0.36,-0.48 14.175,10.632 -0.359,0.48"
             style="fill:#000000;fill-opacity:1;fill-rule:nonzero;stroke:none"
             id="path190"
             inkscape:connector-curvature="0" /></g><g
           id="g192"><path
             d="m 362.562,77.221 -14.175,10.631 0.36,0.48 14.175,-10.631 -0.36,-0.48"
             style="fill:#000000;fill-opacity:1;fill-rule:nonzero;stroke:none"
             id="path194"
             inkscape:connector-curvature="0" /></g><g
           id="g196"><path
             d="m 247.243,66.531 101.502,0 0,0.6 -101.502,0 0,-0.6 z"
             style="fill:#000000;fill-opacity:1;fill-rule:nonzero;stroke:none"
             id="path198"
             inkscape:connector-curvature="0" /></g><g
           id="g200"><path
             d="m 261.952,87.79 86.793,0.002 0,0.6 -86.793,-0.002 0,-0.6"
             style="fill:#000000;fill-opacity:1;fill-rule:nonzero;stroke:none"
             id="path202"
             inkscape:connector-curvature="0" /></g><text
           transform="translate(317.85,152.1)"
           style="font-variant:normal;font-weight:normal;font-stretch:normal;font-size:9.94999981px;font-family:Euphemia;-inkscape-font-specification:EuphemiaCAS;writing-mode:lr-tb;fill:#000000;fill-opacity:1;fill-rule:nonzero;stroke:#000000;stroke-width:0.28457001;stroke-linecap:square;stroke-linejoin:bevel;stroke-miterlimit:2;stroke-dasharray:none;stroke-opacity:1"
           id="text204"><tspan
             x="0 6.3000002 12.3 18.4 24.1 27.549999 30"
             y="0"
             sodipodi:role="line"
             id="tspan206">Adoptiv</tspan></text>
<text
           transform="translate(327.55,172)"
           style="font-variant:normal;font-weight:normal;font-stretch:normal;font-size:9.94999981px;font-family:Euphemia;-inkscape-font-specification:EuphemiaCAS;writing-mode:lr-tb;fill:#000000;fill-opacity:1;fill-rule:nonzero;stroke:#000000;stroke-width:0.28457001;stroke-linecap:square;stroke-linejoin:bevel;stroke-miterlimit:2;stroke-dasharray:none;stroke-opacity:1"
           id="text208"><tspan
             x="0 5.1999998 10.95 15.85 21.6"
             y="0"
             sodipodi:role="line"
             id="tspan210">Fasad</tspan></text>
<text
           transform="translate(274.931,87.401)"
           style="font-variant:normal;font-weight:normal;font-stretch:normal;font-size:9.94999981px;font-family:Euphemia;-inkscape-font-specification:EuphemiaCAS;writing-mode:lr-tb;fill:#000000;fill-opacity:1;fill-rule:nonzero;stroke:#000000;stroke-width:0.28457001;stroke-linecap:square;stroke-linejoin:bevel;stroke-miterlimit:2;stroke-dasharray:none;stroke-opacity:1"
           id="text212"><tspan
             x="0 5.25 7.3499999 16.1 18.200001 24.15"
             y="0"
             sodipodi:role="line"
             id="tspan214">J.W.S.</tspan></text>
<text
           transform="translate(259.3,64.8)"
           style="font-variant:normal;font-weight:normal;font-stretch:normal;font-size:9.94999981px;font-family:Euphemia;-inkscape-font-specification:EuphemiaCAS;writing-mode:lr-tb;fill:#000000;fill-opacity:1;fill-rule:nonzero;stroke:#000000;stroke-width:0.28457001;stroke-linecap:square;stroke-linejoin:bevel;stroke-miterlimit:2;stroke-dasharray:none;stroke-opacity:1"
           id="text216"><tspan
             x="0 6.3000002 10 15.6 21.200001 26.950001 30.4 32.849998 38.599998 44.200001 49.299999 55.200001 61.099998 67"
             y="0"
             sodipodi:role="line"
             id="tspan218">Argentine 1025</tspan></text>
<text
           transform="translate(775.495,322.82)"
           style="font-variant:normal;font-weight:normal;font-stretch:normal;font-size:9.94999981px;font-family:Euphemia;-inkscape-font-specification:EuphemiaCAS;writing-mode:lr-tb;fill:#000000;fill-opacity:1;fill-rule:nonzero;stroke:none"
           id="text220"><tspan
             x="0 6.9499998 13 16.65 24.4 30.1"
             y="0"
             sodipodi:role="line"
             id="tspan222">NorMan</tspan></text>
<text
           transform="translate(816.345,322.82)"
           style="font-variant:normal;font-weight:normal;font-stretch:normal;font-size:9.94999981px;font-family:Euphemia;-inkscape-font-specification:EuphemiaCAS;writing-mode:lr-tb;fill:#000000;fill-opacity:1;fill-rule:nonzero;stroke:none"
           id="text224"><tspan
             x="0 3.1500001 9 14.85 20.700001 26.549999"
             y="0"
             sodipodi:role="line"
             id="tspan226">(1984)</tspan></text>
<text
           transform="translate(399.15,124.2)"
           style="font-variant:normal;font-weight:normal;font-stretch:normal;font-size:9.94999981px;font-family:Euphemia;-inkscape-font-specification:EuphemiaCAS;writing-mode:lr-tb;fill:#000000;fill-opacity:1;fill-rule:nonzero;stroke:none"
           id="text228"><tspan
             x="0 5.8499999 11.7 17.549999"
             y="0"
             sodipodi:role="line"
             id="tspan230">4013</tspan></text>
<text
           transform="translate(269.8,114.85)"
           style="font-variant:normal;font-weight:normal;font-stretch:normal;font-size:9.94999981px;font-family:Euphemia;-inkscape-font-specification:EuphemiaCAS;writing-mode:lr-tb;fill:#000000;fill-opacity:1;fill-rule:nonzero;stroke:none"
           id="text232"><tspan
             x="0 8.0500002 13.95 19.85 24.9 30.75 36.599998 42.450001 48.299999 51.950001 57.799999 63.650002"
             y="0"
             sodipodi:role="line"
             id="tspan234">OTT 2557-21A</tspan></text>
<g
           id="g236"><path
             d="m 472.348,115.155 38.372,0.044 -0.001,0.6 -38.372,-0.044 0.001,-0.6"
             style="fill:#000000;fill-opacity:1;fill-rule:nonzero;stroke:none"
             id="path238"
             inkscape:connector-curvature="0" /></g><g
           id="g240"><path
             d="m 392.743,125.461 65.43,0.114 -10e-4,0.6 -65.43,-0.114 10e-4,-0.6"
             style="fill:#000000;fill-opacity:1;fill-rule:nonzero;stroke:none"
             id="path242"
             inkscape:connector-curvature="0" /></g><text
           transform="translate(475.67,114.797)"
           style="font-variant:normal;font-weight:normal;font-stretch:normal;font-size:9.94999981px;font-family:Euphemia;-inkscape-font-specification:EuphemiaCAS;writing-mode:lr-tb;fill:#000000;fill-opacity:1;fill-rule:nonzero;stroke:none"
           id="text244"><tspan
             x="0 5.1500001 10.8 16.65 22.5"
             y="0"
             sodipodi:role="line"
             id="tspan246">FP441</tspan></text>
<g
           id="g248"><path
             d="m 258.472,115.156 121.095,0.269 -0.001,0.6 -121.095,-0.269 10e-4,-0.6"
             style="fill:#000000;fill-opacity:1;fill-rule:nonzero;stroke:none"
             id="path250"
             inkscape:connector-curvature="0" /></g><g
           id="g252"><path
             d="m 215.403,46.787 51.087,-0.414 -0.005,-0.6 -51.087,0.414 0.005,0.6"
             style="fill:#000000;fill-opacity:1;fill-rule:nonzero;stroke:none"
             id="path254"
             inkscape:connector-curvature="0" /></g><text
           transform="translate(223.7,45.4)"
           style="font-variant:normal;font-weight:normal;font-stretch:normal;font-size:9.94999981px;font-family:Euphemia;-inkscape-font-specification:EuphemiaCAS;writing-mode:lr-tb;fill:#000000;fill-opacity:1;fill-rule:nonzero;stroke:none"
           id="text256"><tspan
             x="0 6.0999999 9.75 15.6 21.450001 27.299999"
             y="0"
             sodipodi:role="line"
             id="tspan258">B-5128</tspan></text>
<g
           id="g260"><path
             d="m 214.179,82.054 -14.175,-10.631 0.36,-0.48 14.175,10.631 -0.36,0.48"
             style="fill:#000000;fill-opacity:1;fill-rule:nonzero;stroke:none"
             id="path262"
             inkscape:connector-curvature="0" /></g><g
           id="g264"><path
             d="m 214.105,81.574 -14.175,10.631 0.36,0.48 14.175,-10.631 -0.36,-0.48"
             style="fill:#000000;fill-opacity:1;fill-rule:nonzero;stroke:none"
             id="path266"
             inkscape:connector-curvature="0" /></g><g
           id="g268"><path
             d="m 163.552,70.801 36.632,0.016 0,0.6 -36.632,-0.016 0,-0.6"
             style="fill:#000000;fill-opacity:1;fill-rule:nonzero;stroke:none"
             id="path270"
             inkscape:connector-curvature="0" /></g><g
           id="g272"><path
             d="m 161.181,91.975 39.003,0 0,0.6 -39.003,0 0,-0.6 z"
             style="fill:#000000;fill-opacity:1;fill-rule:nonzero;stroke:none"
             id="path274"
             inkscape:connector-curvature="0" /></g><text
           transform="translate(166.651,68.011)"
           style="font-variant:normal;font-weight:normal;font-stretch:normal;font-size:9.94999981px;font-family:Euphemia;-inkscape-font-specification:EuphemiaCAS;writing-mode:lr-tb;fill:#000000;fill-opacity:1;fill-rule:nonzero;stroke:#000000;stroke-width:0.28457001;stroke-linecap:square;stroke-linejoin:bevel;stroke-miterlimit:2;stroke-dasharray:none;stroke-opacity:1"
           id="text276"><tspan
             x="0 6.6999998 12.8 15.35 21.35 26.950001"
             y="0"
             sodipodi:role="line"
             id="tspan278">Golden</tspan></text>
<text
           transform="translate(173.796,91.432)"
           style="font-variant:normal;font-weight:normal;font-stretch:normal;font-size:9.94999981px;font-family:Euphemia;-inkscape-font-specification:EuphemiaCAS;writing-mode:lr-tb;fill:#000000;fill-opacity:1;fill-rule:nonzero;stroke:#000000;stroke-width:0.28457001;stroke-linecap:square;stroke-linejoin:bevel;stroke-miterlimit:2;stroke-dasharray:none;stroke-opacity:1"
           id="text280"><tspan
             x="0 5.9499998 8.3999996"
             y="0"
             sodipodi:role="line"
             id="tspan282">Rio</tspan></text>
<g
           id="g284"><path
             d="m 258.217,115.614 -43.072,-69.323 0.51,-0.316 43.071,69.323 -0.509,0.316"
             style="fill:#000000;fill-opacity:1;fill-rule:nonzero;stroke:none"
             id="path286"
             inkscape:connector-curvature="0" /></g><g
           id="g288"><path
             d="m 214.172,81.721 24.012,0 0,0.6 -24.012,0 0,-0.6 z"
             style="fill:#000000;fill-opacity:1;fill-rule:nonzero;stroke:none"
             id="path290"
             inkscape:connector-curvature="0" /></g><g
           id="g292"><path
             d="m 279.9,35.201 -14.175,10.632 0.36,0.48 14.175,-10.632 -0.36,-0.48"
             style="fill:#000000;fill-opacity:1;fill-rule:nonzero;stroke:none"
             id="path294"
             inkscape:connector-curvature="0" /></g><g
           id="g296"><path
             d="m 279.558,35.683 -13.83,-10.158 0.355,-0.484 13.83,10.159 -0.355,0.483"
             style="fill:#000000;fill-opacity:1;fill-rule:nonzero;stroke:none"
             id="path298"
             inkscape:connector-curvature="0" /></g><text
           transform="translate(158.426,134.211)"
           style="font-variant:normal;font-weight:normal;font-stretch:normal;font-size:9.94999981px;font-family:Euphemia;-inkscape-font-specification:EuphemiaCAS;writing-mode:lr-tb;fill:#000000;fill-opacity:1;fill-rule:nonzero;stroke:none"
           id="text300"><tspan
             x="0 6.0999999 12.15 15.55 21.6 26.65 29.799999 35.650002 41.5 47.349998 53.200001"
             y="0"
             sodipodi:role="line"
             id="tspan302">Koto (1942)</tspan></text>
<g
           id="g304"><path
             d="m 124.057,136.969 11.431,-0.22 -0.011,-0.6 -11.432,0.22 0.012,0.6"
             style="fill:#000000;fill-opacity:1;fill-rule:nonzero;stroke:none"
             id="path306"
             inkscape:connector-curvature="0" /></g><g
           id="g308"><path
             d="m 135.052,136.602 -0.075,-0.344 -0.006,-0.031 -0.047,-0.355 -0.003,-0.032 -0.019,-0.386 0,-0.033 0.015,-0.378 0.003,-0.033 0.048,-0.368 0.006,-0.033 0.079,-0.355 0.009,-0.032 0.108,-0.342 0.012,-0.031 0.137,-0.325 0.014,-0.031 0.164,-0.307 0.017,-0.03 0.189,-0.287 0.02,-0.028 0.212,-0.265 0.024,-0.027 0.235,-0.24 0.027,-0.025 0.255,-0.214 0.031,-0.023 0.274,-0.185 0.034,-0.02 0.291,-0.155 0.038,-0.017 0.308,-0.122 0.04,-0.013 0.322,-0.088 0.042,-0.009 0.336,-0.05 0.043,-0.004 0.339,-0.012 0.043,10e-4 0.333,0.027 0.042,0.005 0.325,0.064 0.04,0.01 0.315,0.098 0.037,0.014 0.303,0.132 0.035,0.017 0.29,0.163 0.031,0.02 0.274,0.193 0.029,0.022 0.257,0.221 0.026,0.024 0.238,0.247 0.022,0.027 0.217,0.271 0.02,0.028 0.194,0.294 0.018,0.029 0.169,0.316 0.014,0.03 0.143,0.335 0.012,0.031 0.115,0.353 0.009,0.032 0.084,0.368 0.006,0.033 0.053,0.383 0.003,0.029 0.017,0.287 0,0.025 -0.002,0.284 -0.001,0.024 -0.02,0.279 -0.003,0.024 -0.038,0.272 -0.742,-0.104 0.038,-0.272 -0.003,0.025 0.02,-0.278 -0.001,0.024 0.002,-0.283 10e-4,0.025 -0.017,-0.288 0.003,0.029 -0.053,-0.383 0.006,0.033 -0.084,-0.368 0.008,0.032 -0.114,-0.353 0.012,0.031 -0.143,-0.335 0.014,0.031 -0.169,-0.316 0.017,0.029 -0.194,-0.295 0.02,0.028 -0.217,-0.272 0.023,0.026 -0.238,-0.247 0.026,0.025 -0.257,-0.221 0.029,0.022 -0.274,-0.193 0.032,0.02 -0.29,-0.163 0.035,0.018 -0.303,-0.132 0.037,0.014 -0.315,-0.098 0.04,0.01 -0.325,-0.063 0.042,0.005 -0.333,-0.026 0.043,0.001 -0.339,0.011 0.043,-0.004 -0.336,0.051 0.042,-0.009 -0.322,0.088 0.04,-0.014 -0.308,0.122 0.038,-0.017 -0.292,0.154 0.034,-0.02 -0.274,0.185 0.031,-0.024 -0.254,0.214 0.027,-0.026 -0.234,0.24 0.024,-0.027 -0.212,0.264 0.021,-0.029 -0.188,0.287 0.018,-0.03 -0.164,0.307 0.015,-0.031 -0.137,0.325 0.012,-0.031 -0.108,0.341 0.008,-0.032 -0.079,0.355 0.006,-0.033 -0.048,0.368 0.003,-0.033 -0.016,0.378 0,-0.034 0.019,0.386 -0.003,-0.032 0.048,0.355 -0.006,-0.03 0.076,0.344 -0.733,0.161"
             style="fill:#000000;fill-opacity:1;fill-rule:nonzero;stroke:none"
             id="path310"
             inkscape:connector-curvature="0" /></g><g
           id="g312"><path
             d="m 75.698,147.1 34.178,0.001 0,0.6 -34.178,-0.001 0,-0.6"
             style="fill:#000000;fill-opacity:1;fill-rule:nonzero;stroke:none"
             id="path314"
             inkscape:connector-curvature="0" /></g><text
           transform="translate(25.627,156.96)"
           style="font-variant:normal;font-weight:normal;font-stretch:normal;font-size:9.94999981px;font-family:Euphemia;-inkscape-font-specification:EuphemiaCAS;writing-mode:lr-tb;fill:#000000;fill-opacity:1;fill-rule:nonzero;stroke:#000000;stroke-width:0.28457001;stroke-linecap:square;stroke-linejoin:bevel;stroke-miterlimit:2;stroke-dasharray:none;stroke-opacity:1"
           id="text316"><tspan
             x="0 5.9499998 11.55 16.450001 22.049999 25.75 30.450001"
             y="0"
             sodipodi:role="line"
             id="tspan318">Reserve</tspan></text>
<g
           id="g320"><path
             d="m 75.729,147.578 -14.175,-10.631 0.36,-0.48 14.175,10.631 -0.36,0.48"
             style="fill:#000000;fill-opacity:1;fill-rule:nonzero;stroke:none"
             id="path322"
             inkscape:connector-curvature="0" /></g><g
           id="g324"><path
             d="m 75.739,147.098 -14.175,10.631 0.36,0.48 14.175,-10.631 -0.36,-0.48"
             style="fill:#000000;fill-opacity:1;fill-rule:nonzero;stroke:none"
             id="path326"
             inkscape:connector-curvature="0" /></g><g
           id="g328"><path
             d="m 7.199,136.369 54.723,0.039 -10e-4,0.6 -54.722,-0.039 0,-0.6"
             style="fill:#000000;fill-opacity:1;fill-rule:nonzero;stroke:none"
             id="path330"
             inkscape:connector-curvature="0" /></g><g
           id="g332"><path
             d="m 20.226,157.669 41.58,0 0,0.6 -41.58,0 0,-0.6 z"
             style="fill:#000000;fill-opacity:1;fill-rule:nonzero;stroke:none"
             id="path334"
             inkscape:connector-curvature="0" /></g><text
           transform="translate(21.507,135.206)"
           style="font-variant:normal;font-weight:normal;font-stretch:normal;font-size:9.94999981px;font-family:Euphemia;-inkscape-font-specification:EuphemiaCAS;writing-mode:lr-tb;fill:#000000;fill-opacity:1;fill-rule:nonzero;stroke:#000000;stroke-width:0.28457001;stroke-linecap:square;stroke-linejoin:bevel;stroke-miterlimit:2;stroke-dasharray:none;stroke-opacity:1"
           id="text336"><tspan
             x="0 7.8000002 13.9 19 22.700001 28.299999 34.200001 40.099998"
             y="0"
             sodipodi:role="line"
             id="tspan338">Moyre112</tspan></text>
<g
           id="g340"><path
             d="m 142.244,136.749 237.548,-0.292 0,-0.6 -237.548,0.292 0,0.6"
             style="fill:#000000;fill-opacity:1;fill-rule:nonzero;stroke:none"
             id="path342"
             inkscape:connector-curvature="0" /></g><g
           id="g344"><path
             d="m 123.871,136.529 -14.175,10.631 0.36,0.48 14.175,-10.631 -0.36,-0.48"
             style="fill:#000000;fill-opacity:1;fill-rule:nonzero;stroke:none"
             id="path346"
             inkscape:connector-curvature="0" /></g><g
           id="g348"><path
             d="M 548.179,234.606 448.061,77.622 l 0.506,-0.323 100.118,156.984 -0.506,0.323"
             style="fill:#000000;fill-opacity:1;fill-rule:nonzero;stroke:none"
             id="path350"
             inkscape:connector-curvature="0" /></g><g
           id="g352"><path
             d="m 472.168,115.259 -14.175,10.631 0.36,0.48 14.175,-10.631 -0.36,-0.48"
             style="fill:#000000;fill-opacity:1;fill-rule:nonzero;stroke:none"
             id="path354"
             inkscape:connector-curvature="0" /></g><g
           id="g356"><path
             d="m 548.401,234.355 -14.175,10.632 0.36,0.48 14.175,-10.632 -0.36,-0.48"
             style="fill:#000000;fill-opacity:1;fill-rule:nonzero;stroke:none"
             id="path358"
             inkscape:connector-curvature="0" /></g><g
           id="g360"><path
             d="m 497.107,153.846 -14.175,10.631 0.36,0.48 14.175,-10.631 -0.36,-0.48"
             style="fill:#000000;fill-opacity:1;fill-rule:nonzero;stroke:none"
             id="path362"
             inkscape:connector-curvature="0" /></g><g
           id="g364"><path
             d="m 522.054,198.467 -0.076,-0.344 -0.005,-0.031 -0.048,-0.355 -0.003,-0.032 -0.018,-0.386 0,-0.033 0.015,-0.378 0.003,-0.033 0.048,-0.368 0.006,-0.033 0.079,-0.355 0.009,-0.032 0.108,-0.342 0.012,-0.031 0.136,-0.325 0.015,-0.031 0.163,-0.307 0.018,-0.03 0.188,-0.287 0.021,-0.028 0.212,-0.264 0.024,-0.028 0.234,-0.24 0.028,-0.025 0.254,-0.214 0.031,-0.023 0.274,-0.185 0.035,-0.02 0.291,-0.155 0.038,-0.017 0.307,-0.122 0.04,-0.013 0.323,-0.088 0.042,-0.008 0.336,-0.051 0.043,-0.004 0.339,-0.012 0.043,0.001 0.333,0.027 0.042,0.005 0.324,0.064 0.04,0.01 0.315,0.098 0.038,0.014 0.303,0.132 0.035,0.017 0.289,0.163 0.032,0.02 0.274,0.193 0.029,0.022 0.257,0.221 0.026,0.024 0.237,0.247 0.023,0.027 0.217,0.271 0.02,0.028 0.194,0.294 0.017,0.029 0.17,0.316 0.014,0.03 0.143,0.335 0.012,0.031 0.114,0.353 0.009,0.032 0.085,0.368 0.006,0.033 0.052,0.383 0.003,0.029 0.017,0.287 10e-4,0.025 -0.002,0.284 -10e-4,0.024 -0.02,0.279 -0.003,0.024 -0.038,0.272 -0.743,-0.104 0.038,-0.272 -0.002,0.025 0.02,-0.278 -10e-4,0.025 0.002,-0.284 0.001,0.025 -0.017,-0.288 0.002,0.029 -0.052,-0.383 0.006,0.033 -0.085,-0.368 0.009,0.032 -0.114,-0.353 0.011,0.031 -0.143,-0.335 0.015,0.031 -0.17,-0.316 0.018,0.029 -0.194,-0.295 0.02,0.028 -0.217,-0.272 0.023,0.026 -0.238,-0.247 0.026,0.025 -0.257,-0.221 0.029,0.022 -0.274,-0.193 0.031,0.02 -0.289,-0.163 0.035,0.018 -0.304,-0.132 0.038,0.014 -0.315,-0.098 0.04,0.01 -0.325,-0.063 0.042,0.005 -0.333,-0.026 0.043,0.001 -0.339,0.011 0.043,-0.003 -0.336,0.05 0.042,-0.009 -0.323,0.088 0.041,-0.014 -0.308,0.122 0.037,-0.017 -0.291,0.154 0.034,-0.02 -0.274,0.185 0.031,-0.024 -0.255,0.214 0.028,-0.026 -0.234,0.24 0.024,-0.027 -0.212,0.264 0.021,-0.029 -0.188,0.287 0.017,-0.03 -0.163,0.307 0.015,-0.031 -0.137,0.325 0.012,-0.031 -0.109,0.341 0.009,-0.032 -0.079,0.355 0.006,-0.033 -0.048,0.368 0.003,-0.033 -0.016,0.378 0,-0.034 0.018,0.386 -0.002,-0.032 0.047,0.355 -0.005,-0.03 0.075,0.344 -0.732,0.161"
             style="fill:#000000;fill-opacity:1;fill-rule:nonzero;stroke:none"
             id="path366"
             inkscape:connector-curvature="0" /></g><g
           id="g368"><path
             d="M 659.5,315.315 485.803,45.592 l 0.504,-0.325 173.697,269.723 -0.504,0.325"
             style="fill:#000000;fill-opacity:1;fill-rule:nonzero;stroke:none"
             id="path370"
             inkscape:connector-curvature="0" /></g><g
           id="g372"><path
             d="m 524.714,104.627 -14.174,10.632 0.36,0.48 14.174,-10.632 -0.36,-0.48"
             style="fill:#000000;fill-opacity:1;fill-rule:nonzero;stroke:none"
             id="path374"
             inkscape:connector-curvature="0" /></g><g
           id="g376"><path
             d="m 548.622,234.242 38.371,0.044 0,0.6 -38.372,-0.044 10e-4,-0.6"
             style="fill:#000000;fill-opacity:1;fill-rule:nonzero;stroke:none"
             id="path378"
             inkscape:connector-curvature="0" /></g><g
           id="g380"><path
             d="m 600.988,223.714 -14.175,10.632 0.36,0.48 14.175,-10.632 -0.36,-0.48"
             style="fill:#000000;fill-opacity:1;fill-rule:nonzero;stroke:none"
             id="path382"
             inkscape:connector-curvature="0" /></g><g
           id="g384"><path
             d="m 497.287,154.035 38.372,0.044 -10e-4,0.6 -38.372,-0.044 10e-4,-0.6"
             style="fill:#000000;fill-opacity:1;fill-rule:nonzero;stroke:none"
             id="path386"
             inkscape:connector-curvature="0" /></g><g
           id="g388"><path
             d="m 549.654,143.507 -14.175,10.632 0.36,0.48 14.175,-10.632 -0.36,-0.48"
             style="fill:#000000;fill-opacity:1;fill-rule:nonzero;stroke:none"
             id="path390"
             inkscape:connector-curvature="0" /></g><g
           id="g392"><path
             d="m 580.412,198.467 -0.076,-0.344 -0.005,-0.031 -0.048,-0.355 -0.003,-0.032 -0.018,-0.386 0,-0.033 0.015,-0.378 0.003,-0.033 0.048,-0.368 0.006,-0.032 0.079,-0.356 0.008,-0.032 0.109,-0.342 0.012,-0.031 0.136,-0.325 0.015,-0.031 0.163,-0.307 0.018,-0.03 0.188,-0.286 0.021,-0.029 0.212,-0.264 0.024,-0.028 0.234,-0.24 0.028,-0.025 0.254,-0.213 0.031,-0.024 0.274,-0.185 0.035,-0.02 0.291,-0.155 0.038,-0.017 0.307,-0.122 0.04,-0.013 0.323,-0.088 0.042,-0.008 0.336,-0.051 0.042,-0.004 0.34,-0.012 0.043,0.001 0.333,0.027 0.041,0.005 0.325,0.064 0.04,0.01 0.315,0.098 0.038,0.014 0.303,0.132 0.035,0.017 0.289,0.163 0.032,0.02 0.274,0.193 0.029,0.022 0.257,0.221 0.025,0.024 0.238,0.248 0.023,0.026 0.217,0.271 0.02,0.028 0.194,0.294 0.017,0.029 0.17,0.316 0.014,0.03 0.143,0.335 0.012,0.031 0.114,0.353 0.009,0.032 0.085,0.369 0.006,0.032 0.052,0.383 0.003,0.029 0.017,0.288 10e-4,0.024 -0.002,0.284 -10e-4,0.024 -0.02,0.279 -0.003,0.024 -0.038,0.272 -0.743,-0.103 0.038,-0.273 -0.002,0.025 0.02,-0.278 -0.001,0.025 0.002,-0.284 10e-4,0.025 -0.017,-0.288 0.002,0.029 -0.052,-0.382 0.006,0.032 -0.085,-0.368 0.009,0.032 -0.115,-0.353 0.012,0.032 -0.143,-0.335 0.015,0.03 -0.17,-0.316 0.018,0.029 -0.194,-0.294 0.02,0.027 -0.217,-0.272 0.023,0.027 -0.238,-0.248 0.026,0.025 -0.257,-0.221 0.029,0.022 -0.274,-0.193 0.031,0.021 -0.289,-0.164 0.034,0.018 -0.303,-0.132 0.038,0.014 -0.315,-0.098 0.04,0.01 -0.325,-0.063 0.042,0.005 -0.333,-0.026 0.043,0.001 -0.339,0.012 0.042,-0.004 -0.335,0.05 0.042,-0.009 -0.323,0.088 0.04,-0.014 -0.307,0.122 0.037,-0.017 -0.291,0.154 0.034,-0.02 -0.274,0.185 0.031,-0.024 -0.255,0.214 0.028,-0.026 -0.234,0.24 0.024,-0.027 -0.212,0.264 0.021,-0.029 -0.188,0.287 0.017,-0.03 -0.163,0.307 0.015,-0.031 -0.137,0.325 0.012,-0.031 -0.109,0.341 0.009,-0.032 -0.079,0.355 0.006,-0.033 -0.048,0.368 0.002,-0.033 -0.015,0.378 0,-0.034 0.018,0.386 -0.003,-0.032 0.048,0.356 -0.005,-0.031 0.075,0.344 -0.732,0.161"
             style="fill:#000000;fill-opacity:1;fill-rule:nonzero;stroke:none"
             id="path394"
             inkscape:connector-curvature="0" /></g><text
           transform="translate(532.8,103.75)"
           style="font-variant:normal;font-weight:normal;font-stretch:normal;font-size:9.94999981px;font-family:Euphemia;-inkscape-font-specification:EuphemiaCAS;writing-mode:lr-tb;fill:#000000;fill-opacity:1;fill-rule:nonzero;stroke:none"
           id="text396"><tspan
             x="0 6.6500001 12.35 15.45 18.549999 24.1 27.75 30.15 35.849998 40.900002 44.049999 49.900002 55.75 61.599998 67.449997"
             y="0"
             sodipodi:role="line"
             id="tspan398">Dufferin (1975)</tspan></text>
<g
           id="g400"><path
             d="m 524.525,105.168 118.859,0 0,0.6 -118.859,0 0,-0.6 z"
             style="fill:#000000;fill-opacity:1;fill-rule:nonzero;stroke:none"
             id="path402"
             inkscape:connector-curvature="0" /></g><g
           id="g404"><path
             d="m 600.182,223.059 61.807,0 0,0.6 -61.807,0 0,-0.6 z"
             style="fill:#000000;fill-opacity:1;fill-rule:nonzero;stroke:none"
             id="path406"
             inkscape:connector-curvature="0" /></g><text
           transform="translate(608.574,221.71)"
           style="font-variant:normal;font-weight:normal;font-stretch:normal;font-size:9.94999981px;font-family:Euphemia;-inkscape-font-specification:EuphemiaCAS;writing-mode:lr-tb;fill:#000000;fill-opacity:1;fill-rule:nonzero;stroke:none"
           id="text408"><tspan
             x="0 7.75 13 19.65 23.299999 28.85 34.400002 40.450001"
             y="0"
             sodipodi:role="line"
             id="tspan410">McGregor</tspan></text>
<text
           transform="translate(608.574,233.71)"
           style="font-variant:normal;font-weight:normal;font-stretch:normal;font-size:9.94999981px;font-family:Euphemia;-inkscape-font-specification:EuphemiaCAS;writing-mode:lr-tb;fill:#000000;fill-opacity:1;fill-rule:nonzero;stroke:none"
           id="text412"><tspan
             x="0 3.1500001 9 14.85 20.700001 26.549999"
             y="0"
             sodipodi:role="line"
             id="tspan414">(1981)</tspan></text>
<g
           id="g416"><path
             d="m 549.084,143.808 56.071,0 0,0.6 -56.071,0 0,-0.6 z"
             style="fill:#000000;fill-opacity:1;fill-rule:nonzero;stroke:none"
             id="path418"
             inkscape:connector-curvature="0" /></g><g
           id="g420"><path
             d="m 633.843,187.985 -28.938,-43.712 0.5,-0.331 28.938,43.712 -0.5,0.331"
             style="fill:#000000;fill-opacity:1;fill-rule:nonzero;stroke:none"
             id="path422"
             inkscape:connector-curvature="0" /></g><g
           id="g424"><path
             d="m 634.43,187.704 21.207,0 0,0.6 -21.207,0 0,-0.6 z"
             style="fill:#000000;fill-opacity:1;fill-rule:nonzero;stroke:none"
             id="path426"
             inkscape:connector-curvature="0" /></g><g
           id="g428"><path
             d="m 739.796,324.156 222.09,0.003 0,0.6 -222.09,-0.003 0,-0.6"
             style="fill:#000000;fill-opacity:1;fill-rule:nonzero;stroke:none"
             id="path430"
             inkscape:connector-curvature="0" /></g><g
           id="g432"><path
             d="m 731.763,242.154 97.285,-0.057 0,-0.6 -97.285,0.057 0,0.6"
             style="fill:#000000;fill-opacity:1;fill-rule:nonzero;stroke:none"
             id="path434"
             inkscape:connector-curvature="0" /></g><g
           id="g436"><path
             d="m 724.963,242.123 -0.075,-0.344 -0.006,-0.031 -0.047,-0.355 -0.003,-0.032 -0.019,-0.386 0,-0.033 0.016,-0.378 0.002,-0.033 0.048,-0.368 0.006,-0.033 0.079,-0.355 0.009,-0.032 0.109,-0.342 0.011,-0.031 0.137,-0.326 0.014,-0.03 0.164,-0.307 0.017,-0.03 0.189,-0.287 0.021,-0.028 0.211,-0.265 0.025,-0.027 0.234,-0.24 0.027,-0.025 0.255,-0.214 0.031,-0.023 0.274,-0.185 0.034,-0.021 0.292,-0.154 0.037,-0.017 0.308,-0.122 0.04,-0.013 0.322,-0.088 0.042,-0.009 0.336,-0.05 0.043,-0.004 0.339,-0.012 0.043,0.001 0.333,0.027 0.042,0.005 0.325,0.064 0.04,0.01 0.315,0.098 0.037,0.014 0.303,0.132 0.035,0.017 0.29,0.163 0.032,0.02 0.274,0.193 0.028,0.022 0.257,0.221 0.026,0.024 0.238,0.247 0.023,0.026 0.216,0.272 0.02,0.028 0.194,0.294 0.018,0.029 0.169,0.316 0.015,0.03 0.142,0.335 0.012,0.031 0.115,0.353 0.009,0.032 0.084,0.368 0.006,0.033 0.053,0.383 0.003,0.029 0.017,0.287 0,0.025 -10e-4,0.284 -10e-4,0.024 -0.021,0.279 -0.002,0.024 -0.038,0.272 -0.743,-0.104 0.038,-0.272 -0.003,0.025 0.021,-0.278 -10e-4,0.024 10e-4,-0.283 0.001,0.025 -0.017,-0.288 0.003,0.029 -0.053,-0.383 0.006,0.033 -0.084,-0.368 0.009,0.032 -0.115,-0.353 0.012,0.031 -0.143,-0.335 0.014,0.031 -0.169,-0.316 0.017,0.029 -0.194,-0.295 0.02,0.028 -0.217,-0.272 0.023,0.026 -0.238,-0.247 0.026,0.025 -0.257,-0.221 0.029,0.022 -0.274,-0.193 0.032,0.02 -0.29,-0.163 0.035,0.018 -0.303,-0.132 0.037,0.014 -0.315,-0.098 0.04,0.01 -0.324,-0.064 0.041,0.006 -0.333,-0.026 0.043,0.001 -0.339,0.011 0.043,-0.004 -0.336,0.051 0.042,-0.009 -0.322,0.088 0.04,-0.014 -0.308,0.122 0.038,-0.017 -0.292,0.154 0.035,-0.02 -0.274,0.185 0.031,-0.024 -0.255,0.214 0.027,-0.026 -0.234,0.24 0.025,-0.027 -0.212,0.264 0.02,-0.029 -0.188,0.287 0.018,-0.03 -0.163,0.307 0.014,-0.031 -0.136,0.325 0.011,-0.031 -0.108,0.341 0.008,-0.032 -0.079,0.355 0.006,-0.033 -0.048,0.368 0.003,-0.033 -0.015,0.378 -10e-4,-0.034 0.019,0.386 -0.003,-0.032 0.048,0.355 -0.006,-0.03 0.076,0.344 -0.733,0.161"
             style="fill:#000000;fill-opacity:1;fill-rule:nonzero;stroke:none"
             id="path438"
             inkscape:connector-curvature="0" /></g><g
           id="g440"><path
             d="m 768.039,307.315 -125.895,-202.526 0.51,-0.317 125.894,202.527 -0.509,0.316"
             style="fill:#000000;fill-opacity:1;fill-rule:nonzero;stroke:none"
             id="path442"
             inkscape:connector-curvature="0" /></g><g
           id="g444"><path
             d="m 634.25,187.764 -14.175,10.632 0.36,0.48 14.175,-10.632 -0.36,-0.48"
             style="fill:#000000;fill-opacity:1;fill-rule:nonzero;stroke:none"
             id="path446"
             inkscape:connector-curvature="0" /></g><g
           id="g448"><path
             d="m 739.54,324.617 -84.158,-136.64 0.51,-0.315 84.159,136.64 -0.511,0.315"
             style="fill:#000000;fill-opacity:1;fill-rule:nonzero;stroke:none"
             id="path450"
             inkscape:connector-curvature="0" /></g><g
           id="g452"><path
             d="m 659.572,316.136 -25.322,19.004 0.36,0.48 25.322,-19.004 -0.36,-0.48"
             style="fill:#000000;fill-opacity:1;fill-rule:nonzero;stroke:none"
             id="path454"
             inkscape:connector-curvature="0" /></g><g
           id="g456"><path
             d="m 393.65,126.058 -14.175,-10.631 0.36,-0.48 14.175,10.631 -0.36,0.48"
             style="fill:#000000;fill-opacity:1;fill-rule:nonzero;stroke:none"
             id="path458"
             inkscape:connector-curvature="0" /></g><g
           id="g460"><path
             d="m 393.65,125.578 -14.175,10.631 0.36,0.48 14.175,-10.631 -0.36,-0.48"
             style="fill:#000000;fill-opacity:1;fill-rule:nonzero;stroke:none"
             id="path462"
             inkscape:connector-curvature="0" /></g><g
           id="g464"><path
             d="m 440.292,198.949 -18.799,-13.338 0.347,-0.49 18.799,13.339 -0.347,0.489"
             style="fill:#000000;fill-opacity:1;fill-rule:nonzero;stroke:none"
             id="path466"
             inkscape:connector-curvature="0" /></g><g
           id="g468"><path
             d="m 674.831,241.436 -14.175,10.631 0.36,0.48 14.174,-10.631 -0.359,-0.48"
             style="fill:#000000;fill-opacity:1;fill-rule:nonzero;stroke:none"
             id="path470"
             inkscape:connector-curvature="0" /></g><g
           id="g472"><path
             d="m 350.474,46.507 -13.83,-10.159 0.444,-0.604 13.83,10.158 -0.444,0.605 z m 0.888,-1.209 -13.83,-10.159 0.444,-0.604 13.83,10.158 -0.444,0.605 z m 0.444,-0.605 -1.332,1.814 1.332,-1.814 z m -15.162,-8.345 1.332,-1.813 -1.332,1.813"
             style="fill:#000000;fill-opacity:1;fill-rule:nonzero;stroke:none"
             id="path474"
             inkscape:connector-curvature="0" /></g><g
           id="g476"><path
             d="m 618.999,252.158 41.837,0.014 -10e-4,0.6 -41.836,-0.014 0,-0.6"
             style="fill:#000000;fill-opacity:1;fill-rule:nonzero;stroke:none"
             id="path478"
             inkscape:connector-curvature="0" /></g><g
           id="g480"><path
             d="m 541.487,262.643 63.827,0 0,0.6 -63.827,0 0,-0.6"
             style="fill:#000000;fill-opacity:1;fill-rule:nonzero;stroke:none"
             id="path482"
             inkscape:connector-curvature="0" /></g><text
           transform="translate(539.562,261.897)"
           style="font-variant:normal;font-weight:normal;font-stretch:normal;font-size:9.94999981px;font-family:Euphemia;-inkscape-font-specification:EuphemiaCAS;writing-mode:lr-tb;fill:#000000;fill-opacity:1;fill-rule:nonzero;stroke:none"
           id="text484"><tspan
             x="0"
             y="0"
             id="tspan486">A</tspan></text>
<text
           transform="translate(550.862,261.897)"
           style="font-variant:normal;font-weight:normal;font-stretch:normal;font-size:9.94999981px;font-family:Euphemia;-inkscape-font-specification:EuphemiaCAS;writing-mode:lr-tb;fill:#000000;fill-opacity:1;fill-rule:nonzero;stroke:none"
           id="text488"><tspan
             x="0 5.6500001 8.0500002 13.6 19.25 24.299999 30.35 32.75 35.25 40.299999 42.799999 45.200001 50.900002"
             y="0"
             sodipodi:role="line"
             id="tspan490">high oil line</tspan></text>
<text
           transform="translate(625.202,251.151)"
           style="font-variant:normal;font-weight:normal;font-stretch:normal;font-size:9.94999981px;font-family:Euphemia;-inkscape-font-specification:EuphemiaCAS;writing-mode:lr-tb;fill:#000000;fill-opacity:1;fill-rule:nonzero;stroke:none"
           id="text492"><tspan
             x="0 7.75 13.6 19.450001"
             y="0"
             sodipodi:role="line"
             id="tspan494">M427</tspan></text>
<g
           id="g496"><path
             d="m 619.309,252.232 -14.175,10.631 0.36,0.48 14.175,-10.631 -0.36,-0.48"
             style="fill:#000000;fill-opacity:1;fill-rule:nonzero;stroke:none"
             id="path498"
             inkscape:connector-curvature="0" /></g><g
           id="g500"><path
             d="m 659.753,316.076 71.01,0.227 -0.002,0.6 -71.01,-0.227 0.002,-0.6"
             style="fill:#000000;fill-opacity:1;fill-rule:nonzero;stroke:none"
             id="path502"
             inkscape:connector-curvature="0" /></g><text
           transform="translate(779.626,304.533)"
           style="font-variant:normal;font-weight:normal;font-stretch:normal;font-size:9.94999981px;font-family:Euphemia;-inkscape-font-specification:EuphemiaCAS;writing-mode:lr-tb;fill:#000000;fill-opacity:1;fill-rule:nonzero;stroke:none"
           id="text504"><tspan
             x="0 5.1500001 10.8 16.65 22.5"
             y="0"
             sodipodi:role="line"
             id="tspan506">FP766</tspan></text>
<text
           transform="translate(748.45,241.282)"
           style="font-variant:normal;font-weight:normal;font-stretch:normal;font-size:9.94999981px;font-family:Euphemia;-inkscape-font-specification:EuphemiaCAS;writing-mode:lr-tb;fill:#000000;fill-opacity:1;fill-rule:nonzero;stroke:none"
           id="text508"><tspan
             x="0 5.1500001 10.8 16.65 22.5"
             y="0"
             sodipodi:role="line"
             id="tspan510">FP775</tspan></text>
<g
           id="g512"><path
             d="m 768.113,305.98 -14.175,10.631 0.36,0.48 14.175,-10.631 -0.36,-0.48"
             style="fill:#000000;fill-opacity:1;fill-rule:nonzero;stroke:none"
             id="path514"
             inkscape:connector-curvature="0" /></g><g
           id="g516"><path
             d="m 730.396,316.683 -0.076,-0.344 -0.005,-0.03 -0.048,-0.356 -0.003,-0.031 -0.018,-0.386 0,-0.034 0.015,-0.377 0.003,-0.034 0.048,-0.367 0.006,-0.033 0.079,-0.356 0.008,-0.032 0.109,-0.341 0.012,-0.032 0.136,-0.325 0.015,-0.031 0.163,-0.307 0.018,-0.03 0.188,-0.286 0.021,-0.029 0.212,-0.264 0.024,-0.027 0.234,-0.24 0.028,-0.026 0.254,-0.213 0.031,-0.023 0.274,-0.185 0.035,-0.021 0.291,-0.154 0.038,-0.018 0.307,-0.122 0.04,-0.013 0.323,-0.087 0.042,-0.009 0.336,-0.051 0.042,-0.004 0.34,-0.011 0.043,0 0.333,0.027 0.041,0.006 0.325,0.063 0.04,0.01 0.315,0.099 0.038,0.014 0.303,0.131 0.035,0.017 0.289,0.163 0.032,0.02 0.274,0.193 0.029,0.023 0.257,0.22 0.025,0.025 0.238,0.247 0.023,0.026 0.217,0.272 0.02,0.027 0.194,0.295 0.017,0.029 0.17,0.315 0.014,0.031 0.143,0.335 0.012,0.031 0.114,0.352 0.009,0.032 0.085,0.369 0.006,0.033 0.052,0.382 0.003,0.029 0.017,0.288 10e-4,0.025 -0.002,0.283 -10e-4,0.025 -0.02,0.278 -0.003,0.025 -0.038,0.272 -0.743,-0.104 0.038,-0.272 -0.002,0.024 0.02,-0.278 -10e-4,0.025 0.002,-0.283 0.001,0.024 -0.017,-0.287 0.002,0.029 -0.052,-0.383 0.006,0.033 -0.085,-0.369 0.009,0.032 -0.115,-0.352 0.012,0.031 -0.143,-0.335 0.015,0.03 -0.17,-0.316 0.018,0.029 -0.194,-0.294 0.02,0.027 -0.217,-0.271 0.023,0.026 -0.238,-0.247 0.026,0.024 -0.257,-0.221 0.029,0.023 -0.274,-0.193 0.031,0.02 -0.289,-0.163 0.034,0.017 -0.303,-0.131 0.038,0.014 -0.315,-0.099 0.04,0.01 -0.325,-0.063 0.042,0.006 -0.333,-0.027 0.043,10e-4 -0.339,0.012 0.042,-0.004 -0.335,0.051 0.042,-0.009 -0.323,0.087 0.04,-0.013 -0.307,0.122 0.037,-0.018 -0.291,0.155 0.034,-0.021 -0.274,0.185 0.031,-0.023 -0.255,0.213 0.028,-0.025 -0.234,0.24 0.024,-0.028 -0.212,0.264 0.021,-0.028 -0.188,0.286 0.017,-0.029 -0.163,0.306 0.015,-0.03 -0.137,0.325 0.012,-0.032 -0.109,0.341 0.009,-0.032 -0.079,0.356 0.006,-0.033 -0.048,0.368 0.002,-0.034 -0.015,0.378 0,-0.033 0.018,0.386 -0.003,-0.032 0.048,0.355 -0.005,-0.031 0.075,0.345 -0.732,0.16"
             style="fill:#000000;fill-opacity:1;fill-rule:nonzero;stroke:none"
             id="path518"
             inkscape:connector-curvature="0" /></g><g
           id="g520"><path
             d="m 767.543,306.326 84.551,0.312 -0.003,0.6 -84.55,-0.312 0.002,-0.6"
             style="fill:#000000;fill-opacity:1;fill-rule:nonzero;stroke:none"
             id="path522"
             inkscape:connector-curvature="0" /></g><g
           id="g524"><path
             d="m 739.616,324.216 -14.175,10.631 0.36,0.48 14.175,-10.631 -0.36,-0.48"
             style="fill:#000000;fill-opacity:1;fill-rule:nonzero;stroke:none"
             id="path526"
             inkscape:connector-curvature="0" /></g><g
           id="g528"><path
             d="m 685.204,242.073 -0.076,-0.345 -0.005,-0.03 -0.048,-0.355 -0.003,-0.032 -0.018,-0.386 0,-0.033 0.015,-0.378 0.003,-0.033 0.048,-0.368 0.006,-0.033 0.079,-0.355 0.009,-0.033 0.108,-0.341 0.012,-0.032 0.136,-0.325 0.015,-0.031 0.163,-0.306 0.018,-0.03 0.188,-0.287 0.021,-0.029 0.212,-0.264 0.024,-0.027 0.234,-0.24 0.028,-0.025 0.254,-0.214 0.031,-0.023 0.274,-0.185 0.035,-0.021 0.291,-0.154 0.038,-0.017 0.307,-0.122 0.04,-0.014 0.323,-0.087 0.042,-0.009 0.336,-0.05 0.042,-0.004 0.34,-0.012 0.043,0.001 0.333,0.026 0.041,0.006 0.325,0.063 0.04,0.01 0.315,0.099 0.038,0.014 0.303,0.131 0.035,0.018 0.289,0.163 0.032,0.02 0.274,0.192 0.029,0.023 0.257,0.221 0.026,0.024 0.237,0.247 0.023,0.026 0.217,0.272 0.02,0.028 0.194,0.294 0.017,0.029 0.17,0.316 0.014,0.03 0.143,0.335 0.012,0.031 0.114,0.353 0.009,0.032 0.085,0.368 0.006,0.033 0.052,0.383 0.003,0.028 0.017,0.288 0.001,0.025 -0.002,0.283 -10e-4,0.025 -0.02,0.278 -0.003,0.025 -0.038,0.272 -0.743,-0.104 0.038,-0.272 -0.002,0.025 0.02,-0.279 -10e-4,0.025 0.002,-0.283 10e-4,0.025 -0.017,-0.288 0.002,0.029 -0.052,-0.383 0.006,0.033 -0.085,-0.369 0.009,0.033 -0.114,-0.353 0.011,0.031 -0.143,-0.335 0.015,0.03 -0.17,-0.315 0.018,0.029 -0.194,-0.295 0.02,0.028 -0.217,-0.272 0.023,0.026 -0.238,-0.247 0.026,0.024 -0.257,-0.221 0.029,0.023 -0.274,-0.193 0.031,0.02 -0.289,-0.163 0.034,0.017 -0.303,-0.131 0.038,0.014 -0.315,-0.099 0.04,0.011 -0.325,-0.064 0.042,0.006 -0.333,-0.027 0.043,0.001 -0.339,0.012 0.043,-0.004 -0.336,0.051 0.042,-0.009 -0.323,0.087 0.041,-0.013 -0.308,0.122 0.037,-0.017 -0.291,0.154 0.034,-0.021 -0.274,0.185 0.031,-0.023 -0.255,0.213 0.028,-0.025 -0.234,0.24 0.024,-0.028 -0.212,0.265 0.021,-0.029 -0.188,0.287 0.017,-0.03 -0.163,0.307 0.015,-0.031 -0.137,0.325 0.012,-0.032 -0.109,0.342 0.009,-0.033 -0.079,0.356 0.006,-0.033 -0.048,0.368 0.002,-0.033 -0.015,0.377 0,-0.033 0.018,0.386 -0.002,-0.032 0.047,0.355 -0.005,-0.03 0.075,0.344 -0.732,0.161"
             style="fill:#000000;fill-opacity:1;fill-rule:nonzero;stroke:none"
             id="path530"
             inkscape:connector-curvature="0" /></g><g
           id="g532"><path
             d="m 879.292,332.779 -11.021,-8.078 0.355,-0.484 11.021,8.078 -0.355,0.484"
             style="fill:#000000;fill-opacity:1;fill-rule:nonzero;stroke:none"
             id="path534"
             inkscape:connector-curvature="0" /></g><g
           id="g536"><path
             d="m 879.3,332.297 -10.915,8.11 0.358,0.482 10.915,-8.111 -0.358,-0.481"
             style="fill:#000000;fill-opacity:1;fill-rule:nonzero;stroke:none"
             id="path538"
             inkscape:connector-curvature="0" /></g><text
           transform="translate(841.694,339.883)"
           style="font-variant:normal;font-weight:normal;font-stretch:normal;font-size:9.94999981px;font-family:Euphemia;-inkscape-font-specification:EuphemiaCAS;writing-mode:lr-tb;fill:#000000;fill-opacity:1;fill-rule:nonzero;stroke:none"
           id="text540"><tspan
             x="0 5.4000001 10.95 14.6"
             y="0"
             sodipodi:role="line"
             id="tspan542">Zero</tspan></text>
<g
           id="g544"><path
             d="m 830.461,340.243 38.831,0.001 0,0.6 -38.831,-10e-4 0,-0.6"
             style="fill:#000000;fill-opacity:1;fill-rule:nonzero;stroke:none"
             id="path546"
             inkscape:connector-curvature="0" /></g><text
           transform="translate(779.659,348.91)"
           style="font-variant:normal;font-weight:normal;font-stretch:normal;font-size:9.94999981px;font-family:Euphemia;-inkscape-font-specification:EuphemiaCAS;writing-mode:lr-tb;fill:#000000;fill-opacity:1;fill-rule:nonzero;stroke:#000000;stroke-width:0.28457001;stroke-linecap:square;stroke-linejoin:bevel;stroke-miterlimit:2;stroke-dasharray:none;stroke-opacity:1"
           id="text548"><tspan
             x="0 6.6999998 9.25 14.85 20.6 26.200001 28.75"
             y="0"
             sodipodi:role="line"
             id="tspan550">Glenelg</tspan></text>
<g
           id="g552"><path
             d="m 775.209,352.447 44.029,-0.17 -0.002,-0.6 -44.029,0.17 0.002,0.6"
             style="fill:#000000;fill-opacity:1;fill-rule:nonzero;stroke:none"
             id="path554"
             inkscape:connector-curvature="0" /></g><g
           id="g556"><path
             d="m 830.127,340.345 -12.494,9.694 0.562,0.724 12.494,-9.694 -0.562,-0.724 z m 1.123,1.448 -12.494,9.694 0.562,0.724 12.494,-9.693 -0.562,-0.725 z m 0.562,0.725 -1.685,-2.173 1.685,2.173 z m -14.179,7.521 1.685,2.172 -1.685,-2.172"
             style="fill:#000000;fill-opacity:1;fill-rule:nonzero;stroke:none"
             id="path558"
             inkscape:connector-curvature="0" /></g><text
           transform="translate(886,348.15)"
           style="font-variant:normal;font-weight:normal;font-stretch:normal;font-size:9.94999981px;font-family:Euphemia;-inkscape-font-specification:EuphemiaCAS;writing-mode:lr-tb;fill:#000000;fill-opacity:1;fill-rule:nonzero;stroke:#000000;stroke-width:0.28457001;stroke-linecap:square;stroke-linejoin:bevel;stroke-miterlimit:2;stroke-dasharray:none;stroke-opacity:1"
           id="text560"><tspan
             x="0 6.6999998 12.4 14.75 20.65 26.549999 32.450001 38.349998"
             y="0"
             sodipodi:role="line"
             id="tspan562">CPI84495</tspan></text>
<g
           id="g564"><path
             d="m 878.829,332.237 51.059,0.209 -0.002,0.6 -51.06,-0.209 0.003,-0.6"
             style="fill:#000000;fill-opacity:1;fill-rule:nonzero;stroke:none"
             id="path566"
             inkscape:connector-curvature="0" /></g><g
           id="g568"><path
             d="m 880.89,348.546 48.975,0 0,0.6 -48.975,0 0,-0.6 z"
             style="fill:#000000;fill-opacity:1;fill-rule:nonzero;stroke:none"
             id="path570"
             inkscape:connector-curvature="0" /></g><g
           id="g572"><path
             d="m 940.73,341.049 -11.02,-8.079 0.354,-0.483 11.021,8.078 -0.355,0.484"
             style="fill:#000000;fill-opacity:1;fill-rule:nonzero;stroke:none"
             id="path574"
             inkscape:connector-curvature="0" /></g><g
           id="g576"><path
             d="m 940.739,340.566 -10.916,8.111 0.358,0.481 10.915,-8.11 -0.357,-0.482"
             style="fill:#000000;fill-opacity:1;fill-rule:nonzero;stroke:none"
             id="path578"
             inkscape:connector-curvature="0" /></g><g
           id="g580"><path
             d="m 940.394,340.412 21.493,0.095 -0.003,0.6 -21.493,-0.095 0.003,-0.6"
             style="fill:#000000;fill-opacity:1;fill-rule:nonzero;stroke:none"
             id="path582"
             inkscape:connector-curvature="0" /></g><g
           id="g584"><path
             d="m 972.536,332.319 -10.827,-7.863 0.353,-0.486 10.827,7.864 -0.353,0.485"
             style="fill:#000000;fill-opacity:1;fill-rule:nonzero;stroke:none"
             id="path586"
             inkscape:connector-curvature="0" /></g><g
           id="g588"><path
             d="m 972.528,331.84 -10.827,8.466 0.369,0.473 10.827,-8.466 -0.369,-0.473"
             style="fill:#000000;fill-opacity:1;fill-rule:nonzero;stroke:none"
             id="path590"
             inkscape:connector-curvature="0" /></g><text
           transform="translate(985.712,346.111)"
           style="font-variant:normal;font-weight:normal;font-stretch:normal;font-size:8.05000019px;font-family:Euphemia;-inkscape-font-specification:EuphemiaCAS;writing-mode:lr-tb;fill:#000000;fill-opacity:1;fill-rule:nonzero;stroke:none"
           id="text592"><tspan
             x="0"
             y="0"
             id="tspan594">3</tspan></text>
<g
           id="g596"><path
             d="m 674.764,241.968 -13.022,-18.831 0.494,-0.341 13.021,18.831 -0.493,0.341"
             style="fill:#000000;fill-opacity:1;fill-rule:nonzero;stroke:none"
             id="path598"
             inkscape:connector-curvature="0" /></g><g
           id="g600"><path
             d="m 865.18,296.593 -36.383,-55.104 0.501,-0.33 36.383,55.104 -0.501,0.33"
             style="fill:#000000;fill-opacity:1;fill-rule:nonzero;stroke:none"
             id="path602"
             inkscape:connector-curvature="0" /></g><g
           id="g604"><path
             d="m 865.251,295.905 -14.175,10.631 0.36,0.48 14.175,-10.631 -0.36,-0.48"
             style="fill:#000000;fill-opacity:1;fill-rule:nonzero;stroke:none"
             id="path606"
             inkscape:connector-curvature="0" /></g><g
           id="g608"><path
             d="m 972.492,331.531 15.314,0 0,0.6 -15.314,0 0,-0.6 z"
             style="fill:#000000;fill-opacity:1;fill-rule:nonzero;stroke:none"
             id="path610"
             inkscape:connector-curvature="0" /></g><text
           transform="translate(1000.344,345.737)"
           style="font-variant:normal;font-weight:normal;font-stretch:normal;font-size:9.94999981px;font-family:Euphemia;-inkscape-font-specification:EuphemiaCAS;writing-mode:lr-tb;fill:#000000;fill-opacity:1;fill-rule:nonzero;stroke:none"
           id="text612"><tspan
             x="0 5.9000001 11.55 17.4 23.25"
             y="0"
             sodipodi:role="line"
             id="tspan614">SP992</tspan></text>
<g
           id="g616"><path
             d="m 992.698,346.051 -10.357,-29.1 0.565,-0.201 10.358,29.1 -0.566,0.201"
             style="fill:#000000;fill-opacity:1;fill-rule:nonzero;stroke:none"
             id="path618"
             inkscape:connector-curvature="0" /></g><g
           id="g620"><path
             d="m 992.981,345.65 116.222,0 0,0.6 -116.222,0 0,-0.6 z"
             style="fill:#000000;fill-opacity:1;fill-rule:nonzero;stroke:none"
             id="path622"
             inkscape:connector-curvature="0" /></g><g
           id="g624"><path
             d="m 982.948,316.921 54.671,0 0,0.6 -54.671,0 0,-0.6 z"
             style="fill:#000000;fill-opacity:1;fill-rule:nonzero;stroke:none"
             id="path626"
             inkscape:connector-curvature="0" /></g><g
           id="g628"><path
             d="m 865.431,295.845 172.189,0.142 -10e-4,0.6 -172.189,-0.142 0.001,-0.6"
             style="fill:#000000;fill-opacity:1;fill-rule:nonzero;stroke:none"
             id="path630"
             inkscape:connector-curvature="0" /></g><text
           transform="translate(886,291.7)"
           style="font-variant:normal;font-weight:normal;font-stretch:normal;font-size:9.94999981px;font-family:Euphemia;-inkscape-font-specification:EuphemiaCAS;writing-mode:lr-tb;fill:#000000;fill-opacity:1;fill-rule:nonzero;stroke:none"
           id="text632"><tspan
             x="0 6.25 12.9 17.950001 25.700001 30.950001 37.599998 43.299999 46.400002 49.5 54.549999 57.700001 63.549999 69.400002 75.25 81.099998"
             y="0"
             sodipodi:role="line"
             id="tspan634">AC McDuff (1993)</tspan></text>
<text
           transform="translate(990.15,316.45)"
           style="font-variant:normal;font-weight:normal;font-stretch:normal;font-size:9.94999981px;font-family:Euphemia;-inkscape-font-specification:EuphemiaCAS;writing-mode:lr-tb;fill:#000000;fill-opacity:1;fill-rule:nonzero;stroke:none"
           id="text636"><tspan
             x="0 5.8499999 11.7 15.35 21.200001 27.049999 32.900002"
             y="0"
             sodipodi:role="line"
             id="tspan638">90-5889</tspan></text>
<g
           id="g640"><path
             d="m 1050.832,306.983 -14.176,-10.631 0.36,-0.48 14.176,10.631 -0.36,0.48"
             style="fill:#000000;fill-opacity:1;fill-rule:nonzero;stroke:none"
             id="path642"
             inkscape:connector-curvature="0" /></g><g
           id="g644"><path
             d="m 1050.831,306.503 -14.175,10.631 0.36,0.48 14.176,-10.631 -0.361,-0.48"
             style="fill:#000000;fill-opacity:1;fill-rule:nonzero;stroke:none"
             id="path646"
             inkscape:connector-curvature="0" /></g><g
           id="g648"><path
             d="m 1050.929,306.443 49.308,0.033 -10e-4,0.6 -49.307,-0.033 0,-0.6"
             style="fill:#000000;fill-opacity:1;fill-rule:nonzero;stroke:none"
             id="path650"
             inkscape:connector-curvature="0" /></g><text
           transform="translate(1058.139,304.548)"
           style="font-variant:normal;font-weight:normal;font-stretch:normal;font-size:9.94999981px;font-family:Euphemia;-inkscape-font-specification:EuphemiaCAS;writing-mode:lr-tb;fill:#000000;fill-opacity:1;fill-rule:nonzero;stroke:none"
           id="text652"><tspan
             x="0 5.8499999 11.7 15.35 21.200001 27.049999 32.900002"
             y="0"
             sodipodi:role="line"
             id="tspan654">94-7889</tspan></text>
<g
           id="g656"><path
             d="m 1120.605,337.217 -11.579,8.491 0.354,0.484 11.58,-8.491 -0.355,-0.484"
             style="fill:#000000;fill-opacity:1;fill-rule:nonzero;stroke:none"
             id="path658"
             inkscape:connector-curvature="0" /></g><g
           id="g660"><path
             d="m 1120.797,337.63 -21.387,-30.881 0.493,-0.342 21.387,30.881 -0.493,0.342"
             style="fill:#000000;fill-opacity:1;fill-rule:nonzero;stroke:none"
             id="path662"
             inkscape:connector-curvature="0" /></g><g
           id="g664"><path
             d="m 1120.783,336.833 110.829,0 0,0.6 -110.829,0 0,-0.6 z"
             style="fill:#000000;fill-opacity:1;fill-rule:nonzero;stroke:none"
             id="path666"
             inkscape:connector-curvature="0" /></g><text
           transform="translate(1123.2,332.65)"
           style="font-variant:normal;font-weight:normal;font-stretch:normal;font-size:9.94999981px;font-family:Euphemia;-inkscape-font-specification:EuphemiaCAS;writing-mode:lr-tb;fill:#000000;fill-opacity:1;fill-rule:nonzero;stroke:#000000;stroke-width:0.28457001;stroke-linecap:square;stroke-linejoin:bevel;stroke-miterlimit:2;stroke-dasharray:none;stroke-opacity:1"
           id="text668"><tspan
             x="0 5.1999998 7.6500001 13.4 19.5 22.049999"
             y="0"
             sodipodi:role="line"
             id="tspan670">Linola</tspan></text>
<text
           transform="translate(1151,330.15)"
           style="font-variant:normal;font-weight:normal;font-stretch:normal;font-size:6.5px;font-family:Euphemia;-inkscape-font-specification:EuphemiaCAS;writing-mode:lr-tb;fill:#000000;fill-opacity:1;fill-rule:nonzero;stroke:#000000;stroke-width:0.1859;stroke-linecap:square;stroke-linejoin:bevel;stroke-miterlimit:2;stroke-dasharray:none;stroke-opacity:1"
           id="text672"><tspan
             x="0 3.9000001"
             y="0"
             sodipodi:role="line"
             id="tspan674">TM</tspan></text>
<text
           transform="translate(1165.1,332.65)"
           style="font-variant:normal;font-weight:normal;font-stretch:normal;font-size:9.94999981px;font-family:Euphemia;-inkscape-font-specification:EuphemiaCAS;writing-mode:lr-tb;fill:#000000;fill-opacity:1;fill-rule:nonzero;stroke:#000000;stroke-width:0.28457001;stroke-linecap:square;stroke-linejoin:bevel;stroke-miterlimit:2;stroke-dasharray:none;stroke-opacity:1"
           id="text676"><tspan
             x="0 5.9000001 11.8 17.700001 23.6 28.700001 31.9 37.799999 43.700001 49.599998 55.5"
             y="0"
             sodipodi:role="line"
             id="tspan678">2126 (2004)</tspan></text>
<text
           transform="translate(978.059,323.205)"
           style="font-variant:normal;font-weight:normal;font-stretch:normal;font-size:8.05000019px;font-family:Euphemia;-inkscape-font-specification:EuphemiaCAS;writing-mode:lr-tb;fill:#000000;fill-opacity:1;fill-rule:nonzero;stroke:none"
           id="text680"><tspan
             x="0"
             y="0"
             id="tspan682">2</tspan></text>
<g
           id="g684"><path
             d="m 528.174,198.087 52.133,0 0,0.6 -52.133,0 0,-0.6 z"
             style="fill:#000000;fill-opacity:1;fill-rule:nonzero;stroke:none"
             id="path686"
             inkscape:connector-curvature="0" /></g><g
           id="g688"><path
             d="m 586.994,198.267 33.263,0.137 -0.003,0.6 -33.262,-0.137 0.002,-0.6"
             style="fill:#000000;fill-opacity:1;fill-rule:nonzero;stroke:none"
             id="path690"
             inkscape:connector-curvature="0" /></g><g
           id="g692"><path
             d="m 692.127,241.904 32.826,-0.028 -10e-4,-0.6 -32.826,0.028 10e-4,0.6"
             style="fill:#000000;fill-opacity:1;fill-rule:nonzero;stroke:none"
             id="path694"
             inkscape:connector-curvature="0" /></g><g
           id="g696"><path
             d="m 674.865,242.183 10.234,0 0,-0.6 -10.234,0 0,0.6"
             style="fill:#000000;fill-opacity:1;fill-rule:nonzero;stroke:none"
             id="path698"
             inkscape:connector-curvature="0" /></g><g
           id="g700"><path
             d="m 737.199,316.115 16.922,0.16 -0.005,0.6 -16.923,-0.16 0.006,-0.6"
             style="fill:#000000;fill-opacity:1;fill-rule:nonzero;stroke:none"
             id="path702"
             inkscape:connector-curvature="0" /></g><text
           transform="translate(135.835,334.868)"
           style="font-variant:normal;font-weight:normal;font-stretch:normal;font-size:9.94999981px;font-family:Euphemia;-inkscape-font-specification:EuphemiaCAS;writing-mode:lr-tb;fill:#000000;fill-opacity:1;fill-rule:nonzero;stroke:#000000;stroke-width:0.28457001;stroke-linecap:square;stroke-linejoin:bevel;stroke-miterlimit:2;stroke-dasharray:none;stroke-opacity:1"
           id="text704"><tspan
             x="0 6.3000002 10 13.7 19.799999"
             y="0"
             sodipodi:role="line"
             id="tspan706">Arrow</tspan></text>
<g
           id="g708"><path
             d="m 197.165,347.567 -14.175,-10.631 0.36,-0.48 14.175,10.631 -0.36,0.48"
             style="fill:#000000;fill-opacity:1;fill-rule:nonzero;stroke:none"
             id="path710"
             inkscape:connector-curvature="0" /></g><g
           id="g712"><path
             d="M 197.175,347.087 183,357.718 l 0.36,0.48 14.175,-10.631 -0.36,-0.48"
             style="fill:#000000;fill-opacity:1;fill-rule:nonzero;stroke:none"
             id="path714"
             inkscape:connector-curvature="0" /></g><g
           id="g716"><path
             d="m 128.635,336.397 54.723,0 0,0.6 -54.723,0 0,-0.6 z"
             style="fill:#000000;fill-opacity:1;fill-rule:nonzero;stroke:none"
             id="path718"
             inkscape:connector-curvature="0" /></g><g
           id="g720"><path
             d="m 128.635,357.654 54.607,0.004 0,0.6 -54.607,-0.004 0,-0.6"
             style="fill:#000000;fill-opacity:1;fill-rule:nonzero;stroke:none"
             id="path722"
             inkscape:connector-curvature="0" /></g><text
           transform="translate(135.835,356.643)"
           style="font-variant:normal;font-weight:normal;font-stretch:normal;font-size:9.94999981px;font-family:Euphemia;-inkscape-font-specification:EuphemiaCAS;writing-mode:lr-tb;fill:#000000;fill-opacity:1;fill-rule:nonzero;stroke:#000000;stroke-width:0.28457001;stroke-linecap:square;stroke-linejoin:bevel;stroke-miterlimit:2;stroke-dasharray:none;stroke-opacity:1"
           id="text724"><tspan
             x="0 6.6999998 9.0500002 14.95 20.85"
             y="0"
             sodipodi:role="line"
             id="tspan726">CI975</tspan></text>
</g></g></g></svg>