<?xml version="1.0" encoding="UTF-8" standalone="no"?>
<!-- Created with Inkscape (http://www.inkscape.org/) -->

<svg
   xmlns:dc="http://purl.org/dc/elements/1.1/"
   xmlns:cc="http://creativecommons.org/ns#"
   xmlns:rdf="http://www.w3.org/1999/02/22-rdf-syntax-ns#"
   xmlns:svg="http://www.w3.org/2000/svg"
   xmlns="http://www.w3.org/2000/svg"
   xmlns:sodipodi="http://sodipodi.sourceforge.net/DTD/sodipodi-0.dtd"
   xmlns:inkscape="http://www.inkscape.org/namespaces/inkscape"
   id="svg2"
   version="1.1"
   inkscape:version="0.91 r13725"
   xml:space="preserve"
   width="772.9375"
   height="293.4375"
   viewBox="0 0 772.9375 293.4375"
   sodipodi:docname="NorMan.svg"><metadata
     id="metadata8"><rdf:RDF><cc:Work
         rdf:about=""><dc:format>image/svg+xml</dc:format><dc:type
           rdf:resource="http://purl.org/dc/dcmitype/StillImage" /><dc:title></dc:title></cc:Work></rdf:RDF></metadata><defs
     id="defs6"><clipPath
       clipPathUnits="userSpaceOnUse"
       id="clipPath16"><path
         d="m 0,0 618.35,0 0,234.75 L 0,234.75 0,0 Z"
         id="path18"
         inkscape:connector-curvature="0"
         style="clip-rule:evenodd" /></clipPath></defs><sodipodi:namedview
     pagecolor="#ffffff"
     bordercolor="#666666"
     borderopacity="1"
     objecttolerance="10"
     gridtolerance="10"
     guidetolerance="10"
     inkscape:pageopacity="0"
     inkscape:pageshadow="2"
     inkscape:window-width="640"
     inkscape:window-height="480"
     id="namedview4"
     showgrid="false"
     inkscape:zoom="0.39330476"
     inkscape:cx="386.46875"
     inkscape:cy="146.71875"
     inkscape:window-x="0"
     inkscape:window-y="0"
     inkscape:window-maximized="0"
     inkscape:current-layer="g10" /><g
     id="g10"
     inkscape:groupmode="layer"
     inkscape:label="NorMan"
     transform="scale(1.25,1.25)"><g
       id="g12"><g
         id="g14"
         clip-path="url(#clipPath16)"><g
           id="g20"><path
             d="m 0,0 618.35,0 0,234.75 L 0,234.75 0,0 Z"
             style="fill:#ffffff;fill-opacity:1;fill-rule:evenodd;stroke:none"
             id="path22"
             inkscape:connector-curvature="0" /></g><text
           transform="translate(323.65,49.05)"
           style="font-variant:normal;font-weight:normal;font-stretch:normal;font-size:9.94999981px;font-family:Euphemia;-inkscape-font-specification:EuphemiaCAS;writing-mode:lr-tb;fill:#000000;fill-opacity:1;fill-rule:nonzero;stroke:none"
           id="text24"><tspan
             x="0 5.9000001 11.45 17.4 24.1 30.15 36.200001 42.150002 47.200001 53.049999 58.900002 63.950001 67.099998 72.949997 78.800003 84.650002 90.5"
             y="0"
             sodipodi:role="line"
             id="tspan26">Redwood 65 (1965)</tspan></text>
<g
           id="g28"><path
             d="m 315.81,49.647 95.48,0.308 -0.001,0.6 -95.481,-0.308 0.002,-0.6"
             style="fill:#000000;fill-opacity:1;fill-rule:nonzero;stroke:none"
             id="path30"
             inkscape:connector-curvature="0" /></g><g
           id="g32"><path
             d="m 316.056,51.281 -14.175,-10.631 0.6,-0.8 14.175,10.631 -0.6,0.8 z m 1.2,-1.6 -14.175,-10.631 0.6,-0.8 14.175,10.631 -0.6,0.8 z m 0.6,-0.8 -1.8,2.4 1.8,-2.4 z m -15.975,-8.231 1.8,-2.4 -1.8,2.4"
             style="fill:#000000;fill-opacity:1;fill-rule:nonzero;stroke:none"
             id="path34"
             inkscape:connector-curvature="0" /></g><text
           transform="translate(251.3,38)"
           style="font-variant:normal;font-weight:normal;font-stretch:normal;font-size:9.94999981px;font-family:Euphemia;-inkscape-font-specification:EuphemiaCAS;writing-mode:lr-tb;fill:#000000;fill-opacity:1;fill-rule:nonzero;stroke:none"
           id="text36"><tspan
             x="0 5.9000001 11.45 17.4 24.1 30.15 36.200001"
             y="0"
             sodipodi:role="line"
             id="tspan38">Redwood</tspan></text>
<g
           id="g40"><path
             d="m 245.635,39.228 57.147,-0.281 -0.003,-0.6 -57.147,0.281 0.003,0.6"
             style="fill:#000000;fill-opacity:1;fill-rule:nonzero;stroke:none"
             id="path42"
             inkscape:connector-curvature="0" /></g><text
           transform="translate(155.7,169.6)"
           style="font-variant:normal;font-weight:normal;font-stretch:normal;font-size:9.94999981px;font-family:Euphemia;-inkscape-font-specification:EuphemiaCAS;writing-mode:lr-tb;fill:#000000;fill-opacity:1;fill-rule:nonzero;stroke:none"
           id="text44"><tspan
             x="0 5.9000001 11.95 17.200001 22.200001 27.75 31.15 36.200001 39.349998 45.200001 51.049999 56.900002 62.75"
             y="0"
             sodipodi:role="line"
             id="tspan46">Rocket (1947)</tspan></text>
<g
           id="g48"><path
             d="m 136.841,169.925 108.003,0 0,0.6 -108.003,0 0,-0.6 z"
             style="fill:#000000;fill-opacity:1;fill-rule:nonzero;stroke:none"
             id="path50"
             inkscape:connector-curvature="0" /></g><text
           transform="translate(22.7,42.95)"
           style="font-variant:normal;font-weight:normal;font-stretch:normal;font-size:9.94999981px;font-family:Euphemia;-inkscape-font-specification:EuphemiaCAS;writing-mode:lr-tb;fill:#000000;fill-opacity:1;fill-rule:nonzero;stroke:#000000;stroke-width:0.28457001;stroke-linecap:square;stroke-linejoin:bevel;stroke-miterlimit:2;stroke-dasharray:none;stroke-opacity:1"
           id="text52"><tspan
             x="0 6.1500001 8.6000004 13.5 19.6 25.35 30.450001 33.650002 39.549999 45.450001 51.349998 57.25"
             y="0"
             sodipodi:role="line"
             id="tspan54">Bison (1926)</tspan></text>
<g
           id="g56"><path
             d="m 13.639,44.122 78.805,0 0,0.6 -78.805,0 0,-0.6 z"
             style="fill:#000000;fill-opacity:1;fill-rule:nonzero;stroke:none"
             id="path58"
             inkscape:connector-curvature="0" /></g><g
           id="g60"><path
             d="m 56.587,183.546 104.29,0 0,0.6 -104.29,0 0,-0.6 z"
             style="fill:#000000;fill-opacity:1;fill-rule:nonzero;stroke:none"
             id="path62"
             inkscape:connector-curvature="0" /></g><text
           transform="translate(61.753,181.238)"
           style="font-variant:normal;font-weight:normal;font-stretch:normal;font-size:9.94999981px;font-family:Euphemia;-inkscape-font-specification:EuphemiaCAS;writing-mode:lr-tb;fill:#000000;fill-opacity:1;fill-rule:nonzero;stroke:#000000;stroke-width:0.28457001;stroke-linecap:square;stroke-linejoin:bevel;stroke-miterlimit:2;stroke-dasharray:none;stroke-opacity:1"
           id="text64"><tspan
             x="0 6.3000002 10 15.6 21.200001 26.950001 30.4 32.849998 38.599998 44.200001 49.299999 55.200001"
             y="0"
             sodipodi:role="line"
             id="tspan66">Argentine 8C</tspan></text>
<g
           id="g68"><path
             d="m 29.127,140.834 216.12,0 0,-0.6 -216.12,0 0,0.6"
             style="fill:#000000;fill-opacity:1;fill-rule:nonzero;stroke:none"
             id="path70"
             inkscape:connector-curvature="0" /></g><text
           transform="translate(36.35,134.8)"
           style="font-variant:normal;font-weight:normal;font-stretch:normal;font-size:9.94999981px;font-family:Euphemia;-inkscape-font-specification:EuphemiaCAS;writing-mode:lr-tb;fill:#000000;fill-opacity:1;fill-rule:nonzero;stroke:#000000;stroke-width:0.28457001;stroke-linecap:square;stroke-linejoin:bevel;stroke-miterlimit:2;stroke-dasharray:none;stroke-opacity:1"
           id="text72"><tspan
             x="0 5.9499998 11.55 17.549999 24.299999 26.75 32.5"
             y="0"
             sodipodi:role="line"
             id="tspan74">Redwing</tspan></text>
<g
           id="g76"><path
             d="m 106.001,54.04 -22.025,86.419 0.581,0.149 22.026,-86.419 -0.582,-0.149"
             style="fill:#000000;fill-opacity:1;fill-rule:nonzero;stroke:none"
             id="path78"
             inkscape:connector-curvature="0" /></g><g
           id="g80"><path
             d="m 106.293,55.065 130.081,-0.607 -0.003,-0.599 -130.081,0.606 0.003,0.6"
             style="fill:#000000;fill-opacity:1;fill-rule:nonzero;stroke:none"
             id="path82"
             inkscape:connector-curvature="0" /></g><g
           id="g84"><path
             d="m 181.759,25.876 55.383,-0.415 -0.005,-0.6 -55.382,0.415 0.004,0.6"
             style="fill:#000000;fill-opacity:1;fill-rule:nonzero;stroke:none"
             id="path86"
             inkscape:connector-curvature="0" /></g><text
           transform="translate(125.611,52.956)"
           style="font-variant:normal;font-weight:normal;font-stretch:normal;font-size:9.94999981px;font-family:Euphemia;-inkscape-font-specification:EuphemiaCAS;writing-mode:lr-tb;fill:#000000;fill-opacity:1;fill-rule:nonzero;stroke:none"
           id="text88"><tspan
             x="0 5.9000001 11.45 17.4 22.25 28.299999"
             y="0"
             sodipodi:role="line"
             id="tspan90">Redson</tspan></text>
<text
           transform="translate(193.434,23.567)"
           style="font-variant:normal;font-weight:normal;font-stretch:normal;font-size:9.94999981px;font-family:Euphemia;-inkscape-font-specification:EuphemiaCAS;writing-mode:lr-tb;fill:#000000;fill-opacity:1;fill-rule:nonzero;stroke:none"
           id="text92"><tspan
             x="0 6.0999999 9.75 15.6 21.450001 27.299999"
             y="0"
             sodipodi:role="line"
             id="tspan94">B-5128</tspan></text>
<g
           id="g96"><path
             d="m 181.126,25.816 -14.175,-10.632 0.36,-0.48 14.175,10.632 -0.36,0.48"
             style="fill:#000000;fill-opacity:1;fill-rule:nonzero;stroke:none"
             id="path98"
             inkscape:connector-curvature="0" /></g><g
           id="g100"><path
             d="m 181.052,25.336 -14.175,10.631 0.36,0.48 14.175,-10.631 -0.36,-0.48"
             style="fill:#000000;fill-opacity:1;fill-rule:nonzero;stroke:none"
             id="path102"
             inkscape:connector-curvature="0" /></g><g
           id="g104"><path
             d="m 124.535,14.578 42.596,0.001 0,0.6 -42.596,-10e-4 0,-0.6"
             style="fill:#000000;fill-opacity:1;fill-rule:nonzero;stroke:none"
             id="path106"
             inkscape:connector-curvature="0" /></g><g
           id="g108"><path
             d="m 118.382,36.507 48.75,-0.17 -0.002,-0.6 -48.75,0.17 0.002,0.6"
             style="fill:#000000;fill-opacity:1;fill-rule:nonzero;stroke:none"
             id="path110"
             inkscape:connector-curvature="0" /></g><text
           transform="translate(130.689,14)"
           style="font-variant:normal;font-weight:normal;font-stretch:normal;font-size:9.94999981px;font-family:Euphemia;-inkscape-font-specification:EuphemiaCAS;writing-mode:lr-tb;fill:#000000;fill-opacity:1;fill-rule:nonzero;stroke:#000000;stroke-width:0.28457001;stroke-linecap:square;stroke-linejoin:bevel;stroke-miterlimit:2;stroke-dasharray:none;stroke-opacity:1"
           id="text112"><tspan
             x="0 6.6999998 12.8 15.35 21.35 26.950001"
             y="0"
             sodipodi:role="line"
             id="tspan114">Golden</tspan></text>
<text
           transform="translate(138.874,34.703)"
           style="font-variant:normal;font-weight:normal;font-stretch:normal;font-size:9.94999981px;font-family:Euphemia;-inkscape-font-specification:EuphemiaCAS;writing-mode:lr-tb;fill:#000000;fill-opacity:1;fill-rule:nonzero;stroke:#000000;stroke-width:0.28457001;stroke-linecap:square;stroke-linejoin:bevel;stroke-miterlimit:2;stroke-dasharray:none;stroke-opacity:1"
           id="text116"><tspan
             x="0 5.9499998 8.3999996"
             y="0"
             sodipodi:role="line"
             id="tspan118">Rio</tspan></text>
<text
           transform="translate(259.25,205)"
           style="font-variant:normal;font-weight:normal;font-stretch:normal;font-size:9.94999981px;font-family:Euphemia;-inkscape-font-specification:EuphemiaCAS;writing-mode:lr-tb;fill:#000000;fill-opacity:1;fill-rule:nonzero;stroke:none"
           id="text120"><tspan
             x="0 5.1500001 7.5500002 13.25 19.299999 22.700001 26.1 31.15 34.299999 40.150002 46 51.849998 57.700001"
             y="0"
             sodipodi:role="line"
             id="tspan122">Linott (1966)</tspan></text>
<g
           id="g124"><path
             d="m 229.916,207.155 274.886,0 0,0.6 -274.886,0 0,-0.6 z"
             style="fill:#000000;fill-opacity:1;fill-rule:nonzero;stroke:none"
             id="path126"
             inkscape:connector-curvature="0" /></g><g
           id="g128"><path
             d="m 174.872,193.765 -14.175,10.631 0.36,0.48 14.175,-10.631 -0.36,-0.48"
             style="fill:#000000;fill-opacity:1;fill-rule:nonzero;stroke:none"
             id="path130"
             inkscape:connector-curvature="0" /></g><g
           id="g132"><path
             d="m 174.708,193.689 39.908,0.181 -0.002,0.6 -39.908,-0.181 0.002,-0.6"
             style="fill:#000000;fill-opacity:1;fill-rule:nonzero;stroke:none"
             id="path134"
             inkscape:connector-curvature="0" /></g><g
           id="g136"><path
             d="m 68.72,219.572 145.895,0 0,0.6 -145.895,0 0,-0.6 z"
             style="fill:#000000;fill-opacity:1;fill-rule:nonzero;stroke:none"
             id="path138"
             inkscape:connector-curvature="0" /></g><g
           id="g140"><path
             d="m 74.3,204.336 86.794,10e-4 0,0.6 -86.794,-0.001 0,-0.6"
             style="fill:#000000;fill-opacity:1;fill-rule:nonzero;stroke:none"
             id="path142"
             inkscape:connector-curvature="0" /></g><text
           transform="translate(75.739,202.974)"
           style="font-variant:normal;font-weight:normal;font-stretch:normal;font-size:9.94999981px;font-family:Euphemia;-inkscape-font-specification:EuphemiaCAS;writing-mode:lr-tb;fill:#000000;fill-opacity:1;fill-rule:nonzero;stroke:#000000;stroke-width:0.28457001;stroke-linecap:square;stroke-linejoin:bevel;stroke-miterlimit:2;stroke-dasharray:none;stroke-opacity:1"
           id="text144"><tspan
             x="0 8.1000004 11.55 15 20.75 27.5 33.25 38.349998 44.25 50.150002 56.049999 62.200001"
             y="0"
             sodipodi:role="line"
             id="tspan146">Ottawa 770B </tspan></text>
<text
           transform="translate(75.739,214.974)"
           style="font-variant:normal;font-weight:normal;font-stretch:normal;font-size:9.94999981px;font-family:Euphemia;-inkscape-font-specification:EuphemiaCAS;writing-mode:lr-tb;fill:#000000;fill-opacity:1;fill-rule:nonzero;stroke:#000000;stroke-width:0.28457001;stroke-linecap:square;stroke-linejoin:bevel;stroke-miterlimit:2;stroke-dasharray:none;stroke-opacity:1"
           id="text148"><tspan
             x="0 3.2 9.1000004 15 20.9 26.799999"
             y="0"
             sodipodi:role="line"
             id="tspan150">(1910)</tspan></text>
<g
           id="g152"><path
             d="m 231.033,207.849 -16.607,-13.446 0.378,-0.466 16.606,13.446 -0.377,0.466"
             style="fill:#000000;fill-opacity:1;fill-rule:nonzero;stroke:none"
             id="path154"
             inkscape:connector-curvature="0" /></g><g
           id="g156"><path
             d="m 230.969,207.375 -16.533,12.256 0.358,0.482 16.532,-12.256 -0.357,-0.482"
             style="fill:#000000;fill-opacity:1;fill-rule:nonzero;stroke:none"
             id="path158"
             inkscape:connector-curvature="0" /></g><g
           id="g160"><path
             d="m 174.529,194.247 -13.83,-10.159 0.355,-0.483 13.831,10.158 -0.356,0.484"
             style="fill:#000000;fill-opacity:1;fill-rule:nonzero;stroke:none"
             id="path162"
             inkscape:connector-curvature="0" /></g><g
           id="g164"><path
             d="m 105.787,55.005 -14.176,-10.631 0.36,-0.48 14.176,10.631 -0.36,0.48"
             style="fill:#000000;fill-opacity:1;fill-rule:nonzero;stroke:none"
             id="path166"
             inkscape:connector-curvature="0" /></g><g
           id="g168"><path
             d="m 136.808,169.998 -6.365,13.722 0.545,0.253 6.365,-13.722 -0.545,-0.253"
             style="fill:#000000;fill-opacity:1;fill-rule:nonzero;stroke:none"
             id="path170"
             inkscape:connector-curvature="0" /></g><g
           id="g172"><path
             d="m 252.459,154.774 -7.879,-14.518 0.527,-0.286 7.879,14.518 -0.527,0.286"
             style="fill:#000000;fill-opacity:1;fill-rule:nonzero;stroke:none"
             id="path174"
             inkscape:connector-curvature="0" /></g><g
           id="g176"><path
             d="m 252.437,154.388 -8.524,15.694 0.527,0.286 8.524,-15.694 -0.527,-0.286"
             style="fill:#000000;fill-opacity:1;fill-rule:nonzero;stroke:none"
             id="path178"
             inkscape:connector-curvature="0" /></g><text
           transform="translate(259.263,152.604)"
           style="font-variant:normal;font-weight:normal;font-stretch:normal;font-size:9.94999981px;font-family:Euphemia;-inkscape-font-specification:EuphemiaCAS;writing-mode:lr-tb;fill:#000000;fill-opacity:1;fill-rule:nonzero;stroke:none"
           id="text180"><tspan
             x="0 6.9499998 13 16.65 22.35 24.85 28.25 33.950001 39 42.150002 48 53.849998 59.700001 65.550003"
             y="0"
             sodipodi:role="line"
             id="tspan182">Noralta (1965)</tspan></text>
<g
           id="g184"><path
             d="m 136.586,170.384 -18.554,-29.691 0.509,-0.318 18.554,29.691 -0.509,0.318"
             style="fill:#000000;fill-opacity:1;fill-rule:nonzero;stroke:none"
             id="path186"
             inkscape:connector-curvature="0" /></g><g
           id="g188"><path
             d="m 252.7,154.968 189.734,-0.137 -0.001,-0.6 -189.733,0.137 0,0.6"
             style="fill:#000000;fill-opacity:1;fill-rule:nonzero;stroke:none"
             id="path190"
             inkscape:connector-curvature="0" /></g><text
           transform="translate(289.9,109.15)"
           style="font-variant:normal;font-weight:normal;font-stretch:normal;font-size:9.94999981px;font-family:Euphemia;-inkscape-font-specification:EuphemiaCAS;writing-mode:lr-tb;fill:#000000;fill-opacity:1;fill-rule:nonzero;stroke:none"
           id="text192"><tspan
             x="0 5.9000001 11.6 13.9 19.6 24.65 27.799999 33.650002 39.5 45.349998 51.200001"
             y="0"
             sodipodi:role="line"
             id="tspan194">Raja (1953)</tspan></text>
<g
           id="g196"><path
             d="m 282.898,79.225 67.824,0.069 0,0.6 -67.825,-0.069 0.001,-0.6"
             style="fill:#000000;fill-opacity:1;fill-rule:nonzero;stroke:none"
             id="path198"
             inkscape:connector-curvature="0" /></g><g
           id="g200"><path
             d="m 365.468,98.362 -14.979,-18.579 0.467,-0.377 14.98,18.579 -0.468,0.377"
             style="fill:#000000;fill-opacity:1;fill-rule:nonzero;stroke:none"
             id="path202"
             inkscape:connector-curvature="0" /></g><g
           id="g204"><path
             d="m 365.486,97.966 -15.036,15.613 0.432,0.416 15.036,-15.613 -0.432,-0.416"
             style="fill:#000000;fill-opacity:1;fill-rule:nonzero;stroke:none"
             id="path206"
             inkscape:connector-curvature="0" /></g><g
           id="g208"><path
             d="m 282.898,113.486 68.025,10e-4 0,0.6 -68.025,-0.001 0,-0.6"
             style="fill:#000000;fill-opacity:1;fill-rule:nonzero;stroke:none"
             id="path210"
             inkscape:connector-curvature="0" /></g><text
           transform="translate(289.9,78.35)"
           style="font-variant:normal;font-weight:normal;font-stretch:normal;font-size:9.94999981px;font-family:Euphemia;-inkscape-font-specification:EuphemiaCAS;writing-mode:lr-tb;fill:#000000;fill-opacity:1;fill-rule:nonzero;stroke:none"
           id="text212"><tspan
             x="0 6.0500002 11.75 14.25 19.950001 23.35 29.049999 34.099998 37.25 43.099998 48.950001 54.799999 60.650002"
             y="0"
             sodipodi:role="line"
             id="tspan214">Valuta (1949)</tspan></text>
<g
           id="g216"><path
             d="m 283.3,79.717 -14.175,-10.631 0.36,-0.48 14.175,10.631 -0.36,0.48"
             style="fill:#000000;fill-opacity:1;fill-rule:nonzero;stroke:none"
             id="path218"
             inkscape:connector-curvature="0" /></g><g
           id="g220"><path
             d="m 283.3,79.237 -14.175,10.631 0.36,0.48 14.175,-10.631 -0.36,-0.48"
             style="fill:#000000;fill-opacity:1;fill-rule:nonzero;stroke:none"
             id="path222"
             inkscape:connector-curvature="0" /></g><g
           id="g224"><path
             d="m 182.689,68.546 86.793,10e-4 0,0.6 -86.793,-0.001 0,-0.6"
             style="fill:#000000;fill-opacity:1;fill-rule:nonzero;stroke:none"
             id="path226"
             inkscape:connector-curvature="0" /></g><g
           id="g228"><path
             d="m 182.689,89.807 86.793,0.001 0,0.6 -86.793,-0.001 0,-0.6"
             style="fill:#000000;fill-opacity:1;fill-rule:nonzero;stroke:none"
             id="path230"
             inkscape:connector-curvature="0" /></g><g
           id="g232"><path
             d="m 282.517,114.026 -14.175,-10.631 0.36,-0.48 14.175,10.631 -0.36,0.48"
             style="fill:#000000;fill-opacity:1;fill-rule:nonzero;stroke:none"
             id="path234"
             inkscape:connector-curvature="0" /></g><g
           id="g236"><path
             d="m 282.517,113.546 -14.175,10.631 0.36,0.48 14.175,-10.631 -0.36,-0.48"
             style="fill:#000000;fill-opacity:1;fill-rule:nonzero;stroke:none"
             id="path238"
             inkscape:connector-curvature="0" /></g><g
           id="g240"><path
             d="m 181.906,102.855 86.794,10e-4 0,0.6 -86.794,-0.001 0,-0.6"
             style="fill:#000000;fill-opacity:1;fill-rule:nonzero;stroke:none"
             id="path242"
             inkscape:connector-curvature="0" /></g><g
           id="g244"><path
             d="m 181.906,124.116 86.794,0.001 0,0.6 -86.794,-0.001 0,-0.6"
             style="fill:#000000;fill-opacity:1;fill-rule:nonzero;stroke:none"
             id="path246"
             inkscape:connector-curvature="0" /></g><text
           transform="translate(214.779,65.815)"
           style="font-variant:normal;font-weight:normal;font-stretch:normal;font-size:9.94999981px;font-family:Euphemia;-inkscape-font-specification:EuphemiaCAS;writing-mode:lr-tb;fill:#000000;fill-opacity:1;fill-rule:nonzero;stroke:#000000;stroke-width:0.28457001;stroke-linecap:square;stroke-linejoin:bevel;stroke-miterlimit:2;stroke-dasharray:none;stroke-opacity:1"
           id="text248"><tspan
             x="0 6.3000002 12.3 18.4 24.1 27.549999 30"
             y="0"
             sodipodi:role="line"
             id="tspan250">Adoptiv</tspan></text>
<text
           transform="translate(214.8,87.2)"
           style="font-variant:normal;font-weight:normal;font-stretch:normal;font-size:9.94999981px;font-family:Euphemia;-inkscape-font-specification:EuphemiaCAS;writing-mode:lr-tb;fill:#000000;fill-opacity:1;fill-rule:nonzero;stroke:#000000;stroke-width:0.28457001;stroke-linecap:square;stroke-linejoin:bevel;stroke-miterlimit:2;stroke-dasharray:none;stroke-opacity:1"
           id="text252"><tspan
             x="0 5.1999998 10.95 15.85 21.6"
             y="0"
             sodipodi:role="line"
             id="tspan254">Fasad</tspan></text>
<text
           transform="translate(216.8,102.5)"
           style="font-variant:normal;font-weight:normal;font-stretch:normal;font-size:9.94999981px;font-family:Euphemia;-inkscape-font-specification:EuphemiaCAS;writing-mode:lr-tb;fill:#000000;fill-opacity:1;fill-rule:nonzero;stroke:#000000;stroke-width:0.28457001;stroke-linecap:square;stroke-linejoin:bevel;stroke-miterlimit:2;stroke-dasharray:none;stroke-opacity:1"
           id="text256"><tspan
             x="0 5.25 7.3499999 16.1 18.200001 24.15"
             y="0"
             sodipodi:role="line"
             id="tspan258">J.W.S.</tspan></text>
<text
           transform="translate(193.471,120.677)"
           style="font-variant:normal;font-weight:normal;font-stretch:normal;font-size:9.94999981px;font-family:Euphemia;-inkscape-font-specification:EuphemiaCAS;writing-mode:lr-tb;fill:#000000;fill-opacity:1;fill-rule:nonzero;stroke:#000000;stroke-width:0.28457001;stroke-linecap:square;stroke-linejoin:bevel;stroke-miterlimit:2;stroke-dasharray:none;stroke-opacity:1"
           id="text260"><tspan
             x="0 6.3000002 10 15.6 21.200001 26.950001 30.4 32.849998 38.599998 44.200001 49.299999 55.200001 61.099998 67"
             y="0"
             sodipodi:role="line"
             id="tspan262">Argentine 1025</tspan></text>
<g
           id="g264"><path
             d="m 244.721,38.664 -7.88,-14.519 0.528,-0.286 7.879,14.519 -0.527,0.286"
             style="fill:#000000;fill-opacity:1;fill-rule:nonzero;stroke:none"
             id="path266"
             inkscape:connector-curvature="0" /></g><g
           id="g268"><path
             d="m 244.699,38.277 -8.524,15.694 0.527,0.287 8.524,-15.694 -0.527,-0.287"
             style="fill:#000000;fill-opacity:1;fill-rule:nonzero;stroke:none"
             id="path270"
             inkscape:connector-curvature="0" /></g><g
           id="g272"><path
             d="m 365.345,97.874 46.537,0.083 -0.001,0.6 -46.537,-0.083 0.001,-0.6"
             style="fill:#000000;fill-opacity:1;fill-rule:nonzero;stroke:none"
             id="path274"
             inkscape:connector-curvature="0" /></g><g
           id="g276"><path
             d="m 420.033,72.94 -9.022,-22.573 0.557,-0.223 9.022,22.573 -0.557,0.223"
             style="fill:#000000;fill-opacity:1;fill-rule:nonzero;stroke:none"
             id="path278"
             inkscape:connector-curvature="0" /></g><g
           id="g280"><path
             d="m 420.006,72.63 -9,25.965 0.567,0.196 9,-25.965 -0.567,-0.196"
             style="fill:#000000;fill-opacity:1;fill-rule:nonzero;stroke:none"
             id="path282"
             inkscape:connector-curvature="0" /></g><g
           id="g284"><path
             d="m 420.291,73.128 22.378,-0.1 -0.003,-0.6 -22.378,0.1 0.003,0.6"
             style="fill:#000000;fill-opacity:1;fill-rule:nonzero;stroke:none"
             id="path286"
             inkscape:connector-curvature="0" /></g><g
           id="g288"><path
             d="m 469.641,115.062 -27.224,-41.723 0.502,-0.328 27.225,41.723 -0.503,0.328"
             style="fill:#000000;fill-opacity:1;fill-rule:nonzero;stroke:none"
             id="path290"
             inkscape:connector-curvature="0" /></g><g
           id="g292"><path
             d="m 469.623,114.628 -27.203,39.733 0.495,0.339 27.203,-39.733 -0.495,-0.339"
             style="fill:#000000;fill-opacity:1;fill-rule:nonzero;stroke:none"
             id="path294"
             inkscape:connector-curvature="0" /></g><g
           id="g296"><path
             d="m 469.893,114.598 34.91,0 0,0.6 -34.91,0 0,-0.6 z"
             style="fill:#000000;fill-opacity:1;fill-rule:nonzero;stroke:none"
             id="path298"
             inkscape:connector-curvature="0" /></g><g
           id="g300"><path
             d="m 535.103,162.577 -30.553,-47.618 0.505,-0.324 30.553,47.618 -0.505,0.324"
             style="fill:#000000;fill-opacity:1;fill-rule:nonzero;stroke:none"
             id="path302"
             inkscape:connector-curvature="0" /></g><g
           id="g304"><path
             d="m 535.085,162.147 -30.531,45.301 0.497,0.336 30.531,-45.302 -0.497,-0.335"
             style="fill:#000000;fill-opacity:1;fill-rule:nonzero;stroke:none"
             id="path306"
             inkscape:connector-curvature="0" /></g><g
           id="g308"><path
             d="m 535.356,162.715 82.845,-0.1 0,-0.6 -82.845,0.1 0,0.6"
             style="fill:#000000;fill-opacity:1;fill-rule:nonzero;stroke:none"
             id="path310"
             inkscape:connector-curvature="0" /></g><text
           transform="translate(541.313,161.372)"
           style="font-variant:normal;font-weight:normal;font-stretch:normal;font-size:9.94999981px;font-family:Euphemia;-inkscape-font-specification:EuphemiaCAS;writing-mode:lr-tb;fill:#000000;fill-opacity:1;fill-rule:nonzero;stroke:#000000;stroke-width:0.28457001;stroke-linecap:square;stroke-linejoin:bevel;stroke-miterlimit:2;stroke-dasharray:none;stroke-opacity:1"
           id="text312"><tspan
             x="0 7 13.1 16.799999 24.6 30.35 36.099998 41.200001 44.400002 50.299999 56.200001 62.099998 68"
             y="0"
             sodipodi:role="line"
             id="tspan314">NorMan (1984)</tspan></text>
<text
           transform="translate(7.2,207.425)"
           style="font-variant:normal;font-weight:normal;font-stretch:normal;font-size:9.94999981px;font-family:Euphemia;-inkscape-font-specification:EuphemiaCAS;writing-mode:lr-tb;fill:#000000;fill-opacity:1;fill-rule:nonzero;stroke:#000000;stroke-width:0.28457001;stroke-linecap:square;stroke-linejoin:bevel;stroke-miterlimit:2;stroke-dasharray:none;stroke-opacity:1"
           id="text316"><tspan
             x="0 6.3000002 10 13.7 19.799999"
             y="0"
             sodipodi:role="line"
             id="tspan318">Arrow</tspan></text>
<g
           id="g320"><path
             d="m 68.53,220.124 -14.175,-10.631 0.36,-0.48 14.175,10.631 -0.36,0.48"
             style="fill:#000000;fill-opacity:1;fill-rule:nonzero;stroke:none"
             id="path322"
             inkscape:connector-curvature="0" /></g><g
           id="g324"><path
             d="m 68.54,219.644 -14.175,10.631 0.36,0.48 14.175,-10.631 -0.36,-0.48"
             style="fill:#000000;fill-opacity:1;fill-rule:nonzero;stroke:none"
             id="path326"
             inkscape:connector-curvature="0" /></g><g
           id="g328"><path
             d="m 0,208.954 54.723,0 0,0.6 -54.723,0 0,-0.6 z"
             style="fill:#000000;fill-opacity:1;fill-rule:nonzero;stroke:none"
             id="path330"
             inkscape:connector-curvature="0" /></g><g
           id="g332"><path
             d="m 0,230.211 54.607,0.004 0,0.6 L 0,230.811 l 0,-0.6"
             style="fill:#000000;fill-opacity:1;fill-rule:nonzero;stroke:none"
             id="path334"
             inkscape:connector-curvature="0" /></g><text
           transform="translate(7.2,229.2)"
           style="font-variant:normal;font-weight:normal;font-stretch:normal;font-size:9.94999981px;font-family:Euphemia;-inkscape-font-specification:EuphemiaCAS;writing-mode:lr-tb;fill:#000000;fill-opacity:1;fill-rule:nonzero;stroke:#000000;stroke-width:0.28457001;stroke-linecap:square;stroke-linejoin:bevel;stroke-miterlimit:2;stroke-dasharray:none;stroke-opacity:1"
           id="text336"><tspan
             x="0 6.6999998 9.0500002 14.95 20.85"
             y="0"
             sodipodi:role="line"
             id="tspan338">CI975</tspan></text>
</g></g></g></svg>