<?xml version="1.0" encoding="UTF-8" standalone="no"?>
<!-- Created with Inkscape (http://www.inkscape.org/) -->

<svg
   xmlns:dc="http://purl.org/dc/elements/1.1/"
   xmlns:cc="http://creativecommons.org/ns#"
   xmlns:rdf="http://www.w3.org/1999/02/22-rdf-syntax-ns#"
   xmlns:svg="http://www.w3.org/2000/svg"
   xmlns="http://www.w3.org/2000/svg"
   xmlns:sodipodi="http://sodipodi.sourceforge.net/DTD/sodipodi-0.dtd"
   xmlns:inkscape="http://www.inkscape.org/namespaces/inkscape"
   id="svg2"
   version="1.1"
   inkscape:version="0.91 r13725"
   xml:space="preserve"
   width="1060.625"
   height="268.5625"
   viewBox="0 0 1060.625 268.5625"
   sodipodi:docname="Prairie Grande.svg"><metadata
     id="metadata8"><rdf:RDF><cc:Work
         rdf:about=""><dc:format>image/svg+xml</dc:format><dc:type
           rdf:resource="http://purl.org/dc/dcmitype/StillImage" /><dc:title></dc:title></cc:Work></rdf:RDF></metadata><defs
     id="defs6"><clipPath
       clipPathUnits="userSpaceOnUse"
       id="clipPath16"><path
         d="m 0,0 848.5,0 0,214.85 L 0,214.85 0,0 Z"
         id="path18"
         inkscape:connector-curvature="0"
         style="clip-rule:evenodd" /></clipPath></defs><sodipodi:namedview
     pagecolor="#ffffff"
     bordercolor="#666666"
     borderopacity="1"
     objecttolerance="10"
     gridtolerance="10"
     guidetolerance="10"
     inkscape:pageopacity="0"
     inkscape:pageshadow="2"
     inkscape:window-width="640"
     inkscape:window-height="480"
     id="namedview4"
     showgrid="false"
     inkscape:zoom="0.3158515"
     inkscape:cx="530.3125"
     inkscape:cy="134.28125"
     inkscape:window-x="0"
     inkscape:window-y="0"
     inkscape:window-maximized="0"
     inkscape:current-layer="g10" /><g
     id="g10"
     inkscape:groupmode="layer"
     inkscape:label="Prairie Grande"
     transform="scale(1.25,1.25)"><g
       id="g12"><g
         id="g14"
         clip-path="url(#clipPath16)"><g
           id="g20"><path
             d="m 0,0 848.5,0 0,214.85 L 0,214.85 0,0 Z"
             style="fill:#ffffff;fill-opacity:1;fill-rule:evenodd;stroke:none"
             id="path22"
             inkscape:connector-curvature="0" /></g><text
           transform="translate(743.35,145.15)"
           style="font-variant:normal;font-weight:normal;font-stretch:normal;font-size:9.94999981px;font-family:Euphemia;-inkscape-font-specification:EuphemiaCAS;writing-mode:lr-tb;fill:#000000;fill-opacity:1;fill-rule:nonzero;stroke:#000000;stroke-width:0.28457001;stroke-linecap:square;stroke-linejoin:bevel;stroke-miterlimit:2;stroke-dasharray:none;stroke-opacity:1"
           id="text24"><tspan
             x="0 5.6999998 9.3999996 15.15 17.6 21.299999 23.75 29.35 34.450001 41.150002 44.849998 50.599998 56.349998 62.349998 67.949997 73.050003 76.25 82.150002 88.050003 93.949997 99.849998"
             y="0"
             sodipodi:role="line"
             id="tspan26">Prairie Grande (2007)</tspan></text>
<g
           id="g28"><path
             d="m 740.531,147.261 102.866,0 0,0.6 -102.866,0 0,-0.6 z"
             style="fill:#000000;fill-opacity:1;fill-rule:nonzero;stroke:none"
             id="path30"
             inkscape:connector-curvature="0" /></g><text
           transform="translate(549.472,208.48)"
           style="font-variant:normal;font-weight:normal;font-stretch:normal;font-size:9.94999981px;font-family:Euphemia;-inkscape-font-specification:EuphemiaCAS;writing-mode:lr-tb;fill:#000000;fill-opacity:1;fill-rule:nonzero;stroke:#000000;stroke-width:0.28457001;stroke-linecap:square;stroke-linejoin:bevel;stroke-miterlimit:2;stroke-dasharray:none;stroke-opacity:1"
           id="text32"><tspan
             x="0 6.6999998 9.0500002 14.95 20.85 26.75"
             y="0"
             sodipodi:role="line"
             id="tspan34">CI3101</tspan></text>
<g
           id="g36"><path
             d="m 620.114,198.574 86.793,10e-4 0,0.6 -86.793,-0.001 0,-0.6"
             style="fill:#000000;fill-opacity:1;fill-rule:nonzero;stroke:none"
             id="path38"
             inkscape:connector-curvature="0" /></g><g
           id="g40"><path
             d="m 519.331,209.206 86.793,0.001 0,0.6 -86.793,-10e-4 0,-0.6"
             style="fill:#000000;fill-opacity:1;fill-rule:nonzero;stroke:none"
             id="path42"
             inkscape:connector-curvature="0" /></g><g
           id="g44"><path
             d="m 519.145,187.942 86.794,0.001 0,0.6 -86.794,-0.001 0,-0.6"
             style="fill:#000000;fill-opacity:1;fill-rule:nonzero;stroke:none"
             id="path46"
             inkscape:connector-curvature="0" /></g><g
           id="g48"><path
             d="m 619.726,199.115 -14.175,-10.631 0.36,-0.48 14.175,10.631 -0.36,0.48"
             style="fill:#000000;fill-opacity:1;fill-rule:nonzero;stroke:none"
             id="path50"
             inkscape:connector-curvature="0" /></g><g
           id="g52"><path
             d="m 619.934,198.635 -14.175,10.631 0.36,0.48 14.175,-10.631 -0.36,-0.48"
             style="fill:#000000;fill-opacity:1;fill-rule:nonzero;stroke:none"
             id="path54"
             inkscape:connector-curvature="0" /></g><text
           transform="translate(649.984,198.327)"
           style="font-variant:normal;font-weight:normal;font-stretch:normal;font-size:9.94999981px;font-family:Euphemia;-inkscape-font-specification:EuphemiaCAS;writing-mode:lr-tb;fill:#000000;fill-opacity:1;fill-rule:nonzero;stroke:none"
           id="text56"><tspan
             x="0 6.6500001 8.9499998 14.8 20.65 26.5"
             y="0"
             sodipodi:role="line"
             id="tspan58">CI3395</tspan></text>
<g
           id="g60"><path
             d="m 418.965,198.576 86.793,0.001 0,0.6 -86.793,-0.001 0,-0.6"
             style="fill:#000000;fill-opacity:1;fill-rule:nonzero;stroke:none"
             id="path62"
             inkscape:connector-curvature="0" /></g><g
           id="g64"><path
             d="m 418.779,177.312 86.794,10e-4 0,0.6 -86.794,-0.001 0,-0.6"
             style="fill:#000000;fill-opacity:1;fill-rule:nonzero;stroke:none"
             id="path66"
             inkscape:connector-curvature="0" /></g><g
           id="g68"><path
             d="m 519.36,188.485 -14.175,-10.631 0.36,-0.48 14.175,10.631 -0.36,0.48"
             style="fill:#000000;fill-opacity:1;fill-rule:nonzero;stroke:none"
             id="path70"
             inkscape:connector-curvature="0" /></g><g
           id="g72"><path
             d="m 519.568,188.005 -14.175,10.631 0.36,0.48 14.175,-10.631 -0.36,-0.48"
             style="fill:#000000;fill-opacity:1;fill-rule:nonzero;stroke:none"
             id="path74"
             inkscape:connector-curvature="0" /></g><text
           transform="translate(453.596,176.67)"
           style="font-variant:normal;font-weight:normal;font-stretch:normal;font-size:9.94999981px;font-family:Euphemia;-inkscape-font-specification:EuphemiaCAS;writing-mode:lr-tb;fill:#000000;fill-opacity:1;fill-rule:nonzero;stroke:#000000;stroke-width:0.28457001;stroke-linecap:square;stroke-linejoin:bevel;stroke-miterlimit:2;stroke-dasharray:none;stroke-opacity:1"
           id="text76"><tspan
             x="0 7.25 13.15"
             y="0"
             sodipodi:role="line"
             id="tspan78">U23</tspan></text>
<text
           transform="translate(447.926,197.845)"
           style="font-variant:normal;font-weight:normal;font-stretch:normal;font-size:9.94999981px;font-family:Euphemia;-inkscape-font-specification:EuphemiaCAS;writing-mode:lr-tb;fill:#000000;fill-opacity:1;fill-rule:nonzero;stroke:#000000;stroke-width:0.28457001;stroke-linecap:square;stroke-linejoin:bevel;stroke-miterlimit:2;stroke-dasharray:none;stroke-opacity:1"
           id="text80"><tspan
             x="0 6.6999998 9.0500002 14.95 20.85 26.75"
             y="0"
             sodipodi:role="line"
             id="tspan82">CI2929</tspan></text>
<g
           id="g84"><path
             d="m 625.508,102.374 86.793,0.001 0,0.6 -86.793,-10e-4 0,-0.6"
             style="fill:#000000;fill-opacity:1;fill-rule:nonzero;stroke:none"
             id="path86"
             inkscape:connector-curvature="0" /></g><text
           transform="translate(628.068,101.184)"
           style="font-variant:normal;font-weight:normal;font-stretch:normal;font-size:9.94999981px;font-family:Euphemia;-inkscape-font-specification:EuphemiaCAS;writing-mode:lr-tb;fill:#000000;fill-opacity:1;fill-rule:nonzero;stroke:none"
           id="text88"><tspan
             x="0 6.25 12.9 17.950001 26.65 32.349998 35.75 40.599998 46.650002 52.349998 57.400002 60.549999 66.400002 72.25 78.099998 83.949997"
             y="0"
             sodipodi:role="line"
             id="tspan90">AC Watson (1997)</tspan></text>
<text
           transform="translate(430.65,153.35)"
           style="font-variant:normal;font-weight:normal;font-stretch:normal;font-size:9.94999981px;font-family:Euphemia;-inkscape-font-specification:EuphemiaCAS;writing-mode:lr-tb;fill:#000000;fill-opacity:1;fill-rule:nonzero;stroke:none"
           id="text92"><tspan
             x="0 6.9499998 13 16.65 21.799999 24.200001 29.9 34.950001 38.099998 43.950001 49.799999 55.650002 61.5"
             y="0"
             sodipodi:role="line"
             id="tspan94">NorLin (1982)</tspan></text>
<g
           id="g96"><path
             d="m 417.882,154.098 175.074,0.088 0,0.6 -175.074,-0.088 0,-0.6"
             style="fill:#000000;fill-opacity:1;fill-rule:nonzero;stroke:none"
             id="path98"
             inkscape:connector-curvature="0" /></g><text
           transform="translate(298.6,75)"
           style="font-variant:normal;font-weight:normal;font-stretch:normal;font-size:9.94999981px;font-family:Euphemia;-inkscape-font-specification:EuphemiaCAS;writing-mode:lr-tb;fill:#000000;fill-opacity:1;fill-rule:nonzero;stroke:none"
           id="text100"><tspan
             x="0 5.9000001 11.45 17.4 24.1 30.15 36.200001 42.150002 47.200001 53.049999 58.900002 63.950001 67.099998 72.949997 78.800003 84.650002 90.5"
             y="0"
             sodipodi:role="line"
             id="tspan102">Redwood 65 (1965)</tspan></text>
<text
           transform="translate(242.968,102.369)"
           style="font-variant:normal;font-weight:normal;font-stretch:normal;font-size:9.94999981px;font-family:Euphemia;-inkscape-font-specification:EuphemiaCAS;writing-mode:lr-tb;fill:#000000;fill-opacity:1;fill-rule:nonzero;stroke:none"
           id="text104"><tspan
             x="0 5.9000001 11.6 13.9 19.6 24.65 27.799999 33.650002 39.5 45.349998 51.200001"
             y="0"
             sodipodi:role="line"
             id="tspan106">Raja (1953)</tspan></text>
<g
           id="g108"><path
             d="m 293.141,75.212 108.313,0.052 -0.001,0.6 -108.312,-0.052 0,-0.6"
             style="fill:#000000;fill-opacity:1;fill-rule:nonzero;stroke:none"
             id="path110"
             inkscape:connector-curvature="0" /></g><g
           id="g112"><path
             d="m 221.946,106.082 77.913,0.738 -0.006,0.6 -77.913,-0.738 0.006,-0.6"
             style="fill:#000000;fill-opacity:1;fill-rule:nonzero;stroke:none"
             id="path114"
             inkscape:connector-curvature="0" /></g><g
           id="g116"><path
             d="m 130.054,96.118 77.922,-0.068 0,-0.6 -77.923,0.068 0.001,0.6"
             style="fill:#000000;fill-opacity:1;fill-rule:nonzero;stroke:none"
             id="path118"
             inkscape:connector-curvature="0" /></g><g
           id="g120"><path
             d="m 221.971,106.689 -14.175,-10.631 0.36,-0.48 14.175,10.631 -0.36,0.48"
             style="fill:#000000;fill-opacity:1;fill-rule:nonzero;stroke:none"
             id="path122"
             inkscape:connector-curvature="0" /></g><g
           id="g124"><path
             d="m 221.971,106.039 -14.175,10.631 0.36,0.48 14.175,-10.631 -0.36,-0.48"
             style="fill:#000000;fill-opacity:1;fill-rule:nonzero;stroke:none"
             id="path126"
             inkscape:connector-curvature="0" /></g><g
           id="g128"><path
             d="m 138.988,116.425 68.915,0.185 -0.002,0.6 -68.915,-0.185 0.002,-0.6"
             style="fill:#000000;fill-opacity:1;fill-rule:nonzero;stroke:none"
             id="path130"
             inkscape:connector-curvature="0" /></g><g
           id="g132"><path
             d="m 292.185,76.155 -25.546,-21.153 0.638,-0.771 25.545,21.153 -0.637,0.771 z m 1.275,-1.541 -25.545,-21.153 0.637,-0.77 25.546,21.153 -0.638,0.77 z m 0.638,-0.77 -1.913,2.311 1.913,-2.311 z m -27.459,-18.842 1.913,-2.311 -1.913,2.311"
             style="fill:#000000;fill-opacity:1;fill-rule:nonzero;stroke:none"
             id="path134"
             inkscape:connector-curvature="0" /></g><text
           transform="translate(213.55,53.2)"
           style="font-variant:normal;font-weight:normal;font-stretch:normal;font-size:9.94999981px;font-family:Euphemia;-inkscape-font-specification:EuphemiaCAS;writing-mode:lr-tb;fill:#000000;fill-opacity:1;fill-rule:nonzero;stroke:none"
           id="text136"><tspan
             x="0 5.9000001 11.45 17.4 24.1 30.15 36.200001"
             y="0"
             sodipodi:role="line"
             id="tspan138">Redwood</tspan></text>
<g
           id="g140"><path
             d="m 203.513,53.786 64.083,0 0,0.6 -64.083,0 0,-0.6 z"
             style="fill:#000000;fill-opacity:1;fill-rule:nonzero;stroke:none"
             id="path142"
             inkscape:connector-curvature="0" /></g><g
           id="g144"><path
             d="m 122.274,33.212 68.443,-0.318 -0.002,-0.6 -68.444,0.318 0.003,0.6"
             style="fill:#000000;fill-opacity:1;fill-rule:nonzero;stroke:none"
             id="path146"
             inkscape:connector-curvature="0" /></g><g
           id="g148"><path
             d="m 97.907,74.849 92.125,0 0,0.6 -92.125,0 0,-0.6"
             style="fill:#000000;fill-opacity:1;fill-rule:nonzero;stroke:none"
             id="path150"
             inkscape:connector-curvature="0" /></g><text
           transform="translate(140.265,72.298)"
           style="font-variant:normal;font-weight:normal;font-stretch:normal;font-size:9.94999981px;font-family:Euphemia;-inkscape-font-specification:EuphemiaCAS;writing-mode:lr-tb;fill:#000000;fill-opacity:1;fill-rule:nonzero;stroke:none"
           id="text152"><tspan
             x="0 5.9000001 11.45 17.4 22.25 28.299999"
             y="0"
             sodipodi:role="line"
             id="tspan154">Redson</tspan></text>
<text
           transform="translate(134.491,31.876)"
           style="font-variant:normal;font-weight:normal;font-stretch:normal;font-size:9.94999981px;font-family:Euphemia;-inkscape-font-specification:EuphemiaCAS;writing-mode:lr-tb;fill:#000000;fill-opacity:1;fill-rule:nonzero;stroke:none"
           id="text156"><tspan
             x="0 6.0999999 9.75 15.6 21.450001 27.299999"
             y="0"
             sodipodi:role="line"
             id="tspan158">B-5128</tspan></text>
<text
           transform="translate(154.597,94.186)"
           style="font-variant:normal;font-weight:normal;font-stretch:normal;font-size:9.94999981px;font-family:Euphemia;-inkscape-font-specification:EuphemiaCAS;writing-mode:lr-tb;fill:#000000;fill-opacity:1;fill-rule:nonzero;stroke:#000000;stroke-width:0.28457001;stroke-linecap:square;stroke-linejoin:bevel;stroke-miterlimit:2;stroke-dasharray:none;stroke-opacity:1"
           id="text160"><tspan
             x="0 5.25 7.3499999 16.1 18.200001 24.15"
             y="0"
             sodipodi:role="line"
             id="tspan162">J.W.S.</tspan></text>
<text
           transform="translate(137.25,113.7)"
           style="font-variant:normal;font-weight:normal;font-stretch:normal;font-size:9.94999981px;font-family:Euphemia;-inkscape-font-specification:EuphemiaCAS;writing-mode:lr-tb;fill:#000000;fill-opacity:1;fill-rule:nonzero;stroke:#000000;stroke-width:0.28457001;stroke-linecap:square;stroke-linejoin:bevel;stroke-miterlimit:2;stroke-dasharray:none;stroke-opacity:1"
           id="text164"><tspan
             x="0 6.3000002 10 15.6 21.200001 26.950001 30.4 32.849998 38.599998 44.200001 49.299999 55.200001 61.099998 67"
             y="0"
             sodipodi:role="line"
             id="tspan166">Argentine 1025</tspan></text>
<text
           transform="translate(154.8,134.4)"
           style="font-variant:normal;font-weight:normal;font-stretch:normal;font-size:9.94999981px;font-family:Euphemia;-inkscape-font-specification:EuphemiaCAS;writing-mode:lr-tb;fill:#000000;fill-opacity:1;fill-rule:nonzero;stroke:none"
           id="text168"><tspan
             x="0 5.9000001 11.95 17.200001 22.200001 27.75 31.15 36.200001 39.349998 45.200001 51.049999 56.900002 62.75"
             y="0"
             sodipodi:role="line"
             id="tspan170">Rocket (1947)</tspan></text>
<g
           id="g172"><path
             d="m 134.828,135.004 169.411,0 0,0.6 -169.411,0 0,-0.6 z"
             style="fill:#000000;fill-opacity:1;fill-rule:nonzero;stroke:none"
             id="path174"
             inkscape:connector-curvature="0" /></g><text
           transform="translate(246.05,173.75)"
           style="font-variant:normal;font-weight:normal;font-stretch:normal;font-size:9.94999981px;font-family:Euphemia;-inkscape-font-specification:EuphemiaCAS;writing-mode:lr-tb;fill:#000000;fill-opacity:1;fill-rule:nonzero;stroke:none"
           id="text176"><tspan
             x="0 5.1500001 7.5500002 13.25 19.299999 22.700001 26.1 31.15 34.299999 40.150002 46 51.849998 57.700001"
             y="0"
             sodipodi:role="line"
             id="tspan178">Linott (1966)</tspan></text>
<g
           id="g180"><path
             d="m 235.946,174.888 169.457,0 0,-0.6 -169.457,0 0,0.6"
             style="fill:#000000;fill-opacity:1;fill-rule:nonzero;stroke:none"
             id="path182"
             inkscape:connector-curvature="0" /></g><g
           id="g184"><path
             d="m 179.447,160.641 -14.175,10.631 0.36,0.48 14.175,-10.631 -0.36,-0.48"
             style="fill:#000000;fill-opacity:1;fill-rule:nonzero;stroke:none"
             id="path186"
             inkscape:connector-curvature="0" /></g><text
           transform="translate(10.15,82.85)"
           style="font-variant:normal;font-weight:normal;font-stretch:normal;font-size:9.94999981px;font-family:Euphemia;-inkscape-font-specification:EuphemiaCAS;writing-mode:lr-tb;fill:#000000;fill-opacity:1;fill-rule:nonzero;stroke:#000000;stroke-width:0.28457001;stroke-linecap:square;stroke-linejoin:bevel;stroke-miterlimit:2;stroke-dasharray:none;stroke-opacity:1"
           id="text188"><tspan
             x="0 6.1500001 8.6000004 13.5 19.6 25.35 30.450001 33.650002 39.549999 45.450001 51.349998 57.25"
             y="0"
             sodipodi:role="line"
             id="tspan190">Bison (1926)</tspan></text>
<g
           id="g192"><path
             d="m 179.284,160.565 39.908,0.181 -0.003,0.6 -39.908,-0.181 0.003,-0.6"
             style="fill:#000000;fill-opacity:1;fill-rule:nonzero;stroke:none"
             id="path194"
             inkscape:connector-curvature="0" /></g><g
           id="g196"><path
             d="m 70.693,186.423 148.498,0.024 0,0.6 -148.498,-0.024 0,-0.6"
             style="fill:#000000;fill-opacity:1;fill-rule:nonzero;stroke:none"
             id="path198"
             inkscape:connector-curvature="0" /></g><g
           id="g200"><path
             d="m 2.909,85.2 80.204,0 0,0.6 -80.204,0 0,-0.6 z"
             style="fill:#000000;fill-opacity:1;fill-rule:nonzero;stroke:none"
             id="path202"
             inkscape:connector-curvature="0" /></g><g
           id="g204"><path
             d="m 59.12,146.456 103.371,0 0,0.6 -103.371,0 0,-0.6 z"
             style="fill:#000000;fill-opacity:1;fill-rule:nonzero;stroke:none"
             id="path206"
             inkscape:connector-curvature="0" /></g><g
           id="g208"><path
             d="m 78.876,171.212 86.794,0.001 0,0.6 -86.794,-10e-4 0,-0.6"
             style="fill:#000000;fill-opacity:1;fill-rule:nonzero;stroke:none"
             id="path210"
             inkscape:connector-curvature="0" /></g><text
           transform="translate(58.451,142.245)"
           style="font-variant:normal;font-weight:normal;font-stretch:normal;font-size:9.94999981px;font-family:Euphemia;-inkscape-font-specification:EuphemiaCAS;writing-mode:lr-tb;fill:#000000;fill-opacity:1;fill-rule:nonzero;stroke:#000000;stroke-width:0.28457001;stroke-linecap:square;stroke-linejoin:bevel;stroke-miterlimit:2;stroke-dasharray:none;stroke-opacity:1"
           id="text212"><tspan
             x="0 6.3000002 10 15.6 21.200001 26.950001 30.4 32.849998 38.599998 44.200001 49.299999 55.200001"
             y="0"
             sodipodi:role="line"
             id="tspan214">Argentine 8C</tspan></text>
<text
           transform="translate(81.115,170.75)"
           style="font-variant:normal;font-weight:normal;font-stretch:normal;font-size:9.94999981px;font-family:Euphemia;-inkscape-font-specification:EuphemiaCAS;writing-mode:lr-tb;fill:#000000;fill-opacity:1;fill-rule:nonzero;stroke:#000000;stroke-width:0.28457001;stroke-linecap:square;stroke-linejoin:bevel;stroke-miterlimit:2;stroke-dasharray:none;stroke-opacity:1"
           id="text216"><tspan
             x="0 8.1000004 11.55 15 20.75 27.5 33.25 38.349998 44.25 50.150002 56.049999 62.200001"
             y="0"
             sodipodi:role="line"
             id="tspan218">Ottawa 770B </tspan></text>
<text
           transform="translate(81.115,182.75)"
           style="font-variant:normal;font-weight:normal;font-stretch:normal;font-size:9.94999981px;font-family:Euphemia;-inkscape-font-specification:EuphemiaCAS;writing-mode:lr-tb;fill:#000000;fill-opacity:1;fill-rule:nonzero;stroke:#000000;stroke-width:0.28457001;stroke-linecap:square;stroke-linejoin:bevel;stroke-miterlimit:2;stroke-dasharray:none;stroke-opacity:1"
           id="text220"><tspan
             x="0 3.2 9.1000004 15 20.9 26.799999"
             y="0"
             sodipodi:role="line"
             id="tspan222">(1910)</tspan></text>
<g
           id="g224"><path
             d="m 0,58.845 86.794,10e-4 0,0.6 L 0,59.445 l 0,-0.6"
             style="fill:#000000;fill-opacity:1;fill-rule:nonzero;stroke:none"
             id="path226"
             inkscape:connector-curvature="0" /></g><text
           transform="translate(9.15,56.3)"
           style="font-variant:normal;font-weight:normal;font-stretch:normal;font-size:9.94999981px;font-family:Euphemia;-inkscape-font-specification:EuphemiaCAS;writing-mode:lr-tb;fill:#000000;fill-opacity:1;fill-rule:nonzero;stroke:#000000;stroke-width:0.28457001;stroke-linecap:square;stroke-linejoin:bevel;stroke-miterlimit:2;stroke-dasharray:none;stroke-opacity:1"
           id="text228"><tspan
             x="0 5.9499998 11.55 17.549999 24.299999 26.75 32.5"
             y="0"
             sodipodi:role="line"
             id="tspan230">Redwing</tspan></text>
<g
           id="g232"><path
             d="M 134.575,135.463 86.54,59.422 l 0.507,-0.32 48.035,76.04 -0.507,0.321"
             style="fill:#000000;fill-opacity:1;fill-rule:nonzero;stroke:none"
             id="path234"
             inkscape:connector-curvature="0" /></g><g
           id="g236"><path
             d="m 97.107,74.629 -14.174,10.631 0.36,0.48 14.174,-10.632 -0.36,-0.479"
             style="fill:#000000;fill-opacity:1;fill-rule:nonzero;stroke:none"
             id="path238"
             inkscape:connector-curvature="0" /></g><g
           id="g240"><path
             d="m 134.64,135.07 -14.175,11.451 0.377,0.467 14.175,-11.451 -0.377,-0.467"
             style="fill:#000000;fill-opacity:1;fill-rule:nonzero;stroke:none"
             id="path242"
             inkscape:connector-curvature="0" /></g><g
           id="g244"><path
             d="m 179.85,161.278 -17.548,-14.289 0.379,-0.466 17.548,14.29 -0.379,0.465"
             style="fill:#000000;fill-opacity:1;fill-rule:nonzero;stroke:none"
             id="path246"
             inkscape:connector-curvature="0" /></g><g
           id="g248"><path
             d="m 235.608,174.725 -16.606,-13.446 0.377,-0.467 16.607,13.446 -0.378,0.467"
             style="fill:#000000;fill-opacity:1;fill-rule:nonzero;stroke:none"
             id="path250"
             inkscape:connector-curvature="0" /></g><g
           id="g252"><path
             d="m 235.544,174.251 -16.532,12.255 0.357,0.482 16.533,-12.255 -0.358,-0.482"
             style="fill:#000000;fill-opacity:1;fill-rule:nonzero;stroke:none"
             id="path254"
             inkscape:connector-curvature="0" /></g><g
           id="g256"><path
             d="m 416.841,154.626 -17.38,-33.108 0.532,-0.279 17.379,33.108 -0.531,0.279"
             style="fill:#000000;fill-opacity:1;fill-rule:nonzero;stroke:none"
             id="path258"
             inkscape:connector-curvature="0" /></g><g
           id="g260"><path
             d="m 416.824,154.236 -11.681,20.202 0.519,0.3 11.681,-20.202 -0.519,-0.3"
             style="fill:#000000;fill-opacity:1;fill-rule:nonzero;stroke:none"
             id="path262"
             inkscape:connector-curvature="0" /></g><g
           id="g264"><path
             d="m 312.356,122.595 -12.731,-15.283 0.461,-0.384 12.731,15.283 -0.461,0.384"
             style="fill:#000000;fill-opacity:1;fill-rule:nonzero;stroke:none"
             id="path266"
             inkscape:connector-curvature="0" /></g><g
           id="g268"><path
             d="m 312.311,122.141 -8.324,13.001 0.505,0.323 8.325,-13.001 -0.506,-0.323"
             style="fill:#000000;fill-opacity:1;fill-rule:nonzero;stroke:none"
             id="path270"
             inkscape:connector-curvature="0" /></g><g
           id="g272"><path
             d="m 312.97,121.76 86.758,0.343 -0.002,0.6 -86.758,-0.343 0.002,-0.6"
             style="fill:#000000;fill-opacity:1;fill-rule:nonzero;stroke:none"
             id="path274"
             inkscape:connector-curvature="0" /></g><g
           id="g276"><path
             d="m 410.521,97.242 -9.343,-21.915 0.551,-0.235 9.343,21.914 -0.551,0.236"
             style="fill:#000000;fill-opacity:1;fill-rule:nonzero;stroke:none"
             id="path278"
             inkscape:connector-curvature="0" /></g><g
           id="g280"><path
             d="m 410.874,96.681 -11.421,25.499 0.548,0.245 11.42,-25.499 -0.547,-0.245"
             style="fill:#000000;fill-opacity:1;fill-rule:nonzero;stroke:none"
             id="path282"
             inkscape:connector-curvature="0" /></g><g
           id="g284"><path
             d="m 411.381,97.383 79.066,-0.31 -0.002,-0.6 -79.067,0.31 0.003,0.6"
             style="fill:#000000;fill-opacity:1;fill-rule:nonzero;stroke:none"
             id="path286"
             inkscape:connector-curvature="0" /></g><text
           transform="translate(413.327,94.196)"
           style="font-variant:normal;font-weight:normal;font-stretch:normal;font-size:9.94999981px;font-family:Euphemia;-inkscape-font-specification:EuphemiaCAS;writing-mode:lr-tb;fill:#000000;fill-opacity:1;fill-rule:nonzero;stroke:none"
           id="text288"><tspan
             x="0 7.75 13 19.65 23.299999 28.85 34.400002 40.450001 44.099998 49.150002 52.299999 58.150002 64 69.849998 75.699997"
             y="0"
             sodipodi:role="line"
             id="tspan290">McGregor (1981)</tspan></text>
<g
           id="g292"><path
             d="m 414.651,65.034 76.447,-0.311 -0.002,-0.6 -76.447,0.311 0.002,0.6"
             style="fill:#000000;fill-opacity:1;fill-rule:nonzero;stroke:none"
             id="path294"
             inkscape:connector-curvature="0" /></g><g
           id="g296"><path
             d="m 414.908,65.121 -14.175,-10.631 0.36,-0.48 14.175,10.631 -0.36,0.48"
             style="fill:#000000;fill-opacity:1;fill-rule:nonzero;stroke:none"
             id="path298"
             inkscape:connector-curvature="0" /></g><g
           id="g300"><path
             d="m 414.908,64.641 -14.175,10.631 0.36,0.48 14.175,-10.631 -0.36,-0.48"
             style="fill:#000000;fill-opacity:1;fill-rule:nonzero;stroke:none"
             id="path302"
             inkscape:connector-curvature="0" /></g><g
           id="g304"><path
             d="m 328.151,54.711 72.94,-0.16 -0.001,-0.6 -72.94,0.16 0.001,0.6"
             style="fill:#000000;fill-opacity:1;fill-rule:nonzero;stroke:none"
             id="path306"
             inkscape:connector-curvature="0" /></g><text
           transform="translate(334.065,50.784)"
           style="font-variant:normal;font-weight:normal;font-stretch:normal;font-size:9.94999981px;font-family:Euphemia;-inkscape-font-specification:EuphemiaCAS;writing-mode:lr-tb;fill:#000000;fill-opacity:1;fill-rule:nonzero;stroke:#000000;stroke-width:0.28457001;stroke-linecap:square;stroke-linejoin:bevel;stroke-miterlimit:2;stroke-dasharray:none;stroke-opacity:1"
           id="text308"><tspan
             x="0 6.3000002"
             y="0"
             sodipodi:role="line"
             id="tspan310">A </tspan></text>
<text
           transform="translate(345.465,50.784)"
           style="font-variant:normal;font-weight:normal;font-stretch:normal;font-size:9.94999981px;font-family:Euphemia;-inkscape-font-specification:EuphemiaCAS;writing-mode:lr-tb;fill:#000000;fill-opacity:1;fill-rule:nonzero;stroke:#000000;stroke-width:0.28457001;stroke-linecap:square;stroke-linejoin:bevel;stroke-miterlimit:2;stroke-dasharray:none;stroke-opacity:1"
           id="text312"><tspan
             x="0 5.6999998 8.1499996 13.75 19.450001 24.549999 30.65 33.099998 35.650002 40.75 43.299999 45.75 51.5"
             y="0"
             sodipodi:role="line"
             id="tspan314">high oil line</tspan></text>
<text
           transform="translate(435.732,63.456)"
           style="font-variant:normal;font-weight:normal;font-stretch:normal;font-size:9.94999981px;font-family:Euphemia;-inkscape-font-specification:EuphemiaCAS;writing-mode:lr-tb;fill:#000000;fill-opacity:1;fill-rule:nonzero;stroke:none"
           id="text316"><tspan
             x="0 7.75 13.6 19.450001"
             y="0"
             sodipodi:role="line"
             id="tspan318">M427</tspan></text>
<g
           id="g320"><path
             d="m 499.031,78.512 -8.856,18.482 0.541,0.259 8.856,-18.482 -0.541,-0.259"
             style="fill:#000000;fill-opacity:1;fill-rule:nonzero;stroke:none"
             id="path322"
             inkscape:connector-curvature="0" /></g><g
           id="g324"><path
             d="m 499.341,78.493 -8.498,-13.4 0.507,-0.321 8.497,13.399 -0.506,0.322"
             style="fill:#000000;fill-opacity:1;fill-rule:nonzero;stroke:none"
             id="path326"
             inkscape:connector-curvature="0" /></g><g
           id="g328"><path
             d="m 499.583,78.943 51.759,-0.002 0,-0.6 -51.759,0.002 0,0.6"
             style="fill:#000000;fill-opacity:1;fill-rule:nonzero;stroke:none"
             id="path330"
             inkscape:connector-curvature="0" /></g><text
           transform="translate(509.533,77.99)"
           style="font-variant:normal;font-weight:normal;font-stretch:normal;font-size:9.94999981px;font-family:Euphemia;-inkscape-font-specification:EuphemiaCAS;writing-mode:lr-tb;fill:#000000;fill-opacity:1;fill-rule:nonzero;stroke:none"
           id="text332"><tspan
             x="0 5.1500001 10.8 16.65 22.5"
             y="0"
             sodipodi:role="line"
             id="tspan334">FP775</tspan></text>
<g
           id="g336"><path
             d="m 417.084,24.992 75.207,0 0,0.6 -75.207,0 0,-0.6 z"
             style="fill:#000000;fill-opacity:1;fill-rule:nonzero;stroke:none"
             id="path338"
             inkscape:connector-curvature="0" /></g><g
           id="g340"><path
             d="m 417.883,46.254 74.176,0.095 -0.001,0.6 -74.176,-0.095 10e-4,-0.6"
             style="fill:#000000;fill-opacity:1;fill-rule:nonzero;stroke:none"
             id="path342"
             inkscape:connector-curvature="0" /></g><g
           id="g344"><path
             d="m 506.286,36.163 -14.175,-10.631 0.36,-0.48 14.175,10.631 -0.36,0.48"
             style="fill:#000000;fill-opacity:1;fill-rule:nonzero;stroke:none"
             id="path346"
             inkscape:connector-curvature="0" /></g><g
           id="g348"><path
             d="m 506.053,35.683 -14.175,10.631 0.36,0.48 14.175,-10.631 -0.36,-0.48"
             style="fill:#000000;fill-opacity:1;fill-rule:nonzero;stroke:none"
             id="path350"
             inkscape:connector-curvature="0" /></g><g
           id="g352"><path
             d="m 506.466,35.623 46.063,0 0,0.6 -46.063,0 0,-0.6 z"
             style="fill:#000000;fill-opacity:1;fill-rule:nonzero;stroke:none"
             id="path354"
             inkscape:connector-curvature="0" /></g><text
           transform="translate(513.085,34.914)"
           style="font-variant:normal;font-weight:normal;font-stretch:normal;font-size:9.94999981px;font-family:Euphemia;-inkscape-font-specification:EuphemiaCAS;writing-mode:lr-tb;fill:#000000;fill-opacity:1;fill-rule:nonzero;stroke:none"
           id="text356"><tspan
             x="0 6.6500001 8.9499998 14.8 20.65 26.5"
             y="0"
             sodipodi:role="line"
             id="tspan358">CI2941</tspan></text>
<text
           transform="translate(424.35,22.3)"
           style="font-variant:normal;font-weight:normal;font-stretch:normal;font-size:9.94999981px;font-family:Euphemia;-inkscape-font-specification:EuphemiaCAS;writing-mode:lr-tb;fill:#000000;fill-opacity:1;fill-rule:nonzero;stroke:none"
           id="text360"><tspan
             x="0 6.6500001 12.35 14.85 20.549999 26.1 29.75 33.150002 38.200001 41.349998 47.200001 53.049999 58.900002 64.75"
             y="0"
             sodipodi:role="line"
             id="tspan362">Culbert (1975)</tspan></text>
<text
           transform="translate(444.55,45.544)"
           style="font-variant:normal;font-weight:normal;font-stretch:normal;font-size:9.94999981px;font-family:Euphemia;-inkscape-font-specification:EuphemiaCAS;writing-mode:lr-tb;fill:#000000;fill-opacity:1;fill-rule:nonzero;stroke:#000000;stroke-width:0.28457001;stroke-linecap:square;stroke-linejoin:bevel;stroke-miterlimit:2;stroke-dasharray:none;stroke-opacity:1"
           id="text364"><tspan
             x="0 5.9000001 11.8 17.700001"
             y="0"
             sodipodi:role="line"
             id="tspan366">5058</tspan></text>
<g
           id="g368"><path
             d="m 564.581,57.334 -13.491,20.932 0.505,0.325 13.49,-20.932 -0.504,-0.325"
             style="fill:#000000;fill-opacity:1;fill-rule:nonzero;stroke:none"
             id="path370"
             inkscape:connector-curvature="0" /></g><g
           id="g372"><path
             d="m 564.87,57.344 -13.099,-21.265 0.511,-0.315 13.099,21.266 -0.511,0.314"
             style="fill:#000000;fill-opacity:1;fill-rule:nonzero;stroke:none"
             id="path374"
             inkscape:connector-curvature="0" /></g><g
           id="g376"><path
             d="m 565.268,57.411 30.464,-0.281 -0.005,-0.6 -30.464,0.281 0.005,0.6"
             style="fill:#000000;fill-opacity:1;fill-rule:nonzero;stroke:none"
             id="path378"
             inkscape:connector-curvature="0" /></g><g
           id="g380"><path
             d="m 625.255,102.513 -33.212,51.811 0.506,0.324 33.211,-51.811 -0.505,-0.324"
             style="fill:#000000;fill-opacity:1;fill-rule:nonzero;stroke:none"
             id="path382"
             inkscape:connector-curvature="0" /></g><g
           id="g384"><path
             d="m 625.256,102.839 -29.778,-45.846 0.503,-0.326 29.778,45.845 -0.503,0.327"
             style="fill:#000000;fill-opacity:1;fill-rule:nonzero;stroke:none"
             id="path386"
             inkscape:connector-curvature="0" /></g><g
           id="g388"><path
             d="m 417.067,25.529 -14.175,-10.632 0.36,-0.48 14.175,10.632 -0.36,0.48"
             style="fill:#000000;fill-opacity:1;fill-rule:nonzero;stroke:none"
             id="path390"
             inkscape:connector-curvature="0" /></g><g
           id="g392"><path
             d="m 417.077,25.049 -14.175,10.631 0.36,0.48 14.175,-10.631 -0.36,-0.48"
             style="fill:#000000;fill-opacity:1;fill-rule:nonzero;stroke:none"
             id="path394"
             inkscape:connector-curvature="0" /></g><g
           id="g396"><path
             d="m 328.151,14.357 75.108,0.002 0,0.6 -75.108,-0.002 0,-0.6"
             style="fill:#000000;fill-opacity:1;fill-rule:nonzero;stroke:none"
             id="path398"
             inkscape:connector-curvature="0" /></g><g
           id="g400"><path
             d="m 328.151,36.223 74.993,-0.003 0,-0.6 -74.993,0.003 0,0.6"
             style="fill:#000000;fill-opacity:1;fill-rule:nonzero;stroke:none"
             id="path402"
             inkscape:connector-curvature="0" /></g><text
           transform="translate(341.376,14)"
           style="font-variant:normal;font-weight:normal;font-stretch:normal;font-size:9.94999981px;font-family:Euphemia;-inkscape-font-specification:EuphemiaCAS;writing-mode:lr-tb;fill:#000000;fill-opacity:1;fill-rule:nonzero;stroke:#000000;stroke-width:0.28457001;stroke-linecap:square;stroke-linejoin:bevel;stroke-miterlimit:2;stroke-dasharray:none;stroke-opacity:1"
           id="text404"><tspan
             x="0 8.75 11.2 16.950001 22.950001 29.049999"
             y="0"
             sodipodi:role="line"
             id="tspan406">Windom</tspan></text>
<text
           transform="translate(341.376,34.373)"
           style="font-variant:normal;font-weight:normal;font-stretch:normal;font-size:9.94999981px;font-family:Euphemia;-inkscape-font-specification:EuphemiaCAS;writing-mode:lr-tb;fill:#000000;fill-opacity:1;fill-rule:nonzero;stroke:#000000;stroke-width:0.28457001;stroke-linecap:square;stroke-linejoin:bevel;stroke-miterlimit:2;stroke-dasharray:none;stroke-opacity:1"
           id="text408"><tspan
             x="0 6.1500001 8.6000004 13.5 19.6 25.35 30.450001 36.349998"
             y="0"
             sodipodi:role="line"
             id="tspan410">Bison 70</tspan></text>
<g
           id="g412"><path
             d="m 122.093,33.152 -14.175,-10.632 0.36,-0.48 14.175,10.632 -0.36,0.48"
             style="fill:#000000;fill-opacity:1;fill-rule:nonzero;stroke:none"
             id="path414"
             inkscape:connector-curvature="0" /></g><g
           id="g416"><path
             d="m 122.019,32.672 -14.175,10.631 0.36,0.48 14.175,-10.631 -0.36,-0.48"
             style="fill:#000000;fill-opacity:1;fill-rule:nonzero;stroke:none"
             id="path418"
             inkscape:connector-curvature="0" /></g><g
           id="g420"><path
             d="m 61.327,21.914 46.771,10e-4 0,0.6 -46.771,-0.001 0,-0.6"
             style="fill:#000000;fill-opacity:1;fill-rule:nonzero;stroke:none"
             id="path422"
             inkscape:connector-curvature="0" /></g><g
           id="g424"><path
             d="m 61.328,43.843 46.771,-0.17 -0.002,-0.6 -46.772,0.17 0.003,0.6"
             style="fill:#000000;fill-opacity:1;fill-rule:nonzero;stroke:none"
             id="path426"
             inkscape:connector-curvature="0" /></g><text
           transform="translate(70.799,19.916)"
           style="font-variant:normal;font-weight:normal;font-stretch:normal;font-size:9.94999981px;font-family:Euphemia;-inkscape-font-specification:EuphemiaCAS;writing-mode:lr-tb;fill:#000000;fill-opacity:1;fill-rule:nonzero;stroke:#000000;stroke-width:0.28457001;stroke-linecap:square;stroke-linejoin:bevel;stroke-miterlimit:2;stroke-dasharray:none;stroke-opacity:1"
           id="text428"><tspan
             x="0 6.6999998 12.8 15.35 21.35 26.950001"
             y="0"
             sodipodi:role="line"
             id="tspan430">Golden</tspan></text>
<text
           transform="translate(79.841,42.039)"
           style="font-variant:normal;font-weight:normal;font-stretch:normal;font-size:9.94999981px;font-family:Euphemia;-inkscape-font-specification:EuphemiaCAS;writing-mode:lr-tb;fill:#000000;fill-opacity:1;fill-rule:nonzero;stroke:#000000;stroke-width:0.28457001;stroke-linecap:square;stroke-linejoin:bevel;stroke-miterlimit:2;stroke-dasharray:none;stroke-opacity:1"
           id="text432"><tspan
             x="0 5.9499998 8.3999996"
             y="0"
             sodipodi:role="line"
             id="tspan434">Rio</tspan></text>
<g
           id="g436"><path
             d="m 203.27,53.95 -13.491,20.932 0.505,0.325 13.49,-20.932 -0.504,-0.325"
             style="fill:#000000;fill-opacity:1;fill-rule:nonzero;stroke:none"
             id="path438"
             inkscape:connector-curvature="0" /></g><g
           id="g440"><path
             d="m 203.559,53.96 -13.098,-21.266 0.51,-0.315 13.099,21.266 -0.511,0.315"
             style="fill:#000000;fill-opacity:1;fill-rule:nonzero;stroke:none"
             id="path442"
             inkscape:connector-curvature="0" /></g><g
           id="g444"><path
             d="m 740.278,147.4 -33.212,51.811 0.506,0.324 33.211,-51.811 -0.505,-0.324"
             style="fill:#000000;fill-opacity:1;fill-rule:nonzero;stroke:none"
             id="path446"
             inkscape:connector-curvature="0" /></g><g
           id="g448"><path
             d="m 740.279,147.725 -29.778,-45.845 0.503,-0.327 29.778,45.845 -0.503,0.327"
             style="fill:#000000;fill-opacity:1;fill-rule:nonzero;stroke:none"
             id="path450"
             inkscape:connector-curvature="0" /></g><text
           transform="translate(9.173,174.264)"
           style="font-variant:normal;font-weight:normal;font-stretch:normal;font-size:9.94999981px;font-family:Euphemia;-inkscape-font-specification:EuphemiaCAS;writing-mode:lr-tb;fill:#000000;fill-opacity:1;fill-rule:nonzero;stroke:#000000;stroke-width:0.28457001;stroke-linecap:square;stroke-linejoin:bevel;stroke-miterlimit:2;stroke-dasharray:none;stroke-opacity:1"
           id="text452"><tspan
             x="0 6.3000002 10 13.7 19.799999"
             y="0"
             sodipodi:role="line"
             id="tspan454">Arrow</tspan></text>
<g
           id="g456"><path
             d="m 70.503,186.963 -14.175,-10.631 0.36,-0.48 14.175,10.631 -0.36,0.48"
             style="fill:#000000;fill-opacity:1;fill-rule:nonzero;stroke:none"
             id="path458"
             inkscape:connector-curvature="0" /></g><g
           id="g460"><path
             d="m 70.513,186.483 -14.175,10.631 0.36,0.48 14.175,-10.631 -0.36,-0.48"
             style="fill:#000000;fill-opacity:1;fill-rule:nonzero;stroke:none"
             id="path462"
             inkscape:connector-curvature="0" /></g><g
           id="g464"><path
             d="m 1.973,175.793 54.723,0 0,0.6 -54.723,0 0,-0.6 z"
             style="fill:#000000;fill-opacity:1;fill-rule:nonzero;stroke:none"
             id="path466"
             inkscape:connector-curvature="0" /></g><g
           id="g468"><path
             d="m 1.973,197.05 54.608,0.004 0,0.6 -54.608,-0.004 0,-0.6"
             style="fill:#000000;fill-opacity:1;fill-rule:nonzero;stroke:none"
             id="path470"
             inkscape:connector-curvature="0" /></g><text
           transform="translate(9.173,196.039)"
           style="font-variant:normal;font-weight:normal;font-stretch:normal;font-size:9.94999981px;font-family:Euphemia;-inkscape-font-specification:EuphemiaCAS;writing-mode:lr-tb;fill:#000000;fill-opacity:1;fill-rule:nonzero;stroke:#000000;stroke-width:0.28457001;stroke-linecap:square;stroke-linejoin:bevel;stroke-miterlimit:2;stroke-dasharray:none;stroke-opacity:1"
           id="text472"><tspan
             x="0 6.6999998 9.0500002 14.95 20.85"
             y="0"
             sodipodi:role="line"
             id="tspan474">CI975</tspan></text>
</g></g></g></svg>