<?xml version="1.0" encoding="UTF-8" standalone="no"?>
<!-- Created with Inkscape (http://www.inkscape.org/) -->

<svg
   xmlns:dc="http://purl.org/dc/elements/1.1/"
   xmlns:cc="http://creativecommons.org/ns#"
   xmlns:rdf="http://www.w3.org/1999/02/22-rdf-syntax-ns#"
   xmlns:svg="http://www.w3.org/2000/svg"
   xmlns="http://www.w3.org/2000/svg"
   xmlns:sodipodi="http://sodipodi.sourceforge.net/DTD/sodipodi-0.dtd"
   xmlns:inkscape="http://www.inkscape.org/namespaces/inkscape"
   id="svg2"
   version="1.1"
   inkscape:version="0.91 r13725"
   xml:space="preserve"
   width="541.0625"
   height="101.375"
   viewBox="0 0 541.0625 101.375"
   sodipodi:docname="Vimy.svg"><metadata
     id="metadata8"><rdf:RDF><cc:Work
         rdf:about=""><dc:format>image/svg+xml</dc:format><dc:type
           rdf:resource="http://purl.org/dc/dcmitype/StillImage" /><dc:title></dc:title></cc:Work></rdf:RDF></metadata><defs
     id="defs6"><clipPath
       clipPathUnits="userSpaceOnUse"
       id="clipPath16"><path
         d="m 0,0 432.85,0 0,81.1 L 0,81.1 0,0 Z"
         id="path18"
         inkscape:connector-curvature="0"
         style="clip-rule:evenodd" /></clipPath></defs><sodipodi:namedview
     pagecolor="#ffffff"
     bordercolor="#666666"
     borderopacity="1"
     objecttolerance="10"
     gridtolerance="10"
     guidetolerance="10"
     inkscape:pageopacity="0"
     inkscape:pageshadow="2"
     inkscape:window-width="640"
     inkscape:window-height="480"
     id="namedview4"
     showgrid="false"
     inkscape:zoom="0.53413423"
     inkscape:cx="270.53125"
     inkscape:cy="50.6875"
     inkscape:window-x="0"
     inkscape:window-y="0"
     inkscape:window-maximized="0"
     inkscape:current-layer="g10" /><g
     id="g10"
     inkscape:groupmode="layer"
     inkscape:label="Vimy"
     transform="scale(1.25,1.25)"><g
       id="g12"><g
         id="g14"
         clip-path="url(#clipPath16)"><g
           id="g20"><path
             d="m 0,0 432.85,0 0,81.1 L 0,81.1 0,0 Z"
             style="fill:#ffffff;fill-opacity:1;fill-rule:evenodd;stroke:none"
             id="path22"
             inkscape:connector-curvature="0" /></g><text
           transform="translate(312.905,30.995)"
           style="font-variant:normal;font-weight:normal;font-stretch:normal;font-size:9.94999981px;font-family:Euphemia;-inkscape-font-specification:EuphemiaCAS;writing-mode:lr-tb;fill:#000000;fill-opacity:1;fill-rule:nonzero;stroke:#000000;stroke-width:0.28457001;stroke-linecap:square;stroke-linejoin:bevel;stroke-miterlimit:2;stroke-dasharray:none;stroke-opacity:1"
           id="text24"><tspan
             x="0"
             y="0"
             id="tspan26">V</tspan></text>
<text
           transform="translate(319.005,30.995)"
           style="font-variant:normal;font-weight:normal;font-stretch:normal;font-size:9.94999981px;font-family:Euphemia;-inkscape-font-specification:EuphemiaCAS;writing-mode:lr-tb;fill:#000000;fill-opacity:1;fill-rule:nonzero;stroke:#000000;stroke-width:0.28457001;stroke-linecap:square;stroke-linejoin:bevel;stroke-miterlimit:2;stroke-dasharray:none;stroke-opacity:1"
           id="text28"><tspan
             x="0 2.45 10.95 16.049999 21.15 24.35 30.25 36.150002 42.049999 47.950001"
             y="0"
             sodipodi:role="line"
             id="tspan30">imy (1986)</tspan></text>
<g
           id="g32"><path
             d="m 305.705,33.718 86.794,0.002 0,0.6 -86.794,-0.002 0,-0.6"
             style="fill:#000000;fill-opacity:1;fill-rule:nonzero;stroke:none"
             id="path34"
             inkscape:connector-curvature="0" /></g><g
           id="g36"><path
             d="m 305.525,34.26 -14.175,-10.632 0.36,-0.48 14.175,10.632 -0.36,0.48"
             style="fill:#000000;fill-opacity:1;fill-rule:nonzero;stroke:none"
             id="path38"
             inkscape:connector-curvature="0" /></g><g
           id="g40"><path
             d="m 305.525,33.78 -14.175,10.631 0.36,0.48 14.175,-10.631 -0.36,-0.48"
             style="fill:#000000;fill-opacity:1;fill-rule:nonzero;stroke:none"
             id="path42"
             inkscape:connector-curvature="0" /></g><text
           transform="translate(229.023,20.364)"
           style="font-variant:normal;font-weight:normal;font-stretch:normal;font-size:9.94999981px;font-family:Euphemia;-inkscape-font-specification:EuphemiaCAS;writing-mode:lr-tb;fill:#000000;fill-opacity:1;fill-rule:nonzero;stroke:#000000;stroke-width:0.28457001;stroke-linecap:square;stroke-linejoin:bevel;stroke-miterlimit:2;stroke-dasharray:none;stroke-opacity:1"
           id="text44"><tspan
             x="0 6.1500001 11.9 17.65 23.4 29.15 34.049999 39.099998 41.450001"
             y="0"
             sodipodi:role="line"
             id="tspan46">Kubanskji</tspan></text>
<g
           id="g48"><path
             d="m 204.915,23.088 86.793,0.002 0,0.6 -86.793,-0.002 0,-0.6"
             style="fill:#000000;fill-opacity:1;fill-rule:nonzero;stroke:none"
             id="path50"
             inkscape:connector-curvature="0" /></g><g
           id="g52"><path
             d="m 204.915,44.349 86.793,0.002 0,0.6 -86.793,-0.002 0,-0.6"
             style="fill:#000000;fill-opacity:1;fill-rule:nonzero;stroke:none"
             id="path54"
             inkscape:connector-curvature="0" /></g><text
           transform="translate(229.024,42.59)"
           style="font-variant:normal;font-weight:normal;font-stretch:normal;font-size:9.94999981px;font-family:Euphemia;-inkscape-font-specification:EuphemiaCAS;writing-mode:lr-tb;fill:#000000;fill-opacity:1;fill-rule:nonzero;stroke:none"
           id="text56"><tspan
             x="0 5.1500001 7.5500002 13.25 19.299999 22.700001"
             y="0"
             sodipodi:role="line"
             id="tspan58">Linott</tspan></text>
<text
           transform="translate(260.174,42.59)"
           style="font-variant:normal;font-weight:normal;font-stretch:normal;font-size:9.94999981px;font-family:Euphemia;-inkscape-font-specification:EuphemiaCAS;writing-mode:lr-tb;fill:#000000;fill-opacity:1;fill-rule:nonzero;stroke:none"
           id="text60"><tspan
             x="0 3.1500001 9 14.85 20.700001 26.549999"
             y="0"
             sodipodi:role="line"
             id="tspan62">(1966)</tspan></text>
<g
           id="g64"><path
             d="m 106.424,25.954 -14.175,-10.631 0.36,-0.48 14.175,10.631 -0.36,0.48"
             style="fill:#000000;fill-opacity:1;fill-rule:nonzero;stroke:none"
             id="path66"
             inkscape:connector-curvature="0" /></g><g
           id="g68"><path
             d="m 106.424,25.49 -14.175,10.631 0.36,0.48 14.175,-10.631 -0.36,-0.48"
             style="fill:#000000;fill-opacity:1;fill-rule:nonzero;stroke:none"
             id="path70"
             inkscape:connector-curvature="0" /></g><text
           transform="translate(23.3,53.25)"
           style="font-variant:normal;font-weight:normal;font-stretch:normal;font-size:9.94999981px;font-family:Euphemia;-inkscape-font-specification:EuphemiaCAS;writing-mode:lr-tb;fill:#000000;fill-opacity:1;fill-rule:nonzero;stroke:#000000;stroke-width:0.28457001;stroke-linecap:square;stroke-linejoin:bevel;stroke-miterlimit:2;stroke-dasharray:none;stroke-opacity:1"
           id="text72"><tspan
             x="0 6.1500001 8.6000004 13.5 19.6 25.35 30.450001 33.650002 39.549999 45.450001 51.349998 57.25"
             y="0"
             sodipodi:role="line"
             id="tspan74">Bison (1926)</tspan></text>
<text
           transform="translate(30.7,73)"
           style="font-variant:normal;font-weight:normal;font-stretch:normal;font-size:9.94999981px;font-family:Euphemia;-inkscape-font-specification:EuphemiaCAS;writing-mode:lr-tb;fill:#000000;fill-opacity:1;fill-rule:nonzero;stroke:#000000;stroke-width:0.28457001;stroke-linecap:square;stroke-linejoin:bevel;stroke-miterlimit:2;stroke-dasharray:none;stroke-opacity:1"
           id="text76"><tspan
             x="0 6.6999998 9.0500002 14.95 20.85"
             y="0"
             sodipodi:role="line"
             id="tspan78">CI749</tspan></text>
<g
           id="g80"><path
             d="m 106.259,25.414 86.793,10e-4 0,0.6 -86.793,-0.001 0,-0.6"
             style="fill:#000000;fill-opacity:1;fill-rule:nonzero;stroke:none"
             id="path82"
             inkscape:connector-curvature="0" /></g><g
           id="g84"><path
             d="m 106.259,64.206 86.793,10e-4 0,0.6 -86.793,-0.001 0,-0.6"
             style="fill:#000000;fill-opacity:1;fill-rule:nonzero;stroke:none"
             id="path86"
             inkscape:connector-curvature="0" /></g><g
           id="g88"><path
             d="m 6.051,75.026 86.794,0.001 0,0.6 -86.794,-10e-4 0,-0.6"
             style="fill:#000000;fill-opacity:1;fill-rule:nonzero;stroke:none"
             id="path90"
             inkscape:connector-curvature="0" /></g><g
           id="g92"><path
             d="m 5.689,53.573 86.794,10e-4 0,0.6 -86.794,-10e-4 0,-0.6"
             style="fill:#000000;fill-opacity:1;fill-rule:nonzero;stroke:none"
             id="path94"
             inkscape:connector-curvature="0" /></g><g
           id="g96"><path
             d="m 106.424,64.995 -14.175,-10.631 0.36,-0.48 14.175,10.631 -0.36,0.48"
             style="fill:#000000;fill-opacity:1;fill-rule:nonzero;stroke:none"
             id="path98"
             inkscape:connector-curvature="0" /></g><g
           id="g100"><path
             d="m 106.641,64.266 -14.175,10.631 0.36,0.48 14.175,-10.631 -0.36,-0.48"
             style="fill:#000000;fill-opacity:1;fill-rule:nonzero;stroke:none"
             id="path102"
             inkscape:connector-curvature="0" /></g><g
           id="g104"><path
             d="m 5.852,14.802 86.794,0.001 0,0.6 -86.794,-0.001 0,-0.6"
             style="fill:#000000;fill-opacity:1;fill-rule:nonzero;stroke:none"
             id="path106"
             inkscape:connector-curvature="0" /></g><g
           id="g108"><path
             d="m 5.852,36.061 86.794,10e-4 0,0.6 -86.794,-10e-4 0,-0.6"
             style="fill:#000000;fill-opacity:1;fill-rule:nonzero;stroke:none"
             id="path110"
             inkscape:connector-curvature="0" /></g><g
           id="g112"><path
             d="m 204.482,44.993 -11.686,-19.107 0.512,-0.313 11.686,19.107 -0.512,0.313"
             style="fill:#000000;fill-opacity:1;fill-rule:nonzero;stroke:none"
             id="path114"
             inkscape:connector-curvature="0" /></g><g
           id="g116"><path
             d="m 204.457,44.584 -11.685,19.769 0.516,0.306 11.686,-19.77 -0.517,-0.305"
             style="fill:#000000;fill-opacity:1;fill-rule:nonzero;stroke:none"
             id="path118"
             inkscape:connector-curvature="0" /></g><text
           transform="translate(23.315,33.398)"
           style="font-variant:normal;font-weight:normal;font-stretch:normal;font-size:9.94999981px;font-family:Euphemia;-inkscape-font-specification:EuphemiaCAS;writing-mode:lr-tb;fill:#000000;fill-opacity:1;fill-rule:nonzero;stroke:#000000;stroke-width:0.28457001;stroke-linecap:square;stroke-linejoin:bevel;stroke-miterlimit:2;stroke-dasharray:none;stroke-opacity:1"
           id="text120"><tspan
             x="0 6.3000002 10 15.6 21.200001 26.950001 30.4 32.849998 38.599998 44.200001 49.299999 55.200001"
             y="0"
             sodipodi:role="line"
             id="tspan122">Argentine 8C</tspan></text>
<text
           transform="translate(7.2,14)"
           style="font-variant:normal;font-weight:normal;font-stretch:normal;font-size:9.94999981px;font-family:Euphemia;-inkscape-font-specification:EuphemiaCAS;writing-mode:lr-tb;fill:#000000;fill-opacity:1;fill-rule:nonzero;stroke:#000000;stroke-width:0.28457001;stroke-linecap:square;stroke-linejoin:bevel;stroke-miterlimit:2;stroke-dasharray:none;stroke-opacity:1"
           id="text124"><tspan
             x="0 8.1000004 11.55 15 20.75 27.5 33.25 38.349998 44.25 50.150002 56.049999 62.200001 67.300003 70.5 76.400002 82.300003 88.199997 94.099998"
             y="0"
             sodipodi:role="line"
             id="tspan126">Ottawa 770B (1910)</tspan></text>
</g></g></g></svg>