**Harvey**

  **Cultivar name**             Harvey
  ----------------------------- --------------
  **Used names**                
  **Origin**                    Canada
  **Year released**             
  **Year started**              
  **Affiliation of breeders**   
  **Breeding method**           
  **Type**                      Spring wheat
  **Pedigree**                  
  **Female parent**             
  Name:                         
  Origin:                       
  Type:                         
  Improvement status:           
  Performance:                  
  **Male parent**               
  Name:                         
  Origin:                       
  Type:                         
  Improvement status:           
  Performance:                  
  **Pedigree**                  
  **Pedigree description**      
  **Pedigree tree**             
  **Performance**               
  **Reference**                 


