Labelle

  -------------------------------------------------------------------------------------------------------------------------------------------------------------------------------------------------------------------------------------------------------------------------------------------------------------------------------------------------------------------------------------------------------------------------------------------------------------------------------------------------------------------------------------------------------------------------------------------------------------------------------------------------------------------------------------------------------------------------------------------------------------------------------------------------------------------------------------------------------------------------------------------------------------------------------------
  **Cultivar name**             Labelle
  ----------------------------- -------------------------------------------------------------------------------------------------------------------------------------------------------------------------------------------------------------------------------------------------------------------------------------------------------------------------------------------------------------------------------------------------------------------------------------------------------------------------------------------------------------------------------------------------------------------------------------------------------------------------------------------------------------------------------------------------------------------------------------------------------------------------------------------------------------------------------------------------------------------------------------------------------
  **Used names**                QB 611 23

  **Origin**                    Canada

  **Year released**             1991

  **Year started**              1980

  **Affiliation of breeders**   McGill University

  **Breeding method**           pedigree

  **Use type**                  a six-rowed feed spring barley

  **Pedigree**                  

  **Female parent**             

  Name:                         Loyola (QB 46 127)

  Origin:                       Canada 1972

  Use type:                     Six-row spring barley

  Improvement status:           

  Performance:                  

  **Male parent**               

  Name:                         Laurier (QB 58 7)

  Origin:                       Canada 1975

  Use type:                     Six-row spring barley

  Improvement status:           

  Performance:                  

  **Pedigree**                  

  **Pedigree description**      Labelle was derived from the cross between Loyola and Laurier made at McGill University in 1980. The F1generation was grown in the greenhouse. In the F2 and subsequent generations, a pedigree breeding method was used. Single-plant selections were made from space-planted material in the field in the F2, F3 and F4 generations. An F5 line was harvested as a bulk plot in 1984 and was subsequently increased through pure seed plots and the establishment of breeder lines. Breeder seed stocks from these lines were increased to 126kg in 1990. During 1985-1987, Labelle was tested under the designation QB.611.23 at a total of nine station-yr in the Quebec Observational preliminary and screening test. It was evaluated in the Eastern Sixed-Row Barley Registration test for 3yr (1988-1990) at sites in Quebec and Atlantic Canada and for 2yr (1989-1990) at sites in Ontario.

  **Pedigree tree**             

  **Performance**               high yield

  **Reference**                 D. E. Mather and H. R. Klinck
                                
                                Department of Plant Science, McGill
                                
                                University, Macdonald Campus, 21 111
                                
                                Lakeshore, Ste-Anne-de-Bellevue, Quebec,
                                
                                Canada H9X ICQ. Received 17 Sept. 1991,
                                
                                accepted 3l October 1991.
                                
                                http://genbank.vurv.cz/barley/pedigree/krizeni2.asp?id=6189
  -------------------------------------------------------------------------------------------------------------------------------------------------------------------------------------------------------------------------------------------------------------------------------------------------------------------------------------------------------------------------------------------------------------------------------------------------------------------------------------------------------------------------------------------------------------------------------------------------------------------------------------------------------------------------------------------------------------------------------------------------------------------------------------------------------------------------------------------------------------------------------------------------------------------------------------


